01397247|01341395|013|ABDUL HALIM|KMGRA|L|3513100202910002|PROBOLINGGO|19910202|DUSUN KARANGANOM RT11 RW06, KARANGANYAR PAITON,PROBOLINGGO|44|REAL KMG ASKRINDO|20180726|20230726|40000000|0|XXXX|0|6
01397249|01341396|013|ABDUL HAMID|KMGRA|L|3574031703860001|PROBOLINGGO|19860317|JL SUNAN AMPEL RT03 RW07, JREBENG LOR KEDOPOK,PROBOLINGGO|44|REAL KMG ASKRINDO|20180726|20230726|16000000|0|XXXX|0|6
01357886|01341186|013|ERIK RIDWANTO|KMGRA|L|3513160508940002|PROBOLINGGO|19940805|DUSUN NOKO TLOGO RT16 RW06, KARANGGEGER PAJARAKAN,PROBOLINGGO|47|REAL KMG PERANGKAT PANPA|20180726|20220726|30000000|0|XXXX|0|8
01138003|318A0076|143|ENDANG DWI LESTARI,SPD|KMGRA|P|3517026308770002|JOMBANG|19770823|MEJOYOLOSARI RT002 RW003, MEJOYOLOSARI GUDO JOMBANG,JOMBANG|40|REAL KMGH143|20180726|20230726|80000000|0|XXXX|1|8
00331901|14MG8952|014|RESTU PALUPI|KMGRA|P|3572037108660003|BLITAR|19660831|JL DR SUTOMO NO 26 RT01 RW07, SANANWETAN,BLITAR|40|014/286/KMG/VII/2018 PAN PAS|20180726|20240726|221000000|0|XXXX|1|8
14279553|14MG8953|014|HETI CANDRA SUSANTI|KMGRA|P|3572036704770005|BLITAR|19770427|JL GILI SILAT NO 30 RT03 RW05, KARANGTENGAH KEC SANANWETAN,BLITAR|40|014/287/KMG/VII/2018 PAN PAS|20180726|20230726|150000000|0|XXXX|0|8
00338139|14MG8954|014|ARWIS|KMGRA|L|3572031809730002|PALOPO|19730918|JL WR SUPRATMAN GG V NO 11, RT03 RW06 BENDOGERIT,BLITAR|40|014/289/KMG/VII/2018 PAN PAS|20180726|20280726|180000000|0|XXXX|0|8
14314964|14MG8955|014|AMBAR NORMASARI|KMGRA|P|3505095308850001|BLITAR|19850813|JL IR SOEKARNO NO21 RT01 RW09, SENTUL KEPANJENKIDUL,BLITAR|40|014/290/KMG/VII/2018 PAN PAS|20180726|20230726|100000000|0|XXXX|1|8
14084986|14MG8956|014|SUKATMI|KMGRA|P|3572036703620001|BLITAR|19620327|JL PEMUDA SUMPONO RT 1 RW 3, GEDOG SANANWETAN,BLITAR|40|014/288/KMG/VII/2018 PAN PAS|20180726|20210726|22000000|0|XXXX|1|8
00344827|14PNS977|014|AHMAT SANTOSA|KMGPA|L|3572022205620001|BLITAR|19620522|JLN WIDURI RT 01 RW 03, TLUMPU SUKOREJO,BLITAR|45|014/027/PP/VII/2018 PAN PAS|20180726|20260726|100000000|0|XXXX|1|8
47633772|04068175|004|ISMU HADI|KMGRA|L|7096466|MALANG|19700602|SETIA BUDI NO 75, RT04 RW04,MALANG|41|ASKRIDA|20180726|20230726|50000000|0|XXXX|0|3
05606616|162642DD|161|PRAYIT|KMGRA|L|3513020504870001|PROBOLINGGO|19870405|DSN KRAJAN RT02 RW01, GEMITO SUMBER,PROBOLINGGO|47|REAL KMG PRGKT PRAYIT|20180726|20220726|30000000|0|XXXX|1|8
05606625|162644DD|161|LANTIP HARYANTO|KMGRA|L|3513020704830001|PROBOLINGGO|19830407|DSN KRAJAN RT02 RW01, GEMITO SUMBER,PROBOLINGGO|47|REAL KMG PRGKT LANTIP HARYANTO|20180726|20220726|30000000|0|XXXX|0|8
05606619|162645DD|161|ALI|KMGRA|L|3513021504770001|PROBOLINGGO|19770415|DSN KRAJAN RT02 RW01, GEMITO SUMBER,PROBOLINGGO|47|REAL KMG PRGKT ALI|20180726|20220726|30000000|0|XXXX|1|8
05603470|162646DD|161|DENIK WIDYANINGSIH|KMGRA|P|3513026403810001|PROBOLINGGO|19810324|KRAJAN RT01 RW01, GEMITO SUMBER,PROBOLINGGO|47|REAL KMG RGKT DENIK WIDYANINGS|20180726|20220726|30000000|0|XXXX|0|8
16105460|162647DD|161|AGUNG PRIYO PRANOTO|KMGRA|L|3513021605860001|PROBOLINGGO|19860516|DUSUN KRAJAN RT01 RW01, GEMITO SUMBER,PROBOLINGGO|47|REAL KMG PRGKT AGUNG PRIYO P|20180726|20210726|35000000|0|XXXX|0|8
47014311|04068174|004|KUSNUN|KMGRA|L|3573040207520001|TULUNGAGUNG|19520702|JL KELAPA SAWIT IV 4, JL KELAPA SAWIT IV 4,MALANG|45|SARLINA|20180726|20210726|30000000|0|XXXX|1|4
01361707|01341404|013|INNY MAROAKONITA|KMGRA|L|3513166411920002|PROBOLINGGO|19921124|SUKUN RT2 RW1 GEJUGAN, PAJARAKAN,PROBOLINGGO|47|REALS KMG PANPA|20180726|20220726|33000000|0|XXXX|0|8
01361708|01341405|013|AYU MUSRIFA DEWI|KMGRA|P|3513164604910001|PROBOLINGGO|19910406|KRAJAN RT6 RW2 GEJUGAN, PAJARAKAN,PROBOLINGGO|47|REALS KMG PANPA|20180726|20220726|33000000|0|XXXX|0|8
01359944|01341411|013|BAWON SANTOSO|KMGRA|L|3513160512740002|PROBOLINGGO|19741106|DUSUN KRAJAN 1 RT2 RW1, KARANGGEGER PAJARAKAN,PROBOLINGGO|47|REAL PERANGKAT PANPA|20180726|20200726|26000000|0|XXXX|0|8
01348320|01341406|013|SUHARTO|KMGRA|L|9606160607670002|PROBOLINGGO|19670706|DUSUN SUKUN RT02 RW01, GEJUGAN PAJARAKAN,PROBOLINGGO|47|REALS KMG PANPA|20180726|20210726|35000000|0|XXXX|0|8
01361706|01341407|013|UPIK WINARTI|KMGRA|L|3513166408840003|PROBOLINGGO|19840824|DUSUN SUKUN RT1 RW1 GEJUGAN, TIRIS,PROBOLINGGO|47|REALS KMG PANPA|20180726|20220726|33000000|0|XXXX|0|8
01337615|01341409|013|CHOLIFAH|KMGRA|P|3513166703660001|PROBOLINGGO|19660327|DUSUN PESANTREN RT05 RW01, PAJARAKAN KULON PAJARAKAN,PROBOLINGGO|47|REAL PERANGKAT PANPA|20180726|20230726|35000000|0|XXXX|0|8
01304389|01341304|013|FAUSI|KMGRA|L|351316020270003|SITUBONDO|19700202|DUSUN KRAMAT RT03 RW01, KETOMPEN PAJARAKAN,PROBOLINGGO|47|REALS KMG PANPA|20180726|20230726|39000000|0|XXXX|0|8
01357893|01341305|013|JATIM|KMGRA|L|35131612017700002|PROBOLINGGO|19770112|DUSUN KENTRUNG RT04 RW02, KETOMPEN PAJARAKAN,PROBOLINGGO|47|REALS KMG PANPA|20180726|20210726|27000000|0|XXXX|0|8
01357890|01341402|013|RISE SETIAWATI|KMGRA|P|3513174812940001|PROBOLINGGO|19941208|DUSUN KRAMAT RT04 RW01, KETOMPEN PAJARAKAN,PROBOLINGGO|47|REALS KMG PANPA|20180726|20230726|39000000|0|XXXX|0|8
01357884|01341414|013|YASINTA DARA|KMGRA|P|3513166504690002|NGADA|19690425|DUSUN PASAR RT01 RW04, KETOMPEN PAJARAKAN,PROBOLINGGO|47|REALS KMG PANPA|20180726|20230726|39000000|0|XXXX|0|8
47218311|KG180053|163|CHOTIB AGUNG SETIAWAN,DRS|KMGPA|L|3507051711620001|MALANG|19621117|JL GUNUNG KELOP 22 RT04 RW07, DAMPIT,KAB MALANG|45|REAL KMG|20180726|20250726|120000000|0|XXXX|1|3
01258693|162648DD|161|HARIS SUPRIYANTO|KMGRA|L|3513212008820001|PROBOLINGGO|19820820|DS KENONGO, RT18 RW3,PROBOLINGGO|47|REAL KMG PERANGKAT HARIS SUPRI|20180726|20230726|35000000|0|XXXX|0|8
59001606|05906795|059|YAYUK SRI PUJI RAHAYU|KMGRA|P|3507256408690001|MALANG|19690824|JL TAWANGSARI 35, RT08 RW08,KAB MALANG|40|REAL KMG YAYUK SRI PUJI R|20180726|20280726|110000000|0|XXXX|1|8
16300458|KG180054|163|ULFA ERIK KRISTANTI,S1|KMGRA|P|3507055903840006|MALANG|19840316|DK DAWUHAN RT001 RW010, PAMOTAN DAMPIT,KAB MALANG|40|REAL KMG|20180726|20330726|102000000|0|XXXX|1|3
00410463|118A0335|011|HADI SISWAJI,DRS|KMGRA|L|3517092611610001|JOMBANG|19611126|JL DR WAHIDIN SUDIROHUSODO, RT014 RW004 SENGON JOMBANG,JOMBANG|40|REAL KMG HADI SISWAJI|20180726|20210726|150000000|0|XXXX|1|2
04503657|218A0148|045|MUTMAINAH|KMGRA|P|3517046910720002|JOMBANG|19721029|DSN MOJOUNGGUL RT02 RW01, BARENG,JOMBANG|40|REAL KMG|20180726|20300726|150000000|0|XXXX|0|8
01538881|89MG1213|089|ERWIN KURNIAWATI,SARJANA|KMGRA|P|3504175607870001|1|19870716|KRAJAN RT 03/01 TALUN KULON, BANDUNG TAGUNG,TULUNGAGUNG|40|REAL 89MG1213|20180726|20230726|30000000|0|XXXX|0|4
46008044|KPJI4015|042|SUFIANI HAJAR,SE|NKPGA|P|3507216005790001|JAKARTA|19790520|JL AMAZON 37 TIRTASARI, RESIDENCE RT007 RW004,KAB MALANG|BJ|REAL KPJ SUFIANI HAJAR|20180726|20370516|1165760068|0|XXXX|1|99
00414292|118A0336|011|JULIANTO|KMGRA|L|3517090507660001|JOMBANG|19660705|PULO KULON RT001 RW005, PULO LOR JOMBANG,JOMBANG|40|REAL KMG JULIANTO|20180726|20220726|50000000|0|XXXX|0|8
04503975|218A0149|045|HENI WAHYUDI H,SPD|KMGRA|L|3517070909690002|JOMBANG|19690919|DSN NGEPUNG RT 003 RW 001, DS SELOREJO  KEC MOJOWARNO,JOMBANG|40|REAL KMG|20180726|20240726|70000000|0|XXXX|1|8
01361266|01341397|013|ABDUL WAFI|KMGRA|L|3529220104940007|SUMENEP|19940519|DUSUN TENGAH RT05 RW03, KETUPAT RAAS,SUMENEP|44|REAL KMG ASKRINDO|20180726|20210726|30000000|0|XXXX|0|6
01258691|162641DD|161|SAMSUL ARIFIN|KMGRA|L|3513210209720001|PROBOLINGGO|19720902|DUSUN MELATI RT12 RW02, PESISIR SUMBERASIH,PROBOLINGGO|47|REAL KMG PRGKT SAMSUL ARIFIN|20180726|20230726|35000000|0|XXXX|0|8
