02253336|02246900|022|SAKUR,SPD|KMGRA|L|3504180809620001|TRENGGALEK|19620908|BANYUIRENG RT 003 RW 002, BANGUNJAYA TULUNGAGUNG,TULUNAGUNG|40|REAL KMG SAKUR|20180712|20220712|100000000|0|XXXX|0|6
01511300|1MG26700|015|RUPIAH,DRA|KMGRA|P|3504044104650001|TULUNGAGUNG|19650401|DSN GENENGAN 036/010, POJOK NGANTRU,TULUNGAGUNG|40|KMG TOP UP|20180712|20240712|200000000|0|XXXX|1|3
01312702|01341291|013|NEDY ALFIAN DJUNAEDY,DRS|KMGRA|L|3513171411650002|JOMBANG|19651114|DUSUN GENTENGAN RT10 RW02, SATREYAN MARON,PROBOLINGGO|40|REAL KMG ASPAN|20180712|20250712|182900000|0|XXXX|1|11
59008828|60015426|060|MUH DABRIL SH,SH|KMGRA|L|3515181303760003|PARE PARE|19760313|PERUM METRO KENCANA III C, NO 15 RT007 RW002,KAB MALANG|40|REAL MUH DABRIL P2%AGRAASKRDA|20180712|20280712|110000000|0|XXXX|1|3
01236613|71918028|190|RUDIYANTO|KMGPA|L|3574041703600001|PROBOLINGGO|19600317|JL KH HASAN GG MELATI NO 104 A, RT 005 RW 001,PROBOLINGGO|40|REAL KMG RUDIYANTO|20180712|20280712|100000000|0|XXXX|0|6
60010298|60015427|060|SULISTIYANA|KMGRA|P|3507135505810004|MALANG|19810515|JL BANUREJO 8 RT03 RW01, KEPANJEN MALANG,MALANG|40|REAL SULISTIYANA P2%AGRAASKRDA|20180712|20240712|50000000|0|XXXX|0|3
14296443|155MG563|155|ADIDTYA SISWANTO PUTRO|KMGRA|L|3572032501860003|BLITAR|19860125|JL SUMBA NO 179 RT002 RW007, KLAMPOK SANANWETAN,BLITAR|40|REAL KMG AN ADIDTYA|20180712|20330712|205000000|0|XXXX|1|4
14283464|155MG564|155|MUDAIM|KMGRA|L|3505070508720006|KEDIRI|19720805|DSN SENDANG RT001 RW003, TULISKRIYO,BLITAR|40|REAL KMG MUDAIM|20180712|20230712|50000000|0|XXXX|1|4
00420185|418A0069|144|ASRIFAH|KMGRA|P|3517166812660002|TUBAN|19661228|KARANGPAKIS RT02 RW02, JOMBANG,JOMBANG|40|REAL KMG ASRIFAH|20180712|20230712|150000000|0|XXXX|1|4
24326504|418A0070|144|MIFTAKUL KASANAH|KMGRA|P|3321076604920001|DEMAK|19920426|TANGGUNGHARJO RT 003 RW 005, BALEROMO DEMPET DEMAK,DEMAK|40|REAL KMG|20180712|20220712|60000000|0|XXXX|0|4
01152144|418A0071|144|SUSIYATI|KMGRA|P|3517166411800001|JOMBANG|19801124|KEDUNGJATI RT002  RW002, JOMBANG,JOMBANG|40|REAL KMG SUSIYATI|20180712|20210712|40000000|0|XXXX|0|4
01316218|01341298|013|ABDUL ASIS|KMGRA|L|3513071001690001|PROBOLINGGO|19690110|KRAJAN RT01 RW01, TLOGOARGO TIRIS,PROBOLINGGO|40|REAL KMG ASPAN|20180712|20270112|156000000|0|XXXX|1|11
07119067|07123075|071|MUHAMAD WASID|KMGRA|L|3513091304800001|PROBOLINGGO|19800413|DUSUN KRAJAN RT01 RW01, BATUR GADING,PROBOLINGGO|47|REAL KMG PERANGKAT|20180712|20220712|15000000|0|XXXX|0|11
42869733|04068146|004|INDRIYAH SRI SUWANTI,SPD|KMGRA|P|3573015301660004|MALANG|19660113|JL.TELUK MENADO 10-A RT5 RW5, ARJOSARI-BLIMBING,MALANG|40|PAN|20180712|20250712|208000000|0|XXXX|1|8
01221556|01229931|012|IRMA SAFITRI|KMGRA|P|3574035605790003|PROBOLINGGO|19790516|JL SERMA ABD RAHMAN GG V RT 3, RW 4 WIROBORANG MAYANGAN,PROBOLINGGO|40|REAL KMG 2018|20180712|20330712|256000000|0|XXXX|1|3
00446404|118A0305|011|TRI YASMADHARI|KMGRA|P|3517136712670001|JOMBANG|19671227|SENTUL RT RW 22 08 DS SENTUL, JOMBANG,JOMBANG|40|REAL KMG|20180712|20240712|100000000|0|XXXX|1|4
01149629|118A0306|011|YUDHA DEWANDRIANTO|KMGRA|L|3506142308790001|KEDIRI|19790823|JL RAYA NO 78 MADURETNO RT03, JOMBANG,KEDIRI|40|REAL KMG|20180712|20280712|150000000|0|XXXX|1|3
01135638|118A0307|011|TITIN SUHARTINI|KMGRA|P|3517205201750002|JAKARTA|19750112|DUSUN BUNGKIL RT001 RW002, KEDUNGREJO MEGALUH JOMBANG,JOMBANG|40|REAL KMG|20180712|20320712|200000000|0|XXXX|1|3
01135813|118A0308|011|DIDIK HERRI SOEBIJANTO|KMGRA|L|35179132710002|JOMBANG|19710213|KALIWUNGU IV 4 RT 5 RW 1, JOMBANG,JOMBANG|40|REAL KMG|20180712|20260712|100000000|0|XXXX|0|4
01493734|189PN057|189|SUPRAPTO|KMGRA|L|3505121601510001|BLITAR|19510116|LK SUTOJAYAN RT02 RW02, KEL SUTOJAYAN,BLITAR|45|31/PNS-VII/18/SUPRAPTO/SARLINA|20180712|20210712|25000000|0|XXXX|1|4
07131089|07123076|071|LUKMANUL HAKIM|KMGRA|L|3513091503840002|PROBOLINGGO|19840315|DUSUN RABUNAN RT06 RW03, ,PROBOLINGGO|47|REAL KMG PERANGKAT|20180712|20210712|10000000|0|XXXX|0|11
07119132|07123077|071|M ISRO|KMGRA|L|3513091102910003|PROBOLINGGO|19910211|DUSUN KLEPPO RT03 RW02, ,PROBOLINGGO|47|REAL KMG PERANGKAT|20180712|20230712|25000000|0|XXXX|0|11
16192008|07123078|071|HIDAYATUL WAHID|KMGRA|L|3513092609870002|PROBOLINGGO|19870926|DUSUN KRAJAN, ,PROBOLINGGO|47|REAL KMG PERANGKAT|20180712|20230712|25000000|0|XXXX|0|11
16192010|07123079|071|ABU YASIT|KMGRA|L|3513090101760004|PROBOLINGGO|19760101|DUSUN RABUNAN, ,PROBOLINGGO|47|REAL KMG PERANGKAT|20180712|20230712|15000000|0|XXXX|0|11
07119550|07123080|071|SAIHUDIN|KMGRA|L|3513090506730001|PROBOLINGGO|19730605|DUSUN RABUNAN RT06 RW03, ,PROBOLINGGO|47|REAL KMG PERANGKAT|20180712|20210712|10000000|0|XXXX|0|11
07119069|07123081|071|AHMAD|KMGRA|L|3513092806800002|PROBOLINGGO|19800628|DUSUN KLEPPO RT04 RW02, BATUR GADING,PROBOLINGGO|47|REAL KMG PERANGKAT|20180712|20230712|25000000|0|XXXX|0|11
07119064|07123082|071|FADLI|KMGRA|L|3513090107650238|PROBOLINGGO|19650701|DUSUN TANAH MERAH RT08 RW04, BATUR GADING,PROBOLINGGO|47|REAL KMG PERANGKAT|20180712|20220712|25000000|0|XXXX|0|11
07119201|07123083|071|SAMSUDI|KMGRA|L|3513090406760003|PROBOLINGGO|19760604|DUSUN TANAH MERAH RT009 RW004, ,PROBOLINGGO|47|REAL KMG PERAGKAT|20180712|20210712|10000000|0|XXXX|0|11
07119138|07123084|071|SHALEH|KMGRA|L|3513091305690002|PROBOLINGGO|19690513|DUSUNKRAJAN RT01 RW01, ,PROBOLINGGO|47|REAL KMG PERANTARA|20180712|20210712|10000000|0|XXXX|0|11
07119063|07123085|071|HAMBALI|KMGRA|L|3513090502760002|PROBOLINGGO|19760205|DUSUN KLEPPO RT03 RW02, BATUR GADING,PROBOLINGGO|47|REAL KMG PERANGKAT|20180712|20230712|35000000|0|XXXX|0|11
07119041|07123086|071|ASNAWI|KMGRA|L|3513090701840002|PROBOLINGGO|19840107|DUSUN KRAJAN RT01 RW01, BATUR GADING,PROBOLINGGO|47|REAL KMG PERANGKAT|20180712|20230712|35000000|0|XXXX|0|11
07119127|07123087|071|HAPILD|KMGRA|L|3513092004770002|PROBOLINGGO|19770420|DUSUN KLEPPO RT04 RW02, ,PROBOLINGGO|47|REAL KMG PERANGKAT|20180712|20210712|10000000|0|XXXX|0|11
07119068|07123088|071|UMAR|KMGRA|L|3513093001790002|PROBOLINGGO|19790130|DUSUN KRAJAN RT02 RW01, BATUR GADING,PROBOLINGGO|47|REAL KMG PERANGKAT|20180712|20210712|10000000|0|XXXX|0|11
07119549|07123089|071|MUHAMMAD|KMGRA|L|3513090304710004|PROBOLINGGO|19710403|DUSUN TANAH MERAH RT09 RW04, ,PROBOLINGGO|47|REAL KMG PERANGKAT|20180712|20210712|10000000|0|XXXX|0|11
02250319|02246901|022|KATMIATI|KMGRA|P|3503065804650001|TRENGGALEK|19650418|CETOK RT 20 RW 05, KARANGAN KARANGAN,TRENGGALEK|40|REAL KMG KATMIATI|20180712|20240712|85000000|0|XXXX|0|6
01263785|162577DD|161|ANAM AL ROSYID|KMGRA|L|3513230406690002|PROBOLINGGO|19690604|DSN BUNOT RT 18 RW 06, ,PROBOLINGGO|47|REALS ADD|20180712|20220712|30000000|0|XXXX|1|6
01549617|1MG26701|015|KUSNAN THOHARI,S AG MSI H|KMGPA|L|3504012104570001|TULUNGAGUNG|19570421|DSN JIGANG 02/02, PAKISHAJI KALIDAWIR,TULUNGAGUNG|45|REAL KMG|20180712|20310712|196000000|0|XXXX|1|2
01264140|162578DD|161|SUGIARTO|KMGRA|L|3513232409810002|PROBOLINGGO|19810924|DSN TOMBOL RT 14 RW 05, DSN TOMBOL RT 14 RW 05,PROBOLINGGO|47|REALS ADD|20180712|20220712|30000000|0|XXXX|1|6
01263781|162579DD|161|ALI WAFA|KMGRA|L|3513231501700001|PROBOLINGGO|19700115|DSN KLUMPRIT RT 02 RW 07, DSN KLUMPRIT RT 02 RW 07,PROBOLINGGO|47|REALS ADD|20180712|20230712|35000000|0|XXXX|1|6
16105367|162580DD|161|MISNARI|KMGRA|L|3513231612770001|PROBOLINGGO|19771216|DUSUN GUNUNG TUGEL RT029RW009, TONGAS KULON,PROBOLINGGO|47|REALS ADD|20180712|20230712|35000000|0|XXXX|1|6
01263778|162581DD|161|SLAMET RIADI|KMGRA|L|3513232904680001|SIDOARJO|19680429|JL SEGARA, DSN KRAJAN RT 03 RW 01,PROBOLINGGO|47|REALS ADD|20180712|20230712|35000000|0|XXXX|1|6
01263494|162582DD|161|SRI ASTUTIK|KMGRA|P|3513236805800003|PROBOLINGGO|19800528|DUSUN KRAJAN RT 03 RW 01, DUSUN KRAJAN RT 03 RW 01,PROBOLINGGO|47|REALS ADD|20180712|20230712|30000000|0|XXXX|1|6
07119492|07123090|071|TIMAN|KMGRA|L|3513200507760005|LUMAJANG|19760705|DSN TUNGGULASI RT01 RW01, ,PROBOLINGGO|47|PRKT MALASAN WETAN|20180712|20230712|35000000|0|XXXX|0|11
05605878|07123091|071|MUHAMMAD SALI|KMGRA|L|3513200303650003|PROBOLINGGO|19650303|DSN KRAJAN RT005 RW002, MALASAN WETAN TEGALSIWALAN,PROBOLINGGO|47|PRKT MALASAN WETAN|20180712|20210712|35000000|0|XXXX|1|11
05607163|07123092|071|AJIS|KMGRA|L|3513201410610001|PROBOLINGGO|19611014|DSN GUDANG RT009 RW003, MALASAN WETAN TEGALSIWALAN,PROBOLINGGO|47|PRKT MALASAN WETAN|20180712|20210712|25000000|0|XXXX|1|11
05607166|07123093|071|KARNADI|KMGRA|L|3513200107550201|PROBOLINGGO|19550701|DSN GUDANG RT010 RW003, MALASAN WETAN TEGALSIWALAN,PROBOLINGGO|47|PRKT MALASAN WETAN|20180712|20210712|25000000|0|XXXX|1|11
07119493|07123094|071|JESAK|KMGRA|L|3513202211830002|PROBOLINGGO|19830603|DUSUN GUDANG RT12 RW03, ,PROBOLINGGO|47|PRKT MALASAN WETAN|20180712|20230712|35000000|0|XXXX|0|11
05607305|07123095|071|AMINUDDIN|KMGRA|L|3513062012730004|PROBOLINGGO|19731220|DSN KRAMAT RT07 RW03, TAROKAN BANYUANYAR,KAB PROBOLINGGO|47|PRKT TAROKAN|20180712|20220712|30000000|0|XXXX|1|11
05607306|07123096|071|KY AGUS JUNAID MABRURI|KMGRA|L|3513061006910004|PROBOLINGGO|19910610|DSN KRAMAT RT06 RW03, TAROKAN BANYUANYAR,KAB PROBOLINGGO|47|PRKT TAROKAN|20180712|20220712|30000000|0|XXXX|1|11
14284531|M1650479|165|SUSWATI|KMGRA|P|3505114209620002|BLITAR|19620902|LINGK GARUM RT03 RW01, GARUM,BLITAR|40|REAL KMG SUSWATI/467/SLINA|20180712|20220712|60000000|0|XXXX|1|4
01509111|1MG26702|015|BONDAN WIRAWAN|KMGRA|L|3504100310640002|TULUNGAGUNG|19641003|DSN GEMPOL RT 1/2 KEL/DESA SUM, BERDADI SUMBERGEMPOL,TULUNGAGUNG|40|KMG TOP UP|20180712|20220712|32000000|0|XXXX|1|3
47688372|10800553|108|UMROTUL KIFTIYAH,S PD|KMGRA|P|3507266303790004|MALANG|19790323|LEBO RT 22 RW 07 MADIREDO, PUJON,KABUPATEN MALANG|40|REAL UMROTUL|20180712|20250712|130000000|0|XXXX|1|8
04506557|218A0143|045|SUSILA EKA NUGRAHANIK Y|KMGRA|P|3517074107670055|JOMBANG|19670701|JL WANARA RT 7 RW 5 JAPANAN, MOJOWARNO,JOMBANG|40|REAL KMG|20180712|20240712|75000000|0|XXXX|1|4
24337062|218A0144|045|SITI MUSTAGHFIROH|KMGRA|P|3517046706840001|JOMBANG|19840627|DUSUN MUNDUSEWU RT02 RW02, KECAMATAN BARENG,JOMBANG|40|REAL KMG|20180712|20240712|80000000|0|XXXX|0|4
04503998|218A0145|045|KARNOTO|KMGRA|L|3517111005660001|JOMBANG|19660510|DSN SEDAMAR RT01 RW01, DS TALUNKIDUL SUMOBITO,JOMBANG|40|REAL KMG|20180712|20250712|115000000|0|XXXX|1|4
14317791|14MG8921|014|DEWI ANGGRAINI,SE|KMGRA|P|1871107101930002|BLITAR|19830131|PERUM GEDONG MENENG INDAH D223, GEDONG MENENG RAJABASA,BANDAR LAMPUNG|40|014/256/VII/2018 SARLINA|20180712|20200712|20000000|0|XXXX|1|4
00337653|14MG8922|014|MUJI HARYANTI|KMGRA|P|3572024101660006|BLITAR|19660101|JL KALI KRASAK RT04 RW III, PAKUNDEN SUKOREJO,BLITAR|40|014/257/KMG/VII/2018 SARLINA|20180712|20230712|85000000|0|XXXX|1|4
14124125|14MG8923|014|RENI IRAWATI|KMGRA|P|3505076104860001|BLITAR|19860421|DS SUMBERSUKO RT 03/08, SANANKULON,BLITAR|40|014/258/KMG/VII/2018 SARLINA|20180712|20230712|60000000|0|XXXX|1|4
14037635|14MG8924|014|MUHEMI|KMGRA|L|3572030504700004|BLITAR|19700405|JL KYAI MOJO NO 22 RT02 RW05, SANANWETAN,BLITAR|40|014/259/KMG/VII/2018 SARLINA|20180712|20210712|30000000|0|XXXX|1|4
14292791|14PNS974|014|SUPRIYANTO|KMGRA|L|3572021806600001|BLITAR|19600618|JL CEMARA GG BUNTU NO 6 RT1/2, TLUMPU SUKOREJO,BLITAR|45|014/044/PNS/VII/2018 SARLINA|20180712|20330712|198000000|0|XXXX|1|4
04705049|47MG4267|047|SUGIARTO|KMGRA|L|1203111206700001|BOJONGORO|19700612|DS.WAJAKLOR RT5.RW.2, KC.BOYOLANGU,TULUNGAGUNG|40|KMG|20180712|20270712|155000000|0|XXXX|1|3
02262518|02246902|022|HABIBU ROKHMAN,SSOS|KMGRA|L|3503121407710001|TRENGGALEK|19710714|BRONGKAH RT 017 RW 006, KEDUNGLURAH POGALAN,TRENGGALEK|40|REAL KMG HABIBU ROKHMAN|20180712|20260712|150000000|0|XXXX|1|6
01264360|162583DD|161|SUNJOTO|KMGRA|L|3513230602750002|PROBOLINGGO|19750206|DUSUN GERDU RT 01 RW 01, TAMBAKREJO TONGAS,PROBOLINGGO|47|REAL KMG PERANGKAT SUNJOTO|20180712|20210712|25000000|0|XXXX|1|6
01264359|162584DD|161|SUWARTO|KMGRA|L|3513230207700002|PROBOLINGGO|19700702|DUSUN BULAK RT 21 RW 05, TAMBAK REJO TONGAS,PROBOLINGGO|47|REAL KMG PERANGKAT SUWARTO|20180712|20210712|25000000|0|XXXX|1|6
01264362|162585DD|161|AGUS PURNOMO|KMGRA|L|3513232702660002|PROBOLINGGO|19660227|DUSUN BULAK RT 18 RW 05, TAMBAKREJO TONGAS,PROBOLINGGO|47|REAL KMG PERANGKAT AGUS PURNOM|20180712|20210712|15000000|0|XXXX|0|6
01264364|162586DD|161|M JAFAR|KMGRA|L|3513230407630002|PROBOLINGGO|19630704|DUSUN PRAPATAN RT 12 RW 4, TAMBAKREJO TONGAS,PROBOLINGGO|47|REAL KMG PERANGKAT M JAFAR|20180712|20210712|25000000|0|XXXX|0|6
01264363|162587DD|161|BUDI SULASTYO|KMGRA|L|3513231011770002|PROBOLINGGO|19771110|DUSUN WRINGINAN RT 4 RW 2, TAMBAKREJO TONGAS,PROBOLINGGO|47|REAL KMG PERANGKAT BUDI SULAST|20180712|20210712|25000000|0|XXXX|1|6
16105371|162588DD|161|YOGI DWI CAHYONO|KMGRA|L|3513233107850002|PROBOLINGGO|19850731|DUSUN BULAK RT18RW05, TAMBAKREJO,PROBOLINGGO|47|REAL KMG PERANGKAT YOGI DWI|20180712|20210712|25000000|0|XXXX|0|6
01264339|162589DD|161|RUSLAN|KMGRA|L|3513220905660001|PROBOLINGGO|19660509|DSN KRAJAN 1 RT 03 RW 01, DSN KRAJAN 1 RT 03 RW 01,PROBOLINGGO|47|REAL KMG PERANGKAT RUSLAN|20180712|20230712|35000000|0|XXXX|1|6
01263995|162590DD|161|UNTUNG|KMGRA|L|3513010107680114|PROBOLINGGO|19680701|NGADIREJO RT 09 RW 03, NGADIREJO SUKAPURA,PROBOLINGGO|47|REAL KMG PERANGKAT UNTUNG|20180712|20230712|35000000|0|XXXX|1|6
01263994|162591DD|161|SUHARIYONO|KMGRA|L|3513010107750042|PROBOLINGGO|19750701|NGADIREJO RT 09 RW 03, NGADIREJO SUKAPURA,PROBOLINGGO|47|REAL KMG PERANGKAT SUHARIYONO|20180712|20230712|35000000|0|XXXX|1|6
00413193|318A0068|143|SYAFAWI|KMGRA|L|3517180108560001|JOMBANG|19560801|SDN BANDARKEDUNGMULYO I, JOMBANG,JOMBANG|45|REAL KMG143|20180712|20200712|60000000|0|XXXX|0|4
00411956|318A0069|143|ADI WIBOWO,R|KMGRA|L|3517011501590001|JOMBANG|19590115|DSN BENJENG RT5 RW1, JOMBANG,JOMBANG|45|REAL KMG143|20180712|20230712|60000000|0|XXXX|1|4
24412795|418A0072|144|INAYATUL FIKRIYAH|KMGRA|P|3517126011820001|JOMBANG|19821120|DUSUN DERO RT 003 RW 006, KEDUNGBETIK KESAMBEN,JOMBANG|40|REAL KMG INAYATUL F|20180712|20220712|85000000|0|XXXX|0|4
01112611|418A0073|144|HERLINA RAHMAWATI,SPD|KMGRA|P|3517134310810001|JOMBANG|19811003|JALAN SIDOMULYO RT 04 RW 02, KEBOAN NGUSIKAN,JOMBANG|40|REAL KMG HERLINA 2018|20180712|20230712|90000000|0|XXXX|0|4
01112842|418A0074|144|ERNA SULISTYOWATI|KMGRA|P|3517174612730001|KEDIRI|19731206|DSN MENTURUS RT001 RW001, MENTURUS KUDU,JOMBANG|40|REAL KMG ERNA SULISTYOWATI|20180712|20220712|90000000|0|XXXX|1|4
01321150|01341258|013|FARIDATUL HUSNAH|KMGRA|P|3518054604860004|LUMAJANG|19860406|DUSUN KAMPUNG BARU RT31 RW04, TEMPEH TENGAH TEMPEH,LUMAJANG|40|REAL KMG ASPAN|20180712|20240712|65000000|0|XXXX|1|11
01458866|00157MTG|046|IKSANUDIN|KMGRA|L|3572012004650004|BLITAR|19650420|JL KELUD NO 15 RT 2 RW 3, KEPANJENLOR KEPANJENKIDUL,BLITAR|40|REAL MTG IKSANUDIN|20180712|20220712|100000000|0|XXXX|0|4
04617800|00158MTG|046|SITI KOINATUN|KMGRA|P|3505146612620002|BLITAR|19621226|DSN KENDALREJO RT003 RW008, TALUN,BLITAR|40|REAL MTG SITI KOINATUN/SAR|20180712|20220712|100000000|0|XXXX|0|4
04612958|00156MTG|046|NANIK WIJIATI NINGSIH|KMGRA|P|3505106002670003|BLITAR|19670220|JL SUKARNO HATTA 27A RT03 RW15, SAWENTAR KEC KANIGORO BLITA,BLITAR|40|REAL MTG NANIK WIJIATI/ SAR|20180712|20260712|156000000|0|XXXX|1|4
14185558|00159PRP|046|JASWANTO|KMGPA|L|3505212503600001|BLITAR|19600325|DSN KALILEGI RT002 RW002, BANJARSARI SELOREJO,BLITAR|40|REAL MTG JASWANTO / SAR|20180712|20330712|199000000|0|XXXX|0|4
04776225|04068147|004|SRI RETNORINI|KMGRA|P|3573034302680002|KEDIRI|19680203|JL D SENTANI TENGAH 1 H2 A20, RT02 RW13 MADYOPURO KDKANDANG,MALANG|40|PAN|20180712|20250712|130000000|0|XXXX|1|8
47111644|04068148|004|SUWANDI|KMGRA|L|3507211503770003|MALANG|19770315|DARUNGAN RT25 RW9, DARUNGAN RT25 RW9,KAB MALANG|40|PAN|20180712|20210712|40000000|0|XXXX|1|8
46032888|04068149|004|DONNY SANDITO W,S.STP|KMGRA|L|3573032407770006|BLITAR|19770724|PUNCAK BURING INDAH E2 NO 23, RT003 RW009 BURING KDNGKANDANG,MALANG|40|PAN|20180712|20200712|30000000|0|XXXX|0|8
