01536769|47MG4276|047|SAKIM|KMGRI|L|1203062905600001|TULUNGAGUNG|19600529|DSN ROWO AGUNG RT05/RW01, ,TULUNGAGUNG|45|REAL KMG SAKIM|20180802|20230820|30000000|0|XXXX|0|3
01511555|PRMG0145|156|NURHODIN,S PD|KMGRI|L|3504171006660004|TULUNGAGUNG|19660610|DSN.KALIANYAR 01/02, NGUNGGAHAN BANDUNG,TULUNGAGUNG|40|PRMG0145|20180802|20250802|155000000|0|XXXX|1|3
01542427|PRMG0146|156|TOIMAN|KMGRI|L|3504191201540001|TULUNGAGUNG|19540112|DUSUN KEMIRI RT003 RW002, ,TULUNGAGUNG|45|PRMG0146|20180802|20220802|45000000|0|XXXX|0|3
00495669|162655MG|161|IDAWATI|KMGRI|P|3513231507720002|PROBOLINGGO|19720715|DUSUN BENGKINGAN RT02 RW03, KALIREJO DRINGU,PROBOLINGGO|40|REALS KOMPEN|20180802|20290801|200000000|0|XXXX|1|99
60006709|60PM0004|060|ONI EKO CAHYONO|KMGRI|L|350719140770001|MALANG|19700714|JL MASJID AROSIDIN RT01 RW03, GENENGAN PAKISAJI,KAB MALANG|40|REAL ONI EKO C P2% AGR ASKDO|20180802|20220802|80000000|0|XXXX|0|6
46863861|04068181|004|SRI ARMAYANTI|KMGRI|P|3573026905810001|MALANG|19810529|JL JOMBANG IA 41A RT02RW03, GADINGKASRI KLOJEN,MALANG|40|REAL KMG PAN|20180802|20230802|82000000|0|XXXX|1|8
46031288|04068182|004|SUNARDI SAMSUL|KMGRI|L|3573021410720001|MALANG|19721014|JL GADING 6B RT004 RW006, JL GADING 6B RT004 RW006,MALANG|40|REAL KMG PAN|20180802|20240802|80000000|0|XXXX|1|8
43061488|04068183|004|RUDI SISWANTO|KMGRI|L|3507192512740003|MALANG|19741225|DS WATUDAKON RT007 RW006, KENDALPAYAK PAKISAJI,MALANG|40|REAL KMG PAN|20180802|20280802|270000000|0|XXXX|0|8
47174866|04068184|004|ETIEK NILAWATY|KMGRI|P|3507094402810005|MALANG|19810204|JL PIERE TENDEAN 1/43 RT2 RW12, TUREN,KABUPATEN MALANG|40|REAL KMG PAN|20180802|20330802|190000000|0|XXXX|1|8
01305768|01341509|013|ASIS HADI|KMGRI|L|3513101208690001|PROBOLINGGO|19690112|DUSUN PASAR RT 16 RW 04, BUCOR KULON PAKUNIRAN,PROBOLINGGO|40|REALS KMG ASPAN|20180802|20290802|195000000|0|XXXX|1|11
47174877|04068185|004|SUPENO|KMGRI|L|3507092004770004|MALANG|19770420|JL TENDEAN I NO 43 RT2 RW12, TUREN,KABUPATEN MALANG|40|REAL KMG PAN|20180802|20330802|190000000|0|XXXX|1|8
47051355|04068186|004|ALI MUSYAFAK|KMGRI|L|3573051208660006|MALANG|19660812|JL KOL SUGIONO IIIB NO 22, RT04 RW05 MERGOSONO,MALANG|40|REAL KMG PAN|20180802|20240802|145500000|0|XXXX|1|8
47109701|04068187|004|DJUMALI|KMGRI|L|3507192112740002|MALANG|19741221|DSN CERME RT006 RW002, PAKISAJI,MALANG|40|REAL KMG PAN|20180802|20320802|150000000|0|XXXX|1|8
47722513|04068188|004|SRI HANGESTI|KMGRI|P|3573015210660008|YOGYAKARTA|19661012|JL DANAU MANINJAU 136 RT1 RW12, SAWOJAJAR KEDUNGKANDANG,MALANG|40|REAL KMG PAN|20180802|20220802|150000000|0|XXXX|0|8
42551533|04068189|004|SYAIFUL ARIEF|KMGRI|L|3573020809730005|MALANG|19730908|JL.EMBONG BRANTAS GG.SD/25, RT07/07 KIDULDALEM-KLOJEN,MALANG|40|REAL KMG PAN|20180802|20310802|179000000|0|XXXX|1|8
42637811|04068190|004|CHRISTIAWAN TEGUH PRASETIJO ST|KMGRI|L|3573011006710007|JOMBANG|19710610|JL TAMAN SULFAT XV/3, RT008 RW021 BUNULREJO,MALANG|40|REAL KMG PAN|20180802|20290502|200000000|0|XXXX|1|8
01360934|01341511|013|UMAR TAHA,SPDI|KMGRA|L|3511080408850005|BONDOWOSO|19850804|KARANGANYAR RT15 RW07, KARANGANYAR PAITON,PROBOLINGGO|44|REAL KMG ASKRINDO|20180802|20260802|40000000|0|XXXX|0|6
59000562|10710693|107|MULYO SISWANTO|KMGRI|L|3507241702660001|MALANG|19660217|PURI LOSARI ASRI N-5 RT04 RW03, LOSARI SINGOSARI,KAB MALANG|40|REAL KMG / ASKRIDA|20180802|20230802|178000000|0|XXXX|1|3
47200533|10710694|107|ELLY ROYENTI DRA,DRA|KMGRI|P|3507185605690001|MALANG|19690516|PERUM PERMATA ASRI B12, RT003 RW012 PAKIS,KAB MALANG|40|REAL KMG / ASKRIDA|20180802|20250802|120000000|0|XXXX|1|3
47315788|10710695|107|NASIKHIN|KMGRI|L|3507071205690002|MALANG|19690512|SUMBERJAMBE RT16 RW04, JAMBESARI PONCOKUSUMO,KAB MALANG|40|REAL KMG / ASKRIDA|20180802|20260802|154000000|0|XXXX|1|3
07117817|162656MG|161|TITIK ERNAWATI|KMGRI|P|3513225511820002|SIDOARJO|19821115|DSN KRAJAN 2 RT 03 RW 02, ,PROBOLINGGO|40|REALS PNS CAPEG|20180802|20210801|35000000|0|XXXX|0|3
04281599|KMGY4017|042|EISTY WULANDARI|KMGRI|P|3506175804850007|SIDOARJO|19850418|JL KAMBOJA 36 TULUNGREJO, RT 014 RW 003 TULUNGREJO PARE,KEDIRI|40|REAL KMG EISTY WULANDARI|20180802|20200802|69300000|0|XXXX|0|3
05607140|01341362|013|ABDUL ANAS|KMGRA|L|3513151607830003|PROBOLINGGO|19630716|DSN KRAJAN RT04 RW01, DSN KRAJAN RT04 RW01,PROBOLINGGO|47|REAL KMG ASKRINDO|20180802|20230802|39000000|0|XXXX|1|6
05607252|01341363|013|PONCO SISWANDRIO|KMGRA|L|3513151202800007|PROBOLINGGO|19800212|DSN SUKUN RT002 RW002, ,KAB PROBOLINGGO|47|REAL PERANGKT ASKRINDO|20180802|20230802|39000000|0|XXXX|1|6
05607622|01341364|013|SUPRIADI|KMGRA|L|3513152911820001|PROBOLINGGO|19821129|DSN SUKUN RT05 RW02, KARANGREN KREJENGAN,KAB PROBOLINGGO|47|REAL KMG ASKRINDO|20180802|20230802|15000000|0|XXXX|0|6
01331963|01341365|013|SUTRISNO|KMGRA|L|3513151412650002|PROBOLINGGO|19651214|DUSUN GERDU RT02 RW03, KARANGREN KREJENGAN,PROBOLINGGO|47|REAL PERANGKAT ASKRINDO|20180802|20230802|39000000|0|XXXX|0|6
05607143|01341366|013|SUBAIRI|KMGRA|L|3513150101820011|PROBOLINGGO|19820101|DESA KARANGREN RT003 RW003, DESA KARANGREN RT003 RW003,PROBOLINGGO|47|REAL KMG ASKRINDO|20180802|20230802|39000000|0|XXXX|1|6
05607144|01341367|013|BUDI IRMANSYAH|KMGRA|L|3613152106680001|PROBOLINGGO|19680621|DSN KRAJAN DESA KARANGREN RT00, 2 RW001,PROBOLINGGO|47|REAL KMG PERANGKAT ASKRINDO|20180802|20230802|30000000|0|XXXX|1|6
05607257|01341368|013|ABDUL AZIS|KMGRA|L|3513150501760001|PROBOLINGGO|19760105|DSN KRAJAN RT03 RW01, ,KAB PROBOLINGGO|47|REAL KMG ASKRINDO|20180802|20230802|25000000|0|XXXX|0|6
05607254|01341369|013|ABDILLA|KMGRA|L|3513150805860001|PROBOLINGGO|19860508|DS KARANGREN TIMUR, RT 001 RW 004,KAB PROBOLINGGO|47|REAL PERANGKT ASKRINDO|20180802|20230802|30000000|0|XXXX|1|99
05607258|01341370|013|AGUS SETIA BUDI|KMGRA|L|3513150408880003|PROBOLINGGO|19880804|DSN KRAJAN RT004 RW001, ,KAB PROBOLINGGO|47|REAL KMG ASKRINDO|20180802|20230802|30000000|0|XXXX|1|6
05607145|01341371|013|SUKARTONO|KMGRA|L|3513151211620003|PROBOLINGGO|19821112|DSN KRAJAN RT04 RW01, DS KARANGREN,PROBOLINGGO|47|REAL PERANGKAT ASKRINDO|20180802|20220802|30000000|0|XXXX|1|6
05607142|01341372|013|SALIM|KMGRA|L|3513153101660002|PROBOLINGGO|19660131|DSN KARANGREN TIMUR RT02 RW04, ,PROBOLINGGO|47|REAL KMG ASKRINDO|20180802|20230802|39000000|0|XXXX|1|6
00304771|71918030|190|TITIEN SUMARNI,SPD|KMGRI|P|3574044103590003|PROBOLINGGO|19590301|JL LEYJEN SUTOYO I NO 2, RT 4 RW 3 TISNONEHARAN,PROBOLINGGO|40|REAL KMG TITIEN S|20180802|20220802|71000000|0|XXXX|1|6
04620378|14MG8961|014|RIRIT TRISNAWATI|KMGRI|P|3505156810830004|BLITAR|19831028|DSN TEGALREJO 04/02 SEMEN, GANDUSARI,BLITAR|40|014/296/KMG/VIII/2018 PAN PAS|20180802|20280802|149000000|0|XXXX|1|8
14283165|14PNS978|014|SUPATMI|KMGRI|P|3572024606580001|BLITAR|19580606|JL SEKRAPYAK RT 05 RW 04, KEL BLITAR KEC SUKOREJO,BLITAR|45|014/047/PNS/VIII/2018 PAN PAS|20180802|20320802|160000000|0|XXXX|0|8
47631015|10800561|108|MUHAMMAD|KMGRI|L|3507260201690001|PAMEKASAN|19690102|JL BRIGJEN ABD MANAN WIJAYA, RT32 RW14 NGROTO KEC PUJON,KAB MALANG|40|REAL MUHAMMAD|20180802|20280802|225000000|0|XXXX|1|3
00412876|118W0047|011|YULI AKHWANINGTYAS|KMGRI|P|3517097107610001|JOMBANG|19610731|JL GUB SURYO V BLOK F TIMUR 3, JOMBANG,JOMBANG|45|REAL KMG PRAPEN|20180802|20330802|208000000|0|XXXX|1|3
02206828|02246940|022|WAHYUNI|KMGRI|P|3503115207710002|BANYUWANGI|19710712|PERUM SINAWANG INDAH C4, RT 022 RW 003,TRENGGALEK|40|REAL KMG WAHYUNI|20180802|20220802|100000000|0|XXXX|1|6
02248566|02246941|022|EDY SUNARTO|KMGRI|L|3504181512620003|TRENGGALEK|19621215|GEBANG RT 03 RW 01, PAKEL,TULUNGAGUNG|40|REAL KMG EDY SUNARTO|20180802|20330802|208000000|0|XXXX|1|6
02260901|02246942|022|HARSONO,A MA PD|KMGRI|L|3503100304580004|TRENGGALEK|19580403|DAWUHAN PULE RT 03 RW 02, SUKOREJO GANDUSARI,TRENGGALEK|45|REAL KMG HARSONO|20180802|20320802|200000000|0|XXXX|0|6
00350073|PR000357|004|EMY SUKARTININGSIH|KMGRI|P|3573046506650002|KEDIRI|19650625|SUKUN GEMPOL NO.7 RT11/09, TANJUNGREJO-SUKUN,MALANG|40|REAL KMG ASKRIDA|20180802|20330802|202000000|0|XXXX|1|3
00360721|04068191|004|DYAH SARASWATI MUKTIANI,SPD|KMGRI|P|3507255911660001|SIDOARJO|19661119|GRIYA HUSADA D 6 NO 20, RT03 RW13 SUMBERPORONG LAWANG,KAB MALANG|40|REAL KMG PAN|20180802|20210802|50000000|0|XXXX|0|8
47601142|04068192|004|ICHWAN HADI|KMGRI|L|3507230107830001|MALANG|19830701|DSN WUNUTSARI, RT 015 RW 004,MALANG|44|REAL KMG ASKRINDO|20180802|20230802|56000000|0|XXXX|1|6
47103799|04068193|004|PUDJI BIANTORO|KMGRI|L|3573040810680005|MALANG|19681008|JL KEPUH VII NO 24, RT005 RW005 BANDUNGREJOSARI,MALANG|40|REAL KMG PAN|20180802|20230802|25000000|0|XXXX|1|8
60001721|60PM0006|060|HARIYATNO|KMGRI|L|3507130201660002|MALANG|19660102|JALAN ADIMULYO RT01 RW01, ARDIREJO KEPANJEN MALANG,MALANG|40|REAL HARIYATNO P2% AGRAASKDO|20180802|20230802|85000000|0|XXXX|1|99
02203781|11092914|110|SUPARMIATUN|KMGRI|P|3503044312600003|TRENGGALEK|19601203|KRAJAN RT 003 RW 001, DONGKO DONGKO,TRENGGALEK|40|REAL KMG - SUPARMIATUN|20180802|20300802|150000000|0|XXXX|1|6
04702590|47MG4277|047|ALPIYAH|KMGRI|P|3504105806630001|TAGUNG|19590430|DS.SUMBERDADI RT01 RW04, SUMBERGEMPOL TULUNGAGUNG,TULUNGAGUNG|40|KMG PROMO 082018|20180802|20220802|70000000|0|XXXX|1|3
10780678|10710696|107|SUPRAPTO,S1|KMGRI|L|3507070202740003|MALANG|19740202|WONOMULYO 008/003, PONCOKUSUMO,KAB MALANG|40|REAL KMG / PAN|20180802|20210802|40000000|0|XXXX|0|8
16105386|162657DD|161|SUTRISNO|KMGRA|L|3513031207790003|PROBOLINGGO|19700807|DUSUN KRAJAN RT003RW001, RESONGO,PROBOLINGGO|47|REALS ADD RESONGO|20180802|20230802|35000000|0|XXXX|1|3
05606150|162658DD|161|TIMAN SUJONO|KMGRA|L|3513030203740001|PROBOLINGGO|19740302|DSN GEBANGAN RT015 RW003, RESONGO KURIPAN,PROBOLINGGO|47|REALS ADD RESONGO|20180802|20230802|35000000|0|XXXX|1|3
05606149|162659DD|161|MAHRUS|KMGRA|L|3513030402750002|PROBOLINGGO|19750204|DSN GUNUNGSARI RT006 RW002, RESONGO JURIPAN,PROBOLINGGO|47|REALS ADD RESONGO|20180802|20230802|35000000|0|XXXX|1|99
01582874|MGP00280|015|SUNARSIH|KMGRI|P|3504046706720002|TULUNGAGUNG|19720627|DUSUN NGADIREJO RT41 RT13, POJOK NGANTRU,TULUNGAGUNG|40|KMG TOP UP PROMO|20180802|20260802|163000000|0|XXXX|1|3
87000244|10800562|108|SITI ROMELAH,S 1|KMGRI|P|3507236606630002|BLITAR|19630626|BORO RT50 RW13 TAWANGARGO, KARANGPLOSO,KABUPATEN MALANG|40|REAL PROMO PRAPEN S ROMELAH|20180802|20330802|109500000|0|XXXX|1|3
01504555|MGP00281|015|SUMIARTUTIK|KMGRI|P|3504147008610001|SITUBONDO|19610830|DSN KARANGTENGAH RT 002/007, PULOSARI NGUNUT,TULUNGAGUNG|40|KMG TOP UP PROMO|20180802|20210802|90000000|0|XXXX|1|3
01323528|01341515|013|RISDIANA,SPD|KMGRI|P|3513126805700002|SURABAYA|19700828|TENGGER KANDANGAN GG 8 9, RT06 RW03 KANDANGAN BENOWO,SURABAYA|40|REAL KMG ASKRINDO|20180802|20290802|140000000|0|XXXX|1|6
47130366|10800566|108|JULAIKAH,SPD|KMGRI|P|3507276808610001|MALANG|19610828|SUMBERMULYO RT 11 RW 03, SUMBERAGUNG NGANTANG,KABUPATEN MALANG|40|REAL PROMO PRAPEN JULAIKAH|20180802|20280802|185300000|0|XXXX|0|3
01599447|MGP00282|015|PRAPTI SIWI SUPRIHATIN|KMGRI|P|3504046807700001|WONOGIRI|19700728|JALAN MAYOR BISMO RT03 RW02, BENDOSARI NGANTRU,TULUNGAGUNG|40|KMG TOP UP PROMO|20180802|20230802|75000000|0|XXXX|1|3
01524118|MGP00283|015|ALI MASJKUR,ST|KMGRI|L|3504160107760055|TULUNGAGUNG|19760701|DS. CAMPURDARAT 01/05, TULUNGAGUNG,TULUNGAGUNG|40|KMG TOP UP|20180802|20330802|240000000|0|XXXX|0|3
01546832|MGP00284|015|SUNU WIJAYANTO|KMGRI|L|3504032311780003|TULUNGAGUNG|19781123|JL DR WAHIDIN SH 02/01, KEDUNGWARU TULUNGAGUNG,TULUNGAGUNG|40|KMG TOP UP PROMO|20180802|20230802|127000000|0|XXXX|1|3
01535368|MGP00285|015|SUNARYO|KMGRI|L|3504051509680003|TULUNGAGUNG|19680915|JL. SRABAH RT 1/1, KARANGANOM,TULUNGAGUNG|40|KMG TOP UP PROMO|20180802|20230802|60000000|0|XXXX|1|3
13593130|KMGY4018|042|MOH MISBAHUDDIN SAG|KMGRI|L|3506262907720002|KEDIRI|19720729|JL KIHAJAR DEWANTARA, RT 01 RW 01,KEDIRI|40|REAL KMG MOH MISBAHUDDIN|20180802|20220802|50000000|0|XXXX|0|3
01238197|01229942|012|GATOT EDI|KMGRI|L|3574031906710001|PROBOLINGGO|19710619|JL RA KARTINI 6 RT 3 RW 4, SUKABUMI,PROBOLINGGO|40|REAL KMG 2018|20180802|20280802|155000000|0|XXXX|1|3
01235049|01229943|012|SRI INDRIYANI,ST|KMGRI|P|3574034301780004|PROBOLINGGO|19780103|PERUM STI JL TAMAN TIRTA 4, BLOK CC 11 RT 5 RW 8,PROBOLINGGO|40|REAL KMG 2018|20180802|20330802|305000000|0|XXXX|1|3
01233747|01229944|012|ARIDHA WIJAYANTI|KMGRI|P|3574056511810001|MADIUN|19811125|PERUMNAS JL MASTRIP BLOK C 18, RT 5 RW 4 JREBENG WETAN,PROBOLINGGO|40|REAL KMG 2018|20180802|20250802|130000000|0|XXXX|1|3
01231554|01229945|012|AGUS MISDIN|KMGRI|L|3513181301720003|LUMAJANG|19720113|DSN KRAJAN RT 3 RW 3, DS SEBAUNG GENDING,PROBOLINGGO|40|REAL KMG 2018|20180802|20290802|230000000|0|XXXX|1|3
01236335|01229946|012|YONAS DEMON AREP,SE|KMGRI|L|3574041604660002|FLORES TIMUR|19660416|JL WALIKOTA GATOT PERUM GSI 32, RT 005 RW 006,PROBOLINGGO|40|REAL KMG 2018|20180802|20230802|132000000|0|XXXX|1|11
01268763|01229948|012|EKA SRIREJEKI IRIANTIN|KMGRI|P|3574034412740008|JAYAPURA|19741204|JL KYAI MOJO 33, RT 3 RW 3,PROBOLINGGO|40|REAL KMG 2018|20180802|20330802|229000000|0|XXXX|0|6
01227314|01229949|012|DYAH ANGGARANI YUNI ELVIANTI|KMGRI|P|3574035906730001|PROBOLINGGO|19730619|JL MH TAMRIN GG BOTOLAN 01, RT 4 RW 2 SUKABUMI MAYANGAN,PROBOLINGGO|40|REAL KMG 2018|20180802|20320802|55000000|0|XXXX|0|6
01234664|01229951|012|MUHAMMAD YASIN|KMGRI|L|3574042908800005|PROBOLINGGO|19800829|JL COKRO GG KIRANA NO 4, RT 2 RW 10 KANIGARAN,PROBOLINGGO|40|REAL KMG 2018|20180802|20240802|90000000|0|XXXX|1|3
02219659|02246937|022|SLAMET MULYONO|KMGRI|L|3503132705720004|TRENGGALEK|19720527|JAJAR RT 003 RW 002, SUNBERGAYAM DURENAN,TRENGGALEK|40|REAL KMG SLAMET MULYONO|20180802|20230802|50000000|0|XXXX|1|6
02253564|02246938|022|WASITO|KMGRI|L|3504090706620001|TULUNGAGUNG|19620607|RT 005 RW 001, JARAKAN TULUNGAGUNG,TULUNGAGUNG|40|REAL KMG WASITO|20180802|20190802|35000000|0|XXXX|1|6
02255472|02246943|022|SUHARSONO|KMGRI|L|3503121910640001|TRG|19641019|DUWET RT 016 RW 006, NGETAL POGALAN,TRENGGALEK|40|REAL KMG SUHARSONO|20180802|20220802|90000000|0|XXXX|1|6
02244601|02246944|022|RIYANTO|KMGRI|L|3503122208680002|TRENGGALEK|19680822|KRAJAN RT 019 RW 005, NGULANKULON POGALAN,TRENGGALEK|40|REAL KMG RIYANTO|20180802|20230802|150000000|0|XXXX|1|6
59010663|05906796|059|WESTI RINA ERA HAYUNING|KMGRI|P|3507276110860003|MALANG|19861021|DUSUN KEBONSARI RT7 RW2, SUMBERAGUNG NGANTANG,KAB MALANG|40|REAL KMG WESTI RINA ERA H|20180802|20330802|164000000|0|XXXX|1|3
47227799|05906798|059|JALA WIRANTO,SPD|KMGRI|L|3507232007690001|SURABAYA|19690720|DONOWARIH RT15 RW04 DONOWARIH, KARANGPLOSO,KABUPATEN MALANG|40|REAL KMG JALA W|20180802|20280802|228000000|0|XXXX|1|3
08902838|89MG1215|089|ARI DHIMAS EKA FATOMI|KMGRI|L|3504151605860001|TULUNGAGUNG|19860516|DSN TEMPEL 001/001, DS TANGGULKUNDUNG 001/001,TULUNGAGUNG|40|REAL 89MG1215|20180802|20230802|100000000|0|XXXX|1|3
01543537|89MG1216|089|KARMILAH,SARJANA|KMGRI|P|3504155707680001|TAGUNG|19680717|TLAMANG RT  002/002, ,TAGUNG|40|REAL 89MG1216|20180802|20230802|63000000|0|XXXX|1|3
59021169|05906799|059|SUHARSONO|KMGRI|L|3507251009710003|BOJONEGORO|19710910|KRAJAN TIMUR G5/3 RT001 RW014, SUMBERPORONG LAWANG,KAB MALANG|40|REAL KMG SUHARSONO|20180802|20280802|241700000|0|XXXX|1|3
59021209|05906800|059|PUDJONARKO|KMGRI|L|3514012207690001|MALANG|19690722|DUSUN KANDANGSARI RT01 RW03, CAPANG PURWODADI,PASURUAN|40|REAL KMG PUDJONARKO|20180802|20260802|173000000|0|XXXX|1|3
00351985|60PM0007|060|DWINANTO HADI PRASETYO|KMGRI|P|3507190607600003|MAKASAR|19600706|JL.KENDALISODO 270 RT.09/02, KARANGPANDAN PAKISAJI,MALANG|45|REAL DWINANTO P2% AGRA ASKDA|20180802|20300802|180000000|0|XXXX|1|3
01316665|01341510|013|NAWAR,A MA|KMGRI|L|3513130204650001|PROBOLINGGO|19650402|DUSUN KRAJAN RT01 RW01, BESUKKIDUL BESUK,PROBOLINGGO|40|REAL KMG PANPA|20180802|20250402|149000000|0|XXXX|1|8
01300307|01341516|013|KUSNO SUJARWADI|KMGRI|L|3574110001220766|PROBOLINGGO|19680722|DUSUN BENDUNGAN RT 06 RW 03, RANON PAKUNIRAN,PROBOLINGGO|40|REALS KMG PAN|20180802|20260702|150000000|0|XXXX|1|8
07119545|07123183|071|AHMAD FUDHAILI|KMGRA|L|35130903305780003|PROBOLINGGO|19780503|DUSUN KRAJAN 1 RT12 RW01, ,PROBOLINGGO|47|REAL KMG PERANGKAT|20180802|20210802|15000000|0|XXXX|0|8
07119546|07123184|071|SUBNO|KMGRA|L|38513090802690003|PROBOLINGGO|19690208|DUSUN KRAJAN 2 RT06 RW02, ,PROBOLINGGO|47|REAL KMG PERANGKAT|20180802|20230802|15000000|0|XXXX|0|8
07131067|07123185|071|TOHAK|KMGRA|L|3513091212660005|PROBOLINGGO|19661212|DUSUN KRAJAN 1 RT12 RW01, ,PROBOLINGGO|47|REAL KMG PERANGKAT|20180802|20230802|30000000|0|XXXX|0|8
07119044|07123186|071|IRAWAN|KMGRA|L|3513091001840005|PROBOLINGGO|19870815|DUSUN KRAJAN I RT12 RW01, NOGOSAREN GADING,PROBOLINGGO|47|REAL KMG PERANGKAT|20180802|20230802|35000000|0|XXXX|0|8
07119213|07123187|071|ALVIAN YUDHA PRAWIRHA|KMGRA|L|3513090703910003|PROBOLINGGO|19910307|DUSUN KRAJAN1 RT001 RW001, ,PROBOLINGGO|47|REAL KMG PERANGKAT|20180802|20210802|15000000|0|XXXX|0|8
07131193|07123188|071|SULAIMAN BADRI|KMGRA|L|3513092704930006|PROBOLINGGO|19930427|DUSUN KRAJAN 2 RT07 RW02, NOGOSAREN GADING,PROBOLINGGO|47|REAL KMG PERANGKAT|20180802|20220802|30000000|0|XXXX|0|8
07131192|07123189|071|MOHAMMAD TOHIR|KMGRA|L|351309170790001|PROBOLINGGO|19790810|DUSUN KRAJAN RT06 RW02, NOGOSAREN GADING,PROBOLINGGO|47|REAL KMG PERANGKAT|20180802|20230802|15000000|0|XXXX|0|8
07119212|07123190|071|ABDUL WAFI|KMGRA|L|3513091502770004|PROBOLINGGO|19780411|DUSUN KAMBENGAN RT016 RW004, ,PROBOLINGGO|47|REAL KMG PERANGKAT|20180802|20230802|20000000|0|XXXX|0|8
07119096|07123191|071|SUHRIYAH|KMGRA|P|3513095003730006|PROBOLINGGO|19731112|DUSUN WONOSARI RT10 RW03, NOGOSAREN GADING,PROBOLINGGO|47|REAL KMG PERANGKAT|20180802|20230802|25000000|0|XXXX|0|8
07119210|07123192|071|SUKIRMANTO|KMGRA|L|3513092001710003|PROBOLINGGO|19710120|DUSUN KAMBENGAN RT014 RW004, ,PROBOLINGGO|47|REAL KMG PERANGKAT|20180802|20230802|35000000|0|XXXX|0|8
07119544|07123193|071|ANAM|KMGRA|L|3513090205700002|PROBOLINGGO|19700502|DUSUN KAMBENGAN RT13 RW04, ,PROBOLINGGO|47|REAL KMG PERANGKAT|20180802|20230802|35000000|0|XXXX|0|8
07131191|07123194|071|FATHOL LUKMAN A|KMGRA|L|3513092707770001|PROBOLINGGO|19770727|DUSUN KAMBENGAN RT14 RW04, NOGOSAREN GADING,PROBOLINGGO|47|REAL KMG PERANGKAT|20180802|20230802|35000000|0|XXXX|0|8
07131190|07123195|071|ABUDARIN|KMGRA|L|3513092407860002|PROBOLINGGO|19860724|DUSUN KRAJAN 1 RT12 RW01, NOGOSAREN GADING,PROBOLINGGO|47|REAL KMG PERANGKAT|20180802|20230802|35000000|0|XXXX|0|8
07131189|07123196|071|MAULANA SUPYANDI|KMGRA|L|3513090506920001|PROBOLINGGO|19920605|DUSUN KRAJAN 1 RT12 RW01, NOGOSAREN GADING,PROBOLINGGO|47|REAL KMG PERANGKAT|20180802|20230802|35000000|0|XXXX|0|8
02281120|02246939|022|SITI NUR AISIYAH|KMGRI|P|3503135401830002|TRENGGALEK|19830114|BAKALAN RT 05 RW 03, SUMBERGAYAM DURENAN,TRENGGALEK|40|REAL KMG SITI NUR AISIYAH|20180802|20280802|120000000|0|XXXX|0|6
01315978|07123181|071|HOLIN SISWANTO|KMGRI|L|3513171910750002|PROBOLINGGO|19751019|DUSUN KRAJAN II RT010 RW002, MARON WETAN MARON,PROBOLINGGO|40|REAL KMG PROMO|20180802|20260802|180000000|0|XXXX|1|8
16100185|162660MG|161|DODY ULIANTONO|KMGRI|L|3513242705810002|PROBOLINGGO|19810527|KRAJAN RT08/02 PURUT, PURUT LUMBANG,PROBOLINGGO|40|REALS KOMPEN KMG|20180802|20330802|236000000|0|XXXX|1|3
04007865|0406840M|040|KUSHENDRO WAHYU NUGROHO,SE|KMGRI|L|3573022101730002|MALANG|19730121|JL GALUNGGUNG 99 RT.5 RW.3, RT01 RW02,MALANG|40|REAL KMG PROMO KUSHENDRO|20180802|20300802|290000000|0|XXXX|1|99
04481966|KG180056|163|SUTIKNO SPD,S1|KMGRI|L|3507050408630003|MALANG|19630804|LARANGAN RT01 RW01, MAJANGTENGAH DAMPIT,MALANG|45|REAL KMG PROMO SUTIKNO|20180802|20330802|310000000|0|XXXX|1|3
47238500|KG180057|163|GALANG MANU ISDIYATMOKO,AMA PD|KMGRI|L|3507061405590002|MALANG|19590514|DSN TAWANGSARI RT23 RW09, TIRTOMARTO AMPELGADING,KAB MALANG|40|REAL KMGKG180057|20180802|20330802|175000000|0|XXXX|0|3
04008899|0406841M|040|WELLY CHANDRA KUSUMA,A.MD|KMGRI|P|3579013101800002|MALANG|19800131|JL.BASKET NO.4 RT.1 RW.3, RT01 RW02,BATU|40|REAL KMG PROMO WELLY CHANDRA K|20180802|20220802|68000000|0|XXXX|1|6
04012887|0406842M|040|TRI AGUS WALUYO,SH|KMGRI|L|3519091703820001|MADIUN|19820317|JL.DEWI SARTIKA I RT.9 RW.9, RT01 RW02,BATU|40|REAL KMG PROMO TRI AGUS WALUYO|20180802|20240802|145000000|0|XXXX|1|8
04003097|0406843M|040|ENDAH TRI NURCAHYANI,SAP|KMGRI|P|3579014205830001|MALANG|19830502|JL.PATIMURA 16 RT.5 RW.7, RT01 RW02,BATU|40|REAL KMG PROMO ENDAH TRI NURCA|20180802|20300802|175000000|0|XXXX|1|11
04012623|0406845M|040|NAFISA ANANDA GUDBAN,SE|KMGRI|P|3573034601790012|KUPANG|19790106|PERUM GRIYA SANTIKA KAV.12, RT01 RW02,MALANG|40|REAL KMG PROMO|20180802|20280802|175000000|0|XXXX|0|3
60144528|60PM0008|060|PURNOMO SAPUTRO|KMGRI|L|3521090908910002|NGAWI|19910809|ASRAMA YON ZIPUR 5, RT002 RW006,KAB MALANG|43|REAL PURNOMO SAPUTRO P2%AGRADO|20180802|20230802|100000000|0|XXXX|0|6
47032652|04068195|004|HENNY SUSANTO|KMGRI|L|3573022312730002|MALANG|19731223|JL KAWI I/1296 RT01 RW05, KAUMAN KLOJEN,MALANG|40|REAL KMG PAN|20180802|20280802|180000000|0|XXXX|1|8
47146999|04068196|004|FRANSISKA IING MARIANDINI,SE|KMGRI|P|3573055307820025|MALANG|19820713|JL JOYO RAHARJO II/259, RT5 RW2,MALANG|40|REAL KMG PAN|20180802|20230802|110000000|0|XXXX|1|8
40400033|04068197|004|MARTINI|KMGRI|P|3507245401580001|MALANG|19580112|JL MONDOROKO III PERUM RSSA 45, BANJARARUM SINGOSARI,MALANG|45|REAL KMG PAN|20180802|20320802|210000000|0|XXXX|1|8
47410339|TR000872|162|RIDUWAN|KMGRI|L|3507092202710001|BANYUWANGI|19710222|JL JAGALAN 31 RT01RW14, TUREN,MALANG|41|REAL KMG|20180802|20250802|150000000|0|XXXX|1|3
42554099|TR000874|162|SUPRIONO,SPD|KMGRI|L|3507090303650001|MALANG|19650303|DSN MADYORENGGO RT004 RW006, TALOK TUREN,KAB MALANG|40|REAL|20180802|20240802|120000000|0|XXXX|1|3
01238487|01229947|012|SHOLEH HUDIN|KMGRI|L|3513211007820005|PROBOLINGGO|19820710|DSN LORI RT 11 RW 3, DS SUMURMATI SUMBERASIH,PROBOLINGGO|40|REAL KMG 2018|20180802|20260802|120000000|0|XXXX|1|6
01206963|01229950|012|SYAIFUL BAHRI,SPD|KMGRI|L|3574050410640001|LUMAJANG|19641004|JL MASTRIP GG MELON NO 12, RT 1 RW 4 JREBENG WETAN,PROBOLINGGO|40|REAL KMG 2018|20180802|20240802|200000000|0|XXXX|1|3
01235950|01229952|012|RUKMIATININGSIH|KMGRI|P|3574045905970001|PROBOLINGGO|19690519|JL KH ABDUL AZIS GG KEMIRI 102, RT 04 RW 10,PROBOLINGGO|40|REAL KMG 2018|20180802|20260802|134000000|0|XXXX|1|3
01220936|01229953|012|SETYO WINARTO|KMGRI|L|3574021507740001|KEBUMEN|19740715|PERUM STI BLOK DD 2 RT05 RW08, SUMBERTAMAN WONOASIH,PROBOLINGGO|40|REAL KMG 29953|20180802|20230802|95000000|0|XXXX|1|11
01235045|01229954|012|RONY HADI SUHANTORO,ST|KMGRI|L|3574032804780004|PROBOLINGGO|19780428|JL YOS SUDARSO II NO 6, RT 2 RW 15 MANGUNHARJO,PROBOLINGGO|40|REAL KMG 2018|20180802|20310802|287000000|0|XXXX|0|3
01232320|01229955|012|MOHAMMAD EDI|KMGRI|L|3574010207800003|PROBOLINGGO|19800702|JL GUNUNG BATUR NO 64, RT 3 RW 6,PROBOLINGGO|40|REAL KMG 2018|20180802|20330802|190000000|0|XXXX|1|3
01234812|01229956|012|ANGGA BUDI PRAMUDYA|KMGRI|L|3574042608870002|PROBOLINGGO|19870826|JL ARIEF RAHMAN HAKIM NO 17, RT 03 RW 01,PROBOLINGGO|40|REAL KMG 2018|20180802|20200802|25000000|0|XXXX|1|11
01534266|PRMG0147|156|ELIS NUR AMANAH,NIHIL|KMGRI|P|3504154705740003|TULUNGAGUNG|19740507|DS.BESUKI RT 06/02, BESUKI,TULUNGAGUNG|40|PRMG0147|20180802|20210802|50000000|0|XXXX|1|3
01536744|PRMG0148|156|SUNDARI|KMGRI|P|3504025404750004|TULUNGAGUNG|19750414|DSN KEDUNGDOWO RT001 RW001, DS GESIKAN PAKEL,TULUNGAGUNG|40|PRMG0148|20180802|20320802|195000000|0|XXXX|1|3
59021751|05906801|059|RAHAYU MARDI SAFITRI|KMGRI|P|3507254201730001|MALANG|19730101|JL SUMBER TAMAN DALAM RT004, RW004 KALIREJO LAWANG,KAB MALANG|40|REAL KMG RAHAYU MARDI S|20180802|20280802|120000000|0|XXXX|0|3
59021938|05906803|059|TIWIK KUSDININGSIH,DR|KMGRI|P|3515186901680001|SURABAYA|19680129|JL JEND S PARMAN 26 RT01 RW11, WARU SIDOARJO,SIDOARJO|40|REAL KMG TIWIK KUSDININGSIH|20180802|20280802|160000000|0|XXXX|1|3
24327978|418A0081|144|SITI LISA RHODIYAH|KMGRI|P|3517175604840001|JOMBANG|19840416|DUSUN NGUSIKAN RT020 RW009, NGUSIKAN,JOMBANG|40|REAL KMG PROMO SITI LISA|20180802|20330802|150000000|0|XXXX|1|3
14292735|14MG8962|014|NORMA YUNITA|KMGRI|P|3572036004820003|BLITAR|19820420|JL WR SUPRATMAN 57 C, BENDOGERIT,BLITAR|40|014/296/KMG/VIII/2018 PAN PAS|20180802|20260802|78000000|0|XXXX|1|8
14201880|14MG8963|014|DEWI ASTRI RATNO TIMUR|KMGRI|P|3505176711770002|BLITAR|19771127|JL MASTRIP 77 RT03 RW01, KEL WLINGI,BLITAR|40|014/297/KMG/VIII/2018 PAN PAS|20180802|20200802|20000000|0|XXXX|0|8
01469817|14MG8964|014|DIDIT RAHMAN HIDAYAT|KMGRI|L|3572032409790005|SURABAYA|19790924|JL DIPONEGORO NO 7, RT002 RW009 SANANWETAN,BLITAR|40|014/298/KMG/VIII/2018 PAN PAS|20180802|20190802|20000000|0|XXXX|1|8
00344779|14MG8965|014|PURWANTI|KMGRI|P|3505096108670003|BLITAR|19670821|RT 3 RW 2 SUMBERASRI, NGLEGOK,BLITAR|40|014/299/KMG/VIII/2018 PAN PAS|20180802|20270802|234000000|0|XXXX|1|8
14071388|14MG8966|014|SRI HARTINI|KMGRI|P|3505096710700001|BLITAR|19701027|KRENCENG RT 03 RW 1, KRENCENG NGLEGOK,BLITAR|40|014/300/KMG/VIII/2018 PAN PAS|20180802|20300802|190000000|0|XXXX|1|8
14038488|14PNS979|014|CH NUNUK ASMANINGSIH|KMGRI|P|3572017006620013|BLITAR|19620630|GRIYA MELATI INDAH II F7, RT 03 RW 10 KEPANJEN KIDUL,BLITAR|45|014/028/PP/VIII/2018 PAN PAS|20180802|20330802|157000000|0|XXXX|1|8
14073208|14PNS980|014|SUGENG SUTRISNO|KMGRI|L|3572031204560008|SITUBONDO|19560412|PERUM GKR BLOK I NO 02, RT002 RW016 SANANWETAN,BLITAR|45|014/048/PNS/VIII/2018 PAN PAS|20180802|20310802|150000000|0|XXXX|1|8
00336134|155MG571|155|SUNARKO|KMGRI|L|3505040402600002|BLITAR|19600502|DSN PLUMPUNGREJO RT 03 RW 01, PLUMPUNGREJO KADEMANGAN,BLITAR|45|REAL KMG SUNARKO|20180802|20320802|100000000|0|XXXX|1|8
02415167|155MG572|155|TUTIK RAHAYU,SPD|KMGRI|P|3572016210740003|BLITAR|19741022|JL.  CIPUNEGARA, RT/RW:003/006,BLITAR|40|REAL KMG TUTIK RAHAYU|20180802|20230802|80000000|0|XXXX|1|8
00343185|155PNS64|155|LILIOSA SUPRIH|KMGRI|P|3505076110620001|BLITAR|19621021|DS BENDOWULUNG RT 01 RW 02, BENDOWULUNG SANANKULON,BLITAR|40|REAL PRAPEN LILIOSA SUPRIH|20180802|20330802|158000000|0|XXXX|1|8
01338721|162663MG|161|SARIOYO,SPD|KMGRI|L|700815270942|PROBOLINGGO|19700811|WONOKERSO RT02 RW03, SUMBER,PROBOLINGGO|40|REALS KMG SARIOYO|20180802|20280801|200000000|0|XXXX|0|3
02250544|02246945|022|TUTIK BUDI ASTUTI|KMGRI|P|3503065909710001|TRENGGALEK|19710919|JAMPI RT 004 RW 001, NGENTRONG KARANGAN,TRENGGALEK|40|REAL KMG TUTIK BUDI ASTUTI|20180802|20220802|60000000|0|XXXX|0|6
00308060|21918039|190|MURPIYANTO|KMGRI|L|3513181508620002|PROBOLINGGO|19620815|DSN KERTAH RT 3 RW 8 SEBAUNG, GENDING,PROBOLINGGO|40|REAL KMG MURPIYANTO|20180802|20330802|264000000|0|XXXX|1|6
02249704|11092915|110|PRAYITNO,66351|KMGRI|L|9903011011830007|TRENGGALEK|19831110|KARANG RT 024 RW 007, WONOCOYO PANGGUL,TRENGGALEK|40|REAL KMG - PRAYITNO|20180802|20250802|95000000|0|XXXX|1|6
02204775|11092916|110|SUYOTO|KMGRI|L|3503011002640002|TRENGGALEK|19640210|KRAJAN RT 06 RW 02, BODAG KEC PANGGUL,TRENGGALEK|40|REAL KMG - SUYOTO|20180802|20310802|200000000|0|XXXX|0|6
01595634|MGP00287|015|TRI ISMOYOWATI,NIHIL|KMGRI|P|3504027011690001|TULUNGAGUNG|19691130|DSN SELOREJO RT002 RW004, DS SELOREJO KEC NGUNUT,TULUNGAGUNG|40|KMG TOP UP|20180802|20290802|196000000|0|XXXX|1|3
01534984|MGP00288|015|RETNO GIARTI,NIHIL|KMGRI|P|3504024807780002|TULUNGAGUNG|19780708|DSN PRAYAN RT6/3 BOYOLANGU, ,TULUNGAGUNG|40|KMG TOP UP PROMO|20180802|20330802|276000000|0|XXXX|1|3
11204327|KMGA0678|112|WIWIK ISMALIYAH,SMA|KMGRI|P|3506184506620009|KEDIRI|19620605|DSN DAMARWULAN RT018 RW004, DAMARWULAN KEPUNG,KEDIRI|40|REAL KOMPEN KMG WIWIK MAN KDG|20180802|20220202|55000000|0|XXXX|1|6
14291026|189MG449|189|IMAM WAHYUNI|KMGRI|L|3505121403670002|BLITAR|19670314|JLN RAYA UTARA 88 BULU, RT001 RW001 KALIPANG S JAYAN,BLITAR|40|40/MG/VIII/2018/IMAM W/PAN PA|20180802|20260802|232000000|0|XXXX|1|8
04515549|218A0153|045|SUHARJO|KMGRI|L|3517071808650006|JOMBANG|19650818|JL BUNTU RT05 RW07, JAPANAN,JOMBANG|40|REAL KMG|20180802|20220802|40000000|0|XXXX|1|3
04510635|218A0154|045|KHOIRUN NISA|KMGRI|P|3517035709740001|JOMBANG|19740917|JL RAUNG 3 RT02 RW01, KAUMAN NGORO,JOMBANG|40|REAL KMG|20180802|20260802|40000000|0|XXXX|1|3
04500971|118A0340|011|SADJI|KMGRI|L|3517072808540002|JBG|19540828|DSN KLAGEN RT 001 RW 010, KARANGLO MOJOWARNO,JOMBANG|45|REAL KMG SADJI|20180802|20230802|60000000|0|XXXX|1|3
00412327|118A0341|011|MASYKUR,KS DRS MSI|KMGRI|L|3517192104610001|SURABAYA|19610421|DSN REJOSO RT03 RW06, JOMBANG,JOMBANG|44|REAL KMG MASYKUR|20180802|20210802|30000000|0|XXXX|0|2
01188866|118A0342|011|BAMBANG MULYONO|KMGRI|L|3517051303800002|JOMBANG|19800313|DUSUN WONOMERTO RT 03 RW 03, KECAMATAN WONOSALAM,JOMBANG|40|REAL KMG BAMBANG M|20180802|20330802|149000000|0|XXXX|1|3
00415897|318A0077|143|OISATIN|KMGRI|P|3517014511660001|JOMBANG|19661105|DSN PLUMPUNG RT2 RW3 PERAK, JOMBANG,JOMBANG|40|REAL KMG143|20180802|20230802|125000000|0|XXXX|0|3
01105912|318A0078|143|HARI WILUJENG|KMGRI|P|3517184505660001|KEDIRI|19660505|MOJOKAMBANG RT 02 RW 05, JOMBANG,JOMBANG|40|REAL KMG143|20180802|20200802|50000000|0|XXXX|0|3
01136677|418A0082|144|MASYKUR,SE|KMGRI|L|3517121111620001|JOMBANG|19621111|KESAMBEN RT3 RW10, JOMBANG,JOMBANG|40|REAL KMG PROMO MASYKUR|20180802|20220802|55000000|0|XXXX|1|3
01107781|418A0083|144|AKHMAD NAJIB|KMGRI|L|690415560866|NGANJUK|19690408|MOJOKAMBANG RT2 RW6, JOMBANG,JOMBANG|40|REAL KMG PROMO AKHMAD NAJIB|20180802|20200802|30000000|0|XXXX|0|3
02209332|02246946|022|SRI SUMIWIK,DRA|KMGRI|P|3503106403630001|TRENGGALEK|19630324|JEDUNG RT 04 RW 02, KARANGANYAR GANDUSARI,TRENGGALEK|40|REAL KMG SRI SUMIWIK|20180802|20220802|176000000|0|XXXX|1|6
02245264|02246947|022|SRI ASTUTI|KMGRI|P|3503125912660002|TRENGGALEK|19661219|BENDO RT 002 RW 002, BENDOREJO KEC POGLAN,TRENGGALEK|40|REAL KMG SRI ASTUTI|20180802|20260802|132000000|0|XXXX|1|6
10022195|05906797|059|AHMAD ARIFIN, H, SE,SE|KMGRI|L|3507240510610001|GRESIK|19611005|BUMI MONDOROKO RAYA M 11/24, RT 2 RW 1,SINGOSARI|40|REAL KMG AHMAD ARIFIN|20180802|20330802|225000000|0|XXXX|1|3
16200494|TR000873|162|KUKUH SUTRISTIANTO,SMA|KMGRI|L|3507091911830003|MALANG|19831119|JL SERMA JOYO TIMIN, RT006 RW002 SEDAYU TUREN,KAB MALANG|40|REAL KMG TR000873|20180802|20330802|260000000|0|XXXX|1|3
04293082|KMGY4019|042|ETIK MAZRUATIN|KMGRI|P|3506244205830002|KEDIRI|19830502|DSN PULOSARI RT05 RW01, DS PAPAR KEC PAPAR KAB KEDIRI,KEDIRI|44|REAL KMG ETIK MAZRUATIN|20180802|20230802|45000000|0|XXXX|0|6
04201307|PENY4020|042|SYAMSUL ARIFIN|KMGRI|L|3506171107600001|SURABAYA|19600711|DSN SELOREJO RT06 RW10, DS BLARU KEC BADAS,KEDIRI|45|REAL KMG SYAMSUL ARIFIN|20180802|20330802|180000000|0|XXXX|1|3
01401568|MG811514|081|SRI SULAMI,B.050|KMGRI|P|3505064604600001|BLITAR|19600406|DSN BANARAN RT001 RW004, MALIRAN PONGGOK,BLITAR|40|REAL KMG SRI SULAMI|20180802|20260802|100000000|0|XXXX|0|8
01424309|MG811515|081|DIAN EKA SARI|KMGRI|P|3505017011720004|BLITAR|19721130|DSN PIKATAN RT01 RW03, PIKATAN WONODADI,BLITAR|40|REAL KMG DIAN EKA/PAN/53|20180802|20320802|300000000|0|XXXX|1|8
47267255|04068194|004|AGUS SUHARTO|KMGRI|L|3573032308830004|MALANG|19830823|JL MAYJEND SUNGKONO RT3 RW6, KEDUNGKANDANG,MALANG|40|REAL KMG PAN|20180802|20330802|182000000|0|XXXX|1|8
47698258|04068198|004|B HARIYNTO|KMGRI|L|3573010405660005|MALANG|19660429|JL POLOWIJEN II/485E, RT001 RW003,MALANG|40|REAL KMG PAN|20180802|20230802|100000000|0|XXXX|1|8
46030400|04068199|004|ELLIS WIDIASTUTI SETJO,AMD KEB|KMGRI|P|3573036502860009|MALANG|19860225|JL RAYA CEMOROKANDANG 1 RT9/4, CEMOROKANDANG KEDUNGKANDANG,MALANG|40|REAL KMG PAN|20180802|20330802|236500000|0|XXXX|1|8
12705406|0406846M|040|HARPIKE TRIONITA ARISSANTI,NA|KMGRI|P|3579016611910002|MALANG|19911126|JL SRUNI, RT004 RW005,BATU|40|REAL KMG AN.HARPIKE TRIONITA A|20180802|20280802|125000000|0|XXXX|0|6
00362542|04068200|004|DICKY APRIJOSO|KMGRI|L|3573030104590003|MALANG|19590401|JL D RANAU IX G7 C3, RT001 RW015 KEDUNGKANDANG,MALANG|45|REAL KMG ASKRINDO|20180802|20280802|170000000|0|XXXX|0|6
47610664|04068201|004|SRIMAR YULIANTY|KMGRI|P|3573015603820002|ACEH|19820316|JL HAMID RUSDI TIMUR V C, RT005 RW015 BUNUL REJO,MALANG|40|REAL KMG PAN|20180802|20270802|170000000|0|XXXX|0|8
04006697|0406847M|040|EKO SETIONO,SPD|KMGRI|L|3579012910770002|BATU|19771029|JL IKHWAN HADI 45 RT.4/8, RT01 RW02,BATU|40|REAL KMG EKO SETIONO|20180802|20330802|140000000|0|XXXX|1|6
04015251|0406848M|040|MARIA RAHAYU,SP|KMGRI|P|3573045710800004|MALANG|19801017|BUKIT CEMARA TIDAR F2-20, RT04 RW09 KARANGBESUKI SUKUN,MALANG|40|REAL KMG AN.MARIA RAHAYU|20180802|20280802|80000000|0|XXXX|1|3
04012125|0406849M|040|IKA ASRIANI AMALIA,SPD|KMGRI|P|3578144203810004|MATARAM|19810302|MANUKAN KARYA 1 A2/58 RT11 RW6, MANUKAN KULON TANDES,SURABAYA|40|REAL KMG AN.IKA ASRIANI AMALIA|20180802|20330802|197000000|0|XXXX|1|6
16105427|162664DD|161|SUWIRYO PARDI|KMGRA|L|3513030107740021|PROBOLINGGO|19740701|DUSUN LAJUK, RT003RW001,PROBOLINGGO|47|REALS ADD|20180802|20230802|35000000|0|XXXX|0|3
00497283|162664MG|161|M IKHWAN|KMGRI|L|3513200502700001|JEMBER|19700205|PERUM LECES INDAH C1/11 RT18, RW03 BANJARSAWAH TEGALSIWALAN,PROBOLINGGO|40|REAL KMG M IKHWAN|20180802|20260801|165000000|0|XXXX|1|3
01382289|162665DD|161|CIPTO|KMGRA|L|35130301205780001|PROBOLINGGO|19780512|DUSUN LAJUK RT03 RW01, WONOASRI KURIPAN,PROBOLINGGO|47|REALS ADD|20180802|20210802|35000000|0|XXXX|0|3
16105428|162666DD|161|ASER SOLIHIN|KMGRA|L|3513030107720251|PROBOLINGGO|19720701|DUSUN PATIHAN RT04RW02, WONOASRI,PROBOLINGGO|47|REALS ADD|20180802|20230802|35000000|0|XXXX|0|3
04033466|0406850M|040|MARIA ARTIKA BUDININGTYAS|KMGRI|P|3579037006750001|KEDIRI|19750630|REJOSO RT03 RW10, JUNREJO,BATU|44|REAL KMG AN.MARIA ARTIKA B|20180802|20260802|190000000|0|XXXX|1|6
04033458|0406851M|040|RM CHRISTIONO AGUNG NUGROHO|KMGRI|L|3579030403710004|KEDIRI|19710304|REJOSO RT03 RW10 JUNREJO, JUNREJO,BATU|44|REAL KMG AN.RM.CHRISTIONO AN.|20180802|20260802|142000000|0|XXXX|1|6
04008019|0406852M|040|NURUL FIDYAWATI|KMGRI|P|3579015008840002|MALANG|19840810|DSN KRAJAN RT.2 RW.3, ,BATU|40|REAL KMG AN.NURUL FIDYAWATI|20180802|20280802|180000000|0|XXXX|1|6
04028808|0406853M|040|DWI SELVIANA|KMGRI|P|3579016109910003|JOMBANG|19910921|JL LAHOR RT04 RW012, PESANGGRAHAN,BATU|44|REAL KMG AN.DWI SELVIANA|20180802|20230802|60000000|0|XXXX|1|3
01546205|CK001108|129|WINARSIH|KMGRI|P|73215370520| T AGUNG|19730208|DS PECUK RT / RW 03/02, ,TULUNGAGUNG|40|CK001108|20180802|20210820|54000000|0|XXXX|0|3
01546772|CK001109|129|MARIYONO S.PD,S.PD|KMGRI|L|36504050503620001|PASURUAN|19620305|JL SRABAH 001/001 KARANGANOM, KAUMAN,TULUNGAGUNG|40|CK001109|20180802|20210802|70000000|0|XXXX|0|3
01545919|CK001110|129|ABU NANGIM,A MA|KMGRI|L|3504082207770003|TULUNGAGUNG|19770722|DSN TEMON 01/01, SUKOREJO KARANGREJO,TULUNGAGUNG|40|CK001110|20180802|20280802|150000000|0|XXXX|1|3
01546739|CK001111|129|SITI NURASIYAH,SARJANA|KMGRI|P|3504084912740002|TULUNGAGUNG|19741209|DSN GENDINGSARI RT001 RW001, DESA GENDINGAN KEC KEDUNGWARU,TULUNGAGUNG|40|CK001111|20180802|20300802|150000000|0|XXXX|1|3
01546104|CK001112|129|SITI MUSLIHAH|KMGRA|P|3504095101820001|T AGUNG|19820111|DSN PLENGGRONG RT/RW 002/011, ,TULUNGAGUNG|40|CK001112|20180802|20260802|150000000|0|XXXX|0|3
01522469|129PP061|129|SUNARMI|KMGRI|P|3504085104600002|TULUNGAGUNG|19600411|DSN PAKUNCEN RT 1/2 KARANGREJO, ,TULUNGAGUNG|40|129PP061|20180802|20280802|176000000|0|XXXX|1|3
01547258|CK001113|129|DAMIN|KMGRA|L|3504070201830001|TULUNGAGUNG|19830102|DSN.JENGGLIK RT.003/001, SENDANG TULUNGAGUNG,TULUNGAGUNG|40|CK001113|20180802|20300802|159000000|0|XXXX|1|3
14115938|00180MTG|046|SUYANTO|KMGRI|L|3505171808630003|BLITAR|19630818|LINGKUNGAN PANDEAN RT002 RW003, TANGKIL WLINGI,BLITAR|40|REAL MTG SUYANTO / PAN|20180802|20210802|80000000|0|XXXX|1|8
04600957|00181MTG|046|SARINOTO,SPD|KMGRI|L|3505150106660003|BLITAR|19660601|DSN JETIS RT03 RW01, DS BUTUN KEC GANDUSARI BLIT,BLITAR|40|REAL MTG SARINOTO/PAN|20180802|20250802|260000000|0|XXXX|1|8
04617850|00182PRP|046|CATUR ANDAYATI|KMGRI|P|3508175203610001|BLITAR|19610312|JL P SUDIRMAN RT001 RW005, BERU KEC WLINGI,BLITAR|40|REAL MTG CATUR ANDAYATI/PAN|20180802|20250802|125000000|0|XXXX|1|8
01472745|00183MTG|046|TARMINI|KMGRI|P|3505164401680002|BLITAR|19680104|DSN BLUMBANG RT002 RW003, NGEMBUL BINANGUN,BLITAR|40|REAL MTG TARMINI / PAN|20180802|20240802|90000000|0|XXXX|1|8
14272468|00184PRP|046|MASDUKI|KMGRI|L|3505191604590001|BLITAR|19590416|DSN DAWUNG RT51 RW12, PAGERWOJO KESAMBEN,BLITAR|40|REAL MTG MASDUKI/PAN|20180802|20210802|25000000|0|XXXX|0|8
14271623|00185PRP|046|SRIANAH|KMGRI|P|3505196501610002|BLITAR|19610125|DSN SEMBUNG RT001 RW006, PAGERGUNUNG KESAMBEN,BLITAR|40|REAL KMG SRIANAH/PAN|20180802|20330802|199000000|0|XXXX|1|8
04619981|00186MTG|046|ENDANG SULISTYANINGSIH,SE|KMGRI|P|3505175108680001|BLITAR|19680811|JL GAJAHMADA GG MANCO RT3 RW3, KEL WLINGI KEC WLINGI BLITA,BLITAR|40|REAL MTG ENDANG SULISTYA/PAN|20180802|20220802|125000000|0|XXXX|1|8
04615929|00187MTG|046|SUJONO|KMGRI|L|3505141202650002|BLITAR|19650212|DS KAMULAN RT03 RW01, KEL KAMULAN KEC TALUN,BLITAR|40|REAL KMG SUJONO/PAN|20180802|20220802|97000000|0|XXXX|0|8
08100534|00188MTG|046|NITA HARWANTI|KMGRI|P|830815360741|BLITAR|19830828|JALAN KELAPA GADING, DANDONG SRENGAT,BLITAR|40|REAL MTG NITA HARWANTI / PAN|20180802|20230802|60000000|0|XXXX|0|8
01143352|118A0343|011|PRIYO UTOMO|KMGRI|L|3517121812800003|JOMBANG|19801218|DUSUN WATUDAKON RT001 RW002, WATUDAKON KESAMBEN JOMBANG,JOMBANG|40|REAL KMG PRIYO UTOMO|20180802|20330802|90000000|0|XXXX|1|4
04506057|118A0344|011|MUNANDAR|KMGRI|P|3506190605640001|JOMBANG|19640506|JERUK WANGI RT001 RW002, DS JERUK WANGI KEC KANDANGAN,KEDIRI|40|REAL KMG MUNANDAR|20180802|20230802|100000000|0|XXXX|0|3
60009433|060PM001|060|SITI AMINATUN|KMGRI|P|3507135408610001|MALANG|19610814|JL PANGLIMA SUDIRMAN 17, RT05 RW02 NGADILANGKUNG KPJEN,KAB MALANG|40|RELA SITI AMINATN P2% AGRAASKD|20180802|20280802|218000000|0|XXXX|1|3
60127429|60PM0009|060|FARIDA ARIANTI|KMGRI|P|3507204601810001|MALANG|19810106|TALUNSONO RT02 RW05, NGAJUM,NGAJUM|40|REAL FARIDA A P2% AGRA ASKRNDO|20180802|20330802|195000000|0|XXXX|1|6
60012042|60PM0010|060|DWI NURCAHYANI|KMGRI|P|3507134602750004|MALANG|19750206|JL RAYA TALANGAGUNG RT10 RW02, KEPANJEN MALANG,MALANG|40|REAL DWI NURCAHY P2% AGR ASKDO|20180802|20270802|160000000|0|XXXX|1|6
04776825|60PM0011|060|YULI IRYAWATI|KMGRI|P|3507187107730002|MALANG|19730731|JL URAHA SURA III 6K NO 21, RT06 RW16 SEKARPURO PAKIS,KAB MALANG|40|RELA YULI IRYAWTI P2%AGRASKDO|20180802|20300802|140000000|0|XXXX|1|6
47194433|60PM0012|060|ACHMAD MASRUKAN SPD|KMGRI|L|3573043011820003|MALANG|19821130|JL MOCH JUKI NO 72, RT008 RW003 SUKUN,MALANG|40|REAL ACHMAD MAS P2%AGRAASKDO|20180802|20220802|16000000|0|XXXX|0|6
47155070|60PM0013|060|DEDDY IRAWAN,SE|KMGRI|L|3573010506720005|MALANG|19720605|JL KEBON JERUK 35 RT004 RW002, TULUSREJO LOWOKWARU,MALANG|40|REAL DEDDY IRWN P2% AGR ASKDO|20180802|20290802|186000000|0|XXXX|1|6
01230816|01229957|012|EVA OKTA TRIANA,S SPi|KMGRI|P|3574025710820001|PROBOLINGGO|19821017|JL SUNAN GIRI NO 15, RT 1 RW 1 SUMBERTAMAN,PROBOLINGGO|40|REAL KMG 2018|20180802|20260802|200000000|0|XXXX|1|3
00307874|01229958|012|SUMARJIK|KMGRI|P|3513194102640003|JEMBER|19640201|JL R SUYOSO NO 5 BENGKINGAN, RT 1 RW 1 KALIREJO DRINGU,PROBOLINGGO|40|REAL KMG 2018|20180802|20210802|45000000|0|XXXX|1|3
