23423,NA|KMGPK|L|3174041302850007|ANYAR|19850213|PARUNG SERAB RT 003 RW 002, TIRTAJAYA KEC SUKMAJAYA,DEPOK|35|REAL KMG AN JONI ISKANDAR|20180522|20230522|120000000|0|XXXX|0|99
234234, RT05 RW05 MANGUNDIKARAN,NGANJUK|40|REAL KMG TITIN WURYANTINI|20180522|20230522|120000000|0|XXXX|1|99,
34234,NA|KMGPK|L|3525061112920002|MOJOKERTO|19921211|DSN BURENG KIDUL, KEDUNGANYAR KEC WRINGINAMON,GRESIK|35|REAL KMG AN VIKY ARISTA|20180522|20230522|50000000|0|XXXX|0|99
23423,AMA PD|KMGRA|P|3518114208600005|NGANJUK|19600802|JALAN A YANI GG DUREN 11, RT02 RW01 TANJUNGANOM,NGANJUK|40|REAL KMG HERMIN SRI HARINI|20180522|20200522|80000000|0|XXXX|1|99
