012618|CB01507|001|MUHAMMAD EDY|KMGRA|L|3510041803650000|BANYUWANGI|19650318|DSN SUMBERLUHUR RT 04 RW 01, TEGALDLIMO KEC TEGALDLIMO,BANYUWANGI|40|KMG|20180507|20220507|90000000|0|XXXX|0|99
012619|CB01508|027|AGUS RIANTO,AMD|KMGRA|L|3523011808690000|LAMONGAN|19690818|DUSUN TANJUNGREJO RT002 RW003, DESA SIDOHASRI KENDURUAN,TUBAN|40|3335KVJT/AGUS RIANTO|20180507|20270507|210000000|0|XXXX|1|3
012620|CB01509|032|JOKO PURNOMO,SPD|KMGRA|L|3510090508650000|BANYUWANGI|19650805|DUSUN LIDAH RT 002 RW 003, GAMBIRAN,BANYUWANGI|40|KMG ASKRIDA|20180507|20250507|214000000|0|XXXX|1|99
012621|CB01510|002|SRI HASTUTIK|KMGRA|P|3510126711780000|JEMBER|19781121|DUSUN KRAJAN SELATAN RT 2 RW 1, SINGOJURUH BANYUWANGI,BANYUWANGI|40|KMG ASKRIDA|20180507|20230507|108000000|0|XXXX|1|99
012622|CB01511|003|UMI KULSUM|KMGRA|P|3510094911720000|BANYUWANGI|19721109|DSN JALEN RT 05 RW 03, DS SETAIL KEC GENTENG,BANYUWANGI|40|KMG ASKRIDA|20180507|20280507|110000000|0|XXXX|1|99
012623|CB01512|004|SRI SUNARSIH,SPD|KMGRA|P|3510096611660000|BANYUWANGI|19661126|KOPEN RT 04 RW 03, GENTENG KULON GENTENG,BANYUWANGI|40|KMG ASKRINDO|20180507|20220507|110000000|0|XXXX|1|99
012624|CB01513|005|MUHAMMAD MUSLIH|KMGRA|L|3505122909600000|BLITAR|19600929|JL CEMPAKA 49 LK BUL, RT03 RW02 KALIPANG SUTOJAYAN,BLITAR|40|20/MG/V/18/M MUSLIH/18/PAN PAS|20180507|20200507|80000000|0|XXXX|1|8
012625|CB01514|006|ANUGRAH PERDANA PUTRA,NA|KMGRA|L|3578072107960000|SURABAYA|19930721|UNDAAN WETAN 5/15-A, RT 005/RW 010,SURABAYA|48|REALISASI KMG KONTRAK|20180507|20181207|12000000|0|XXXX|1|99
012626|CB01515|007|YULI SETYANINGSIH|KMGRA|P|3579017107680000|KEDIRI|19680731|JL.LESTI RT.8 RW.3, RT01 RW02,BATU|40|REAL KMG YULI S|20180507|20260507|105000000|0|XXXX|1|6
012627|CB01516|010|KHOIRUL ANAM,SPDI|KMGRA|L|3579030708830000|MALANG|19830807|DUSUN KRAJAN RT.6 RW.4, RT01 RW02,BATU|40|RELA KMG KHOIRUL A|20180507|20330507|115000000|0|XXXX|1|11
012628|CB01517|011|AGUS SULIANTO,AMA.PD|KMGRA|L|3507262407770000|MALANG|19770724|DUSUN KRAJAN, RT.39 RW.7,MALANG|40|REAL KMG AGUS S|20180507|20280507|120000000|0|XXXX|1|6
012629|CB01518|012|SANTOSO|KMGRA|L|3579030802820000|MALANG|19820208|DUSUN DRESEL RT3 RW10, ORO-ORO OMBO,BATU|40|REAL KMG SANTOSO|20180507|20230507|40000000|0|XXXX|1|11
012630|CB01519|014|SRI SULISTIANINGSIH|KMGPA|P|3573025211630000|MALANG|19631112|JL.BARENG RAYA II/439 B RT.8/8, RT01 RW02,MALANG|40|REAL KMG HPA|20180507|20330507|200000000|0|XXXX|1|6
012631|CB01520|016|MUKHIBBUL AMIN|KMGRA|L|3575032605770000|PASURUAN|19770526|LING KONGSI RT3 RW3 KEPEL, BUGUL KIDUL,PASURUAN|40|REAL KMG MUKHIBBUL AMIN|20180507|20250507|100000000|0|XXXX|1|6
012632|CB01521|026|RIANTO|KMGRA|L|3514041911680000|PASURUAN|19681119|KRAJAN RT03 RW02, PANCUR LUMBANG,PASURUAN|40|REAL KMG RIANTO|20180507|20260507|159700000|0|XXXX|1|8
012633|CB01522|035|WARAS,AMA PD|KMGRA|P|3503114809650000|TRENGGALEK|19650908|MT HARYONO 93 C RT 18 RW 6, SUMBERGEDONG TRENGGALEK,TRENGGALEK|40|REAL KMG WARAS|20180507|20210507|60000000|0|XXXX|1|6
012634|CB01523|033|AFANDI ACHMAD|KMGRA|L|3503112707830000|TRG|19830727|HAYAM WURUK RT 016 RW 005, NGANTRU,TRENGGALEK|40|REAL KMG AFANDI ACHMAD|20180507|20290507|140000000|0|XXXX|0|6
012635|CB01524|037|SRI AMBARWATI|KMGRA|P|3572015412730000|BLITAR|19731214|JL COKROAMINOTO GGI/17 RT07/01, KEPANJENLOR KEPANJENKIDUL,BLITAR|40|014/157/KMG/V/2018 PAN PASIFIC|20180507|20310507|180000000|0|XXXX|1|8
012636|CB01525|020|RAMUDJI|KMGRA|L|3505101412700000|BLITAR|19701214|DSN PAPUNGAN RT 001 RW 7, PAPUNGAN KANIGORO,BLITAR|40|014/158/KMG/V/2018 PAN PASIFIC|20180507|20280507|150000000|0|XXXX|1|8
012637|CB01526|021|TITIK SUMARMI,SPD|KMGRA|P|3506085103670000|KEDIRI|19670311|DSN TEMPLEK RT 06 03, DS GADUNGAN KEC PUNCU,KEDIRI|40|REAL KMG 07052018|20180507|20260507|250000000|0|XXXX|1|6
012638|CB01527|030|IRIYANTO|KMGPA|L|3514060312640000|PASURUAN|19641203|KURUNG RT 001 RW 004, KURUNG KEJAYAN,PASURUAN|40|REAL KMG AN IRIYANTO|20180507|20320501|210000000|0|XXXX|1|3
012639|CB01528|008|MAT ROIFIN|KMGRA|L|3516081506670000|MOJOKERTO|19670515|DSN MODOPURO RT 04 RW 08, KEC MOJOSARI,MOJOKERTO|40|REAL KMG|20180507|20270507|190000000|0|XXXX|1|4
012640|CB01529|009|TONI HARDJO|KMGRA|L|3514102405790000|PASURUAN|19790524|JALAN MERBABU 92 PELEMBON, RT001 RW004 PRIGEN PASURUAN,PASURUAN|40|REAL KMG TONI HARDJO|20180507|20330501|180000000|0|XXXX|1|3
012641|CB01530|013|RUSMINI SPD,SPD|KMGPA|P|3507196205610000|MALANG|19610522|JL PONDOK INDAH IX, RT3 RW5 GENEGAN PAKISAJI,KAB MALANG|40|KMG RUSMINI P2%/ASKRIDA|20180507|20280507|215000000|0|XXXX|0|3
012642|CB01531|015|SUNARTO|KMGPA|L|3507122109610000|MALANG|19610921|TERNYANG RT 7/2, DS.TERNYANG - KEC.SMBRPUCUNG,KAB.MALANG|40|KMG SUNARTI P2%/ASKRIDA|20180507|20230507|80000000|0|XXXX|1|3
012643|CB01532|017|SUDARMADI|KMGRA|L|3507211111680000|MALANG|19681111|PARANGARGO RT09 RW02, WAGIR,MALANG|40|KMG SUDARMADI P2%/ASPAN|20180507|20220507|60000000|0|XXXX|0|11
012644|CB01533|018|SUSANTI|KMGPK|P|3520045504840000|MAGETAN|19840415|TAKERAN RT011 RW003, TAKERAN MAGETAN,MAGETAN|35|REAL KMG SUSANTI|20180507|20200501|55000000|0|XXXX|1|6
012645|CB01534|019|MAHMUD JUBAIDI,SPD|KMGRA|L|3507271008850000|MALANG|19850810|DSN PRABON 01 RT 03 RW 01, KAUMREJO NGANTANG,KABUPATEN MALANG|40|REAL MAHMUD|20180507|20240507|60000000|0|XXXX|1|8
012646|CB01535|022|SEGAR PUNTANURAJI|KMGRA|L|3507291511670000|MAGETAN|19671115|SINDUREJO RT11 RW1 SINDUREJO, GEDANGAN,MALANG|40|KMG SEGAR P. P2%/ASKRIDA|20180507|20270507|120000000|0|XXXX|1|99
012647|CB01536|023|ASNANINGSIH,SPD|KMGRA|P|3513115505710000|PROBOLINGGO|19710515|DUSUN KRAJAN RT 005 RW 003, TRIWUNGAN    KOTAANYAR,PROBOLINGGO|40|REAL KMG 2018|20180507|20280507|125000000|0|XXXX|1|3
012648|CB01537|024|RUKANI|KMGRA|P|3517146802680000|LAMONGAN|19680228|JALAN DR SOETOMO RT 04 RW 05, LOSARI PLOSO,JOMBANG|40|REAL KMG|20180507|20270507|190000000|0|XXXX|1|3
012649|CB01538|025|SURYANTO|KMGPA|L|3517090208610000|JOMBANG|19610802|SDN KEDUNGLOSARI 2, JOMBANG,JOMBANG|40|REAL KMG|20180507|20280507|172000000|0|XXXX|1|11
012650|CB01539|028|IMAM AHMADI,SPD|KMGRA|L|3574021009810000|PROBOLINGGO|19810910|JL IR SUTAMI PERUM KAPLINGAN, BLOK I NO 1 JREBENG KIDUL,PROBOLINGGO|40|REAL KMG 2018|20180507|20330507|237000000|0|XXXX|1|3
012651|CB01540|029|NUR'AINI RAHMA SARI,S.PD|KMGRA|P|3504097011830000|TRENGGALEK|19831130|DSN KRAJAN RT001 RW004, DESA GONDANG KEC GONDANG,TULUNGAGUNG|40|CK001067|20180507|20230507|50000000|0|XXXX|1|8
012652|CB01541|031|AGUS SUTOJO|KMGRA|L|3504092408550000|TULUNGAGUNG|19550824|NGRENDENG GONDANG, TULUNGAGUNG,TULUNGAGUNG|45|CK001068|20180507|20220507|80000000|0|XXXX|1|8
012653|CB01542|038|CHOIRUL ANA,SMA|KMGRA|P|3525064608780000|GRESIK|19780806|KEDAMEAN RT 05 RW 02, KEDAMEAN,GRESIK|40|REAL KMG CHOIRUL ANA|20180507|20220507|60000000|0|XXXX|1|3
012654|CB01543|039|NURUL KOTIMAH|KMGRA|P|3504055407810000|TULUNGAGUNG|19810714|DSN.BEBEKAN 02/01, ,TULUNGAGUNG|40|CK001069|20180507|20280507|150000000|0|XXXX|1|8
012655|CB01544|040|SUNIARTI|KMGRA|P|3525084803680000|GRESIK|19680308|DESA TANJUNG RT02 RW04, KEDAMEAN,GRESIK|40|REAL KMG SUNIARTI|20180507|20230507|160000000|0|XXXX|1|3
012656|CB01545|041|WINARTI,SPD|KMGRA|P|3525085010620000|JEPARA|19621010|KEDAMEAN RT 01 RW 05, KEDAMEAN,GRESIK|40|REAL KMG WINARTI|20180507|20220507|60000000|0|XXXX|1|3
012657|CB01546|042|AVIS WIDIASARI|KMGRA|P|3507105803820000|MALANG|19820318|JL MAYJEN SUTOYO, RT 02 RW 01 GONDANGLEGIKULON,KAB MALANG|40|REAL AVIS WIDIASARI P2% ASKDA|20180507|20250507|100000000|0|XXXX|1|3
012658|CB01547|043|HILMIYATI MAYASARI|KMGRA|P|3575034407870000|PASURUAN|19870704|LEBO RT22 RW07 MADIREDO, PUJON,KAB MALANG|40|REAL HILMIYATI MAYASARI P2%ADA|20180507|20230507|59000000|0|XXXX|1|3
012659|CB01548|044|AGUNG EKO WAHYONO|NKPGA|L|3520062104640000|PONOROGO|19640421|KPR SELOSARI L 7, RT 05 RW 08 KEL SELOSARI,MAGETAN|BJ|REAL 631BO000 AGUNG EKO W|20180507|20230501|28000000|0|XXXX|1|3
012660|CB01549|045|ANGGA NALA RESTYA|NKPGA|L|3520062407860000|MAGETAN|19860724|JL PURNAYUDHA KPR ASABRI, KEL TAWANGANOM RT002 RW005,MAGETAN|BJ|REAL 632B0000 ANGGA NALA RESTY|20180507|20330525|350000000|0|XXXX|1|3
012661|CB01550|046|ISNIATI,NA|KMGRA|P|3578095902770000|SURABAYA|19770219|SEMOLOWARU SELATAN 1/54, RT 005 RW 003,SURABAYA|44|REALISASI KMG SD ANNUR|20180507|20220507|30000000|0|XXXX|0|3
012662|CB01551|049|YOHAN YANUAR PARUNTU|KMGRA|L|3515172601650000|SURABAYA|19650126|PERUM PRANTI BARU C-20, RT003 RW002,SIDOARJO|44|REALISASI KMG YPTA|20180507|20220507|80000000|0|XXXX|1|1
012663|CB01552|050|JOKO WAHYUDIONO|KMGRA|L|3508061006740000|LUMAJANG|19740610|DSN SENTUL RT004 RW001, KUNIR LOR KUNIR,LUMAJANG|40|SARLINA/197406102014061001/F2|20180507|20280507|50000000|0|XXXX|1|4
012664|CB01553|047|LILIK WAHYU NINGRUM|KMGRA|P|3508124906820000|LUMAJANG|19820609|DSN II SUMBERREJO RT 001 RW011, SENDURO LUMAJANG,LUMAJANG|40|SARLINA/198206092009032009/F2|20180507|20240507|70000000|0|XXXX|0|4
012665|CB01554|051|LUTHFIYAH|KMGRA|P|3508105808590000|LUMAJANG|19590818|JL JEND HARYONO 159 RT 004/004, JOGOYUDAN,LUMAJANG|40|SARLINA/195908181986032010/F2|20180507|20280507|166500000|0|XXXX|1|4
012666|CB01555|052|MOHAMAD HANAFI|KMGRA|L|891215290331|LUMAJANG|19891204|DSN PANCEN RT 006 RW006, DS KANDANGAN KEC SENDURO,LUMAJANG|47|SARLINA/PPDI/F2|20180507|20210507|20000000|0|XXXX|0|4
012667|CB01556|053|SUCI ALINTRIN|KMGRA|P|3508014903590000|MALANG|19590309|KRAJAN RT 004 RW 001, KALIULING,LUMAJANG|40|KMG/PRA PENS/SUCI ALINTRIN|20180507|20270507|150000000|0|XXXX|1|4
012668|CB01557|048|ABDUL ROHIM|KMGRA|L|3508020406810000|LUMAJANG|19810404|DSN KALIBENING RT 05 RW 03, PRONOJIWO,LUMAJANG|47|KMG/PPDI/ABDUL ROHIM|20180507|20210507|25000000|0|XXXX|0|4
012669|CB01558|054|GIGIK HARIYANTO|KMGRA|L|3508150402720000|LUMAJANG|19720204|DUSUN PLANDISARI RT004 RW003, KLANTING SUKODONO,LUMAJANG|44|SLINA/GIGIK HARIYANTO|20180507|20240507|50000000|0|XXXX|0|4
012670|CB01559|036|SUJIYANTO|KMGRA|L|3508142803690000|LUMAJANG|19690328|DSN KRAJAN RT010 RW002, KEDAWUNG PADANG,LUMAAJANG|47|SARLINA/KMG PPDI SUJIYANTIO|20180507|20210507|25000000|0|XXXX|1|4
012671|CB01560|057|FAJAR AMRILLAH|KMGRA|L|3508162408870000|LUMAJANG|19870824|DUSUN BARAT SUNGAI RT001 RW005, SAWARAN KULON KEDUNGJAJANG,LUMAJANG|47|SLINA/FAJAR AMRILLAH|20180507|20210507|25000000|0|XXXX|1|4
012672|CB01561|034|AMININ|KMGRA|L|3516182502730000|MOJOKERTO|19730225|DSN KEPUHANYAR RT 01 RW 03, DS KEPUHANYAR KEC MOJOANYAR,MOJOKERTO|40|REAL KMG AMININ|20180507|20300507|40000000|0|XXXX|0|3
012673|CB01562|055|LUKMAN HAKIM|KMGRA|L|3516130511810000|MOJOKERTO|19811105|DSN KEDUNGMALING III RT 2 RW 7, SOOKO,MOJOKERTO|40|REAL KMG LUKMAN HAKIM|20180507|20280507|125000000|0|XXXX|1|3
012674|CB01563|056|ANDY PERDANA KHRISTIANTO|KMGPK|L|3572022502820000|BLITAR|19870225|JL KELENGKENG RT 03 RW 03, DS KARANGSARI KEC SUKOREJO,BLITAR|35|REAL KMG ANDY PERDANA K|20180507|20230507|38000000|0|XXXX|1|2
012675|CB01564|058|TAUFIK KRIA SANTOSO,DRG|KMGPA|L|3506171305590000|JAKARTA|19590513|JL SAMPEYAN NO35 RT01 RW02, KEL PELEM KEC PARE,KEDIRI|45|REAL KMG TAUFIK KRIA S|20180507|20290507|180000000|0|XXXX|1|3
012676|CB01565|062|DJIANTO|KMGPA|L|3506171510600000|KEDIRI|19601015|JL BEBADUNG 18 RT 001 RW 003, DESA PELEM KEC PARE,KEDIRI|45|REAL KMG DJIANTO|20180507|20210507|40000000|0|XXXX|0|6
012677|CB01566|063|EVIN KURNIA DEWI|KMGRA|P|3509155905710000|JEMBER|19710519|PERUMDIM BLOK G-48 RT007 RW004, JUBUNG SUKORAMBI,JEMBER|40|REALS KMG|20180507|20280501|160000000|0|XXXX|1|99
012678|CB01567|064|SUMARNO|KMGPA|L|3509071405630000|JEMBER|19630514|SEMBORO JEMBER, SEMBORO JEMBER,JEMBER|45|REALS KMG|20180507|20280501|120000000|0|XXXX|1|99
012679|CB01568|065|SUPRI|KMGRA|L|3524050704750000|TUBAN|19750407|DUSUN KEPOH RT 03 RW 01, BABAT LAMONGAN,LAMONGAN|40|PANPA/SUPRI|20180507|20220507|50000000|0|XXXX|1|8
012680|CB01569|066|KARTIKA SARI,AMD|KMGRA|P|3578066104840000|SURABAYA|19840421|PENANGGUNGAN NO. 151, RT 04 RW 05 PETEMON SAWAHAN,SURABAYA|40|REAL KMG KARTIKA SARI|20180507|20230507|70000000|0|XXXX|0|2
012681|CB01570|067|ANAS MAHFUD|KMGRA|L|3508161104810000|LUMAJANG|19810411|DUSUN KRAJAN RT 002 RW 005, KRASAK KEDUNGJAJANG,LUMAJANG|47|SLINA/ANAS MAHFUD|20180507|20210507|25000000|0|XXXX|0|4
012682|CB01571|068|HAMID|KMGRA|L|3508161512700000|LUMAJANG|19701215|DUSUN KEBONAN  RT 001 RW 011, KRASAK KEDUNGJAJANG,LUMAJANG|47|SLINA/HAMID|20180507|20210507|25000000|0|XXXX|0|4
012683|CB01572|070|DIDIK PURNOMO AJI|KMGRA|L|3508161710940000|LUMAJANG|19940117|DUSUN MAKAM RT02 RW03, SAWARAN KULON KEDUNGJAJANG,LUMAJANG|47|SLINA/DIDIK PURNOMO A|20180507|20210507|30000000|0|XXXX|1|4
012684|CB01573|071|MOHAMAD SARYANI|KMGRA|L|3523192108720000|TUBAN|19720821|DUSUN NYAWUN, RT 000 RW 000,TUBAN|43|REAL KMG MOHAMAD SARYANI|20180507|20230507|100000000|0|XXXX|1|1
012685|CB01574|069|SAKTYO PRABOWO,-|KMGRA|L|3515182201790000|SURABAYA|19790122|JL MULYOSARI UTAMA 9/19, RT 009 RW 001,SURABAYA|44|REAL KMG SAKTYO PRABOWO|20180507|20230507|60000000|0|XXXX|1|1
012686|CB01575|072|AMINAH|KMGPA|P|3515084704530000|SIDOARJO|19520407|TAMAN ERLANGGA 4 NO 11 RT 19, SUKODONO,SIDOARJO 61215|45|REAL KMG AN AMINAH|20180507|20200507|45000000|0|XXXX|1|6
012687|CB01576|073|NANANG SUGIANTORO|KMGRA|L|3509151607780000|JEMBER|19780716|DUSUN AMPO RT 001 RW 013, DUKUHMENCEK SUKORAMBI,JEMBER|47|REAL KMGRA NANANG SUGIANTORO|20180507|20220501|30000000|0|XXXX|0|6
012688|CB01577|074|IMRON ROSADI|KMGRA|L|3509150207910000|JEMBER|19910702|DUSUN AMPO RT 001 RW 014, DESA DUKUHMENCEK KEC SUKORAMBI,JEMBER|47|REAL KMG IMRON ROSADI|20180507|20210501|15000000|0|XXXX|0|6
012689|CB01578|075|ERBAYATI PRIHARDANI|KMGRA|P|3509136108680000|JEMBER|19680821|DUSUN GUMAWANG RT 011 RW 011, CURAH MALANG RAMBIPUJI,JEMBER|40|REAL KMG ERBAYATI PRIHARDANI|20180507|20260501|180000000|0|XXXX|1|6
012690|CB01579|076|MUHAIMIN|KMGRA|L|3504140307810000|TULUNGAGUNG|19810703|DESA REJOSARI RT 004 RW 002, KECAMATAN GONDANG,TULUNGAGUNG|40|REAL KMG|20180507|20260507|102000000|0|XXXX|1|8
012691|CB01580|077|SULISTIYONO,SPD|KMGPA|L|3510102801620000|BLITAR|19620128|DUSUN KARANGHARJO RT 01 RW 05, DESA KARANGHARJO GLENMORE,BANYUWANGI|40|REAL KMG SULISTIYONO|20180507|20311107|241500000|0|XXXX|0|3
012692|CB01581|078|DINA ULFIANA|KMGPK|P|3505066102870000|BLITAR|19870221|DUSUN LANGON RT 002 RW 002, KEL LANGON KEC PONGGOK,BLITAR|35|REAL KMG DINA U/ASKRINDO|20180507|20210501|25000000|0|XXXX|0|99
012693|CB01582|084|KARTINI|KMGRA|P|3508165710630000|KEDIRI|19631017|PERUM WONOREJO INDAH I 5, RT 37 RW 14 WONOREJO KEDUNGJJG,LUMAJANG|40|SLINA/KARTINI|20180507|20220507|140000000|0|XXXX|0|4
012694|CB01583|085|SUWANDI|KMGPA|L|3516102011590000|MOJOKERTO|19591120|DS SALEN RT004 RW001, DESA SALEN KEC BANGSAL,KAB MOJOKERTO|45|REAL KMG PENS SUWANDI|20180507|20240507|100000000|0|XXXX|1|3
012695|CB01584|086|NANA YUNIWATI|KMGRA|P|3517095906690000|JOMBANG|19690619|PERUM PLANDI PERMAI BLOK C, NO 12 13 RT026 RW006 PLANDI,JOMBANG|40|REAL KMG|20180507|20290507|219000000|0|XXXX|1|4
012696|CB01585|087|ANUGERAH ANANG|KMGRA|L|3517112105830000|JOMBANG|19830521|DSN BADAS RT4 RW2, JOMBANG,JOMBANG|40|REAL KMG|20180507|20310507|190000000|0|XXXX|1|3
012697|CB01586|089|IDA KHUMAIDA|KMGRA|P|3517086707740000|JOMBANG|19740727|DSN CEWENG RT5 RW2, CEWENG DIWEK,JOMBANG|40|REAL KMG|20180507|20230507|100000000|0|XXXX|0|11
012698|CB01587|090|ACHMAD BASOEKI|KMGRA|L|3517092401680000|SURABAYA|19680124|JELAKOMBO GANG I NO 18, RT 001 RW 004 JELAKOMBO,JOMBANG|40|REAL KMG|20180507|20250507|75000000|0|XXXX|1|3
012699|CB01588|091|SRI ANIK|KMGPA|P|3517095211610000|JOMBANG|19611112|PULO TAWANGSARI GG MASJID, JOMBANG,JOMBANG|40|REAL KMG|20180507|20310507|185000000|0|XXXX|1|2
012700|CB01589|092|ATMININGSIH|KMGRA|P|3514206001660000|PASURUAN|19670120|KAJARKUNING RT04 RW01, KAJARKUNINH GRATI,PASURUAN|40|REAL KMG|20180507|20230507|65000000|0|XXXX|1|99
012701|CB01590|093|HANIATUL MA RIFA,AMD|KMGRA|P|3515065705880000|SIDOARJO|19880517|KALIDAWIR RT08 RW03, KALIDAWIR TANGGULANGIN,SIDOARJO|40|REAL KMG|20180507|20280507|140000000|0|XXXX|1|99
012702|CB01591|094|SUTJIPTO|KMGRA|L|3509210503560000|JEMBER|19560305|JL KP TENDEAN 108 RT003 RW009, KARANGREJO SUMBERSARI,JEMBER|45|REAL PENS SUTJIPTO|20180507|20220501|48000000|0|XXXX|1|99
012703|CB01592|096|EMMY TIN RISA LUSIANA|KMGPA|P|3509195409600000|PROBOLINGGO|19600914|PERUM VILLA TEGAL BESAR B 10, RT 003 RW 007 TEGAL BESAR,JEMBER|40|REAL KMG EMMYTIN RISA LUSIANA|20180507|20330501|266000000|0|XXXX|0|99
012704|CB01593|097|RIYONO,SPD|KMGPA|L|3509220111620000|PONOROGO|19621101|PANJI LARAS INDAH DSN TEGALBAG, RT002 RW004 ARJASA,JEMBER|40|REAL KMG RIYONO|20180507|20330501|241000000|0|XXXX|1|99
012705|CB01594|098|IMAM MUSLIMIN|KMGRA|L|3509191704770000|JEMBER|19770417|JL IMAM BONJOL 43, LINGK KEDUNG PIRING RT01 RW12,JEMBER|40|REAL KMG IMAM MUSLIMIN|20180507|20280501|90000000|0|XXXX|0|99
012706|CB01595|100|RUDY HARTONO|KMGRA|L|3509200101770000|JEMBER|19770101|JALAN SRIKOYO RT002 RW006, PATRANG,JEMBER|40|REAL KMG RUDY HARTONO|20180507|20330501|185000000|0|XXXX|1|99
012707|CB01596|088|SLAMET|KMGRA|L|3509212410680000|JEMBER|19681024|JL LETJEN SUPRAPTO IV/150, LINGK SBR DANDANG,JEMBER|40|REAL KMG SLAMET|20180507|20260501|127000000|0|XXXX|1|99
012708|CB01597|095|SRI WAHYUNIATI|KMGRA|P|3509215502700000|BANYUWANGI|19700215|JL LETJEN SUTOYO NO 41, RT 002 RW 032 KEBONSARI,JEMBER|40|REAL KMG SRI WAHYUNIATI|20180507|20280501|190000000|0|XXXX|1|99
012709|CB01598|001|CHAIRUL DWI TJAHYANTO|KMGRA|L|6405091303750000|JEMBER|19750313|DSN KRAJAN 1 RT03 RW01, KARANGDUREN BALUNG,JEMBER|40|REAL CHAIRUL DWI TJAHYANTO|20180507|20230501|100000000|0|XXXX|1|99
012710|CB01599|027|WASKITO ADI SANTOSO|NKPGA|L|3515160201880000|SIDOARJO|19880102|JL MANGGIS, RT 02 RW 05,SIDOARJO|BJ|REAL KMG WASKITO ADI SANTOSO|20180507|20380525|750000000|0|XXXX|1|99
012711|CB01600|032|NANANG SUGIANTO|KMGRA|L|3507040509650000|JOMBANG|19650905|DRUJU RT6 RW1, SUMBERMANJINGWETAN,KAB MALANG|40|REAL NANANG SUGIANTO|20180507|20230507|173000000|0|XXXX|1|99
012712|CB01601|002|HARSONO|KMGRA|L|3573052208780000|MALANG|19780822|JL TERUSAN PIRANHA ATAS 18, RT01 RW03 TUNJUNGSEKAR,MALANG|40|REALS KMG SARLINA|20180507|20330507|162500000|0|XXXX|1|4
012713|CB01602|003|NUR ITA ARUMSARI,AMD KEB|KMGRA|P|3528086310850000|NGANJUK|19851023|DSN DUWAK TINGGI RT03 RW02, DS BLUMBUNGAN KEC LARANGAN,PAMEKASAN|40|REAL KMG NUR ITA ARUMSARI|20180507|20200507|30000000|0|XXXX|0|3
012714|CB01603|004|MUHAMAD IMAM SYAFII|KMGRA|L|3507132711940000|MALANG|19941127|JL BANUREJO NO 59, RT 002 RW 001,KAB MALANG|44|REALS KMG ASKRINDO|20180507|20210507|30000000|0|XXXX|1|6
012715|CB01604|005|DIAN TRI ANANDA PUTRI|KMGRA|P|3510095210890000|BANYUWANGI|19891012|PERUM PUNCAK PERMATA, SENGKALING BLOK N 5 RT01 RW 06,KAB MALANG|44|REALS KMG ASKRINDO|20180507|20230507|45000000|0|XXXX|1|6
012716|CB01605|006|NANANG RACHMAN|KMGRA|L|3573011606550000|MALANG|19550616|JL KARYA TIMUR I NO 36, RT001 RW006,MALANG|45|REALS KMG ASKRINDO|20180507|20230507|105000000|0|XXXX|1|6
012717|CB01606|007|SRIJATI|KMGRA|P|3505195807520000|BLITAR|19520718|DSN KRAJAN RT 05  RW 02, DES PAGERWOJO KEC KESAMBEN,KAB BLITAR|45|REAL KMG SRIJATI/PAN|20180507|20260507|110000000|0|XXXX|1|8
012718|CB01607|010|SRI SUHARINI SDN SBR AGUNG 01|KMGRA|P|3505116311640000|BLITAR|19641123|LK NGEBRAK RT 01 RW 01, KEL TAWANGSARI KEC GARUM,BLITAR|40|REAL KMG SRI SUHARNI/PAN|20180507|20240507|145000000|0|XXXX|0|8
012719|CB01608|011|MUKHOLIS|KMGRA|L|3505151512650000|BLITAR|19651215|DSN KASIM RT 04 RW 08, KEC SELOPURO BLITAR,BLITAR|40|REAL KMG MUKHOLIS/PAN|20180507|20210507|54000000|0|XXXX|0|8
012720|CB01609|012|HARJONO|KMGRA|L|3505161201670000|BLITAR|19670212|DSN BETEK RT 02 RW 02, DS REJOSO KEC BINANGUN,BLITAR|40|REAL KMG HARJONO/PAN|20180507|20220507|99000000|0|XXXX|0|8
012721|CB01610|014|MOKHAMAD  TOYIB|KMGRA|L|350511139690001|BLITAR|19690913|DSN SUMBER RT 03 RW 01, KEC GARUM,BLITAR|40|REAL KMG MOKHMAD TOYIB/PAN|20180507|20230507|60000000|0|XXXX|1|8
012722|CB01611|016|EDY KURNIA|KMGRA|L|3573010505650000|MALANG|19650505|JL POLOWIJEN I NO 123, RT 4 RW 1 POLOWIJEN,MALANG|40|REAL KMG 2018|20180507|20230507|65000000|0|XXXX|1|3
012723|CB01612|026|RUSMAJI|KMGRA|L|3523182601670000|TUBAN|19670126|DESA PASEKAN RT03 RW01, KEL TASIKMADU KEC PALANG,TUBAN|40|011465KS|20180507|20240507|125000000|0|XXXX|1|3
012724|CB01613|035|SUBAGIYO|KMGRA|L|3523150305670000|TUBAN|19670503|LINGK DONDONG RT 05 RW 08, GEDONGOMBO SEMANDING,TUBAN|40|011466KS|20180507|20240507|150000000|0|XXXX|0|6
012725|CB01614|033|SUBYANTORO|KMGRA|L|3506171001600000|JOMBANG|19600110|JL FLAMBOYAN RT 017 RW 010, DS TULUNGREJO KEC PARE,KEDIRI|45|REAL KMG PENS SUBYANTORO|20180507|20280507|100000000|0|XXXX|0|6
012726|CB01615|037|ABD AZIS,SPD|KMGRA|L|3526040510770000|PAMEKASAN|19771005|JL KHSADHELI MACHDI RT02 RW02, KEL BANYUAJUH KEC KAMAL,BANGKALAN|40|ABD AZIS|20180507|20280507|200000000|0|XXXX|1|8
012727|CB01616|020|SULIS HIDAYATI NINGSIH,ST|KMGRA|P|3528044910840000|PAMEKASAN|19841009|JL PINTU GERBANG IV 42, DS BUGIH KEC PAMEKASAN,PAMEKASAN|40|SULIS HIDAYATI NINGSIH|20180507|20330507|220000000|0|XXXX|1|8
012728|CB01617|021|FITRIO ANUGRAH JUNIARTO|KMGPK|L|3404142206850000|BANYUWANGI|19850622|JL BRAWIJAYA GG GARUDA NO 55, RT 04 RW 02 KEL KEBALENAN,BANYUWANGI|35|KMG SARLINA|20180507|20230507|135000000|0|XXXX|0|4
012729|CB01618|030|CICIK HENDRAWATI|KMGRA|P|3517025402840000|JOMBANG|19840214|DSN JAPANAN RT 3 RW 2, GUDO,JOMBANG|40|REALISASI KMG/S|20180507|20210507|40000000|0|XXXX|0|4
012730|CB01619|008|DJALAL,NA|KMGRA|L|3578120501690000|SURABAYA|19690105|KEBALEN KULON 1/6, RT 01 RW 06 PABEAN CANTIAN,SURABAYA|40|REALISASI KMG/S|20180507|20210507|40000000|0|XXXX|1|4
012731|CB01620|009|ERRY WINDYARTI|KMGRA|P|3515076005700000|SURABAYA|19700520|MUTIARA CITRA ASRI A5-12, RT/RW 01/12,SIDOARJO|40|REALISASI KMG/S|20180507|20280207|195000000|0|XXXX|1|4
012732|CB01621|013|DENY AKHYAR AZZUDHAN,NA|NKPGA|L|3517082304920000|JOMBANG|19920423|DUSUN TANJUNGANOM, RT004 RW0008 DUSUN TANJUNGANOM,JOMBANG|BJ|REALISASI KMG/B|20180507|20380507|350000000|0|XXXX|1|3
012733|CB01622|015|FRIZKI PUTERA NURMAWAN,ST|NKPGA|L|3578042202850000|SURABAYA|19850222|KARANGAN 197, SURABAYA,SURABAYA|BJ|REALISASI KMG/B|20180507|20280507|105000000|0|XXXX|0|3
012734|CB01623|017|RISMINARSIH,NA|KMGRA|P|3515085202510000|MADIUN|19510212|SIMO GUNUNG KRAMAT TIMUR NO 41, RT 007 RW 002 KEL PUTAT JAYA,SURABAYA|45|REALISASI KMG/B|20180507|20230507|65000000|0|XXXX|1|3
012735|CB01624|018|ESTININGTYAS SRI OETAMI|KMGRA|P|3578066208570000|SURABAYA|19570822|PETEMON SIDOMULYO KL GREGES 18, RT 002 RW 018,SURABAYA|45|REALISASI KMG/B|20180507|20320507|181000000|0|XXXX|1|3
012736|CB01625|019|PUJO|KMGRA|L|3503052409690000|TRENGGALEK|19690924|DS CIKALAN RT 11/5 TUGU TNGLEK, NGINDEN II/101,SURABAYA|44|REALISASI KMG YPTA|20180507|20230507|60000000|0|XXXX|1|3
