01262856|01341253|013|ADI HARTONO|KMGRA|L|3513121511870004|PROBOLINGGO|19871115|DUSUN CEMPAKA RT 11 RW 06, PONDOK KELOR PAITON,PROBOLINGGO|47|REAL KMG PANPA|20180713|20230713|15000000|0|XXXX|1|8
01262863|01341254|013|HASAN BASRI|KMGRA|L|3513121507680001|PROBOLINGGO|19680715|DUSUN CEMPAKA RT 10 RW 05, PONDOK KELOR PAITON,PROBOLINGGO|47|REAL KMG PANPA|20180713|20230713|39000000|0|XXXX|1|8
01262862|01341256|013|KHAIRI SAHWI|KMGRA|L|3513120110720004|PROBOLINGGO|19721001|DUSUN MANDARAN RT 20 RW 10, PONDOK KELOR,PROBOLINGGO|47|REAL KMG PANPA|20180713|20230713|39000000|0|XXXX|1|8
07132069|01341262|013|M ALI|KMGRA|L|3513130406860003|PROBOLINGGO|19860604|DUSUN TERONG RT7 RW2, ALAS SUMUR LOR BESUK,PROBOLINGGO|47|REALS KMG PAN|20180713|20230713|25000000|0|XXXX|0|8
16191373|01341265|013|MISKALI|KMGRA|L|3513130605740001|PROBOLINGGO|19740506|DUSUN TERONG RT 07 RW 02, ,PROBOLINGGO|47|REALS KMG PAN|20180713|20230713|25000000|0|XXXX|0|8
01262857|01341272|013|DEDI TAUFIK|KMGRA|L|3513122808880010|PROBOLINGGO|19880828|DUSUN MANDARAN RT 14 RW 7, PONDOK KELOR PAITON,PROBOLINGGO|47|REAL KMG PANPA|20180713|20230713|39000000|0|XXXX|1|8
07129283|07122986|071|SALAM|KMGRA|L|3513170505610002|PROBOLINGGO|19610505|DUSUN KRAJAN RT01 RW01, GERONGAN MARON,PROBOLINGGO|47|REAL KMG PERANGKAT|20180713|20210713|35000000|0|XXXX|0|6
01258528|162592DD|161|HASAN BASRI|KMGRA|L|3513211401670001|PROBOLINGGO|19670114|DUSUN BERINGIN RT 16 RW 06, POHSANGIT LERES SUMBERASIH,PROBOLINGGO|47|REAL KMG PERANGKAT HASAN BASRI|20180713|20230713|35000000|0|XXXX|1|6
60134956|1760002P|176|WAHYUNING HARTATIK|KMGRA|P|3507315205600001|MALANG|19600512|JL MANSARI RT 02 RW 01, SLOROK KROMENGAN,KAB MALANG|45|REAL KMG PENSIUN WAHYUNING H|20180713|20260713|100000000|0|XXXX|0|6
07132070|01341163|013|ZAINULLAH|KMGRA|L|3513131905720002|PROBOLINGGO|19720519|KRAJAN RT 2 RW1 ALAS SUMUR LOR, BESUK,PROBOLINGGO|47|REALS KMG PAN|20180713|20230713|25000000|0|XXXX|0|8
01262174|01341176|013|ASMAI|KMGRA|L|3513162212650003|PROBOLINGGO|19851222|DUSUN BAGO RT 9 RW 3, KARANGBONG PAJARAKAN,PROBOLINGGO|47|REAL KMG PANPA|20180713|20230713|35000000|0|XXXX|1|8
01262168|01341177|013|SUMROTI|KMGRA|P|3513165002720003|PROBOLINGGO|19720210|DUSUN GROJOGAN RT 2 RW 1, KARANGBONG PAJARAKAN,PROBOLINGGO|47|REAL KMG PANPA|20180713|20230713|39000000|0|XXXX|1|8
01262173|01341178|013|MINHAJUL QOWIM|KMGRA|L|3513160802860002|PROBOLINGGO|19860208|DUSUN TRIWUNG RT 10 RW 4, KARANGBONG PAJARAKAN,PROBOLINGGO|47|REAL KMG PANPA|20180713|20230713|39000000|0|XXXX|1|8
07132071|01341264|013|MOH KARIB|KMGRA|L|3513131702700001|PROBOLINGGO|19700217|DUSUN DAWUHAN RT14 RW3, ALASSUMUR LOR BESUK,PROBOLINGGO|47|REALS KMG PAN|20180713|20230713|25000000|0|XXXX|0|8
07132066|01341266|013|ZAINUL HASAN|KMGRA|L|3513131201820002|PROBOLINGGO|19820112|KRAJAN RT2RW1 ALAS SUMUR LOR, BESUK,PROBOLINGGO|47|REALS KMG PAN|20180713|20230713|25000000|0|XXXX|0|8
07132067|01341267|013|SABRI|KMGRA|L|3513132406800002|PROBOLINGGO|19800624|KRAJAN RT2 RW1 ALAS SUMUR LOR, BESUK,PROBOLINGGO|47|REALS KMG PAM|20180713|20210713|37000000|0|XXXX|0|8
01357887|01341179|013|ANDRIKO NUR PRASETIYO|KMGRA|L|3513160505830002|PROBOLINGGO|19830505|DUSUN KRAJAN RT04 RW02, KARANGBONG PAJARAKAN,PROBOLINGGO|47|REAL KMG PANPA|20180713|20230713|20000000|0|XXXX|0|8
01262175|01341180|013|BAWON NOYODO|KMGRA|L|3513161003740002|PROBOLINGGO|19740310|DUSUN BUKOL RT 14 RW 5, KARANGBONG PAJARAKAN,PROBOLINGGO|47|REAL KMG PANPA|20180713|20230713|35000000|0|XXXX|1|8
01262172|01341181|013|HASANUDIN ZUHRI|KMGRA|L|3513162007830002|PROBOLINGGO|19830702|DUSUN BAGO RT 8 RW 3, KARANGBONG PAJARAKAN,PROBOLINGGO|47|REAL KMG PANPA|20180713|20230713|35000000|0|XXXX|1|8
01262170|01341182|013|SUHAIRI|KMGRA|L|3513160205830002|SAMPANG|19830502|DUSUN BAGO RT 8 RW 3, KARANGBONG PAJARAKAN,PROBOLINGGO|47|REAL KMG PANPA|20180713|20230713|39000000|0|XXXX|1|8
00498630|07123097|071|SITI KHOTIJAH|KMGRA|P|3513174503580001|YOGYAKARTA|19580305|DUSUN KRAJAN RT04 RW01, SUKO MARON,PROBOLINGGO|45|PENSIUNAN|20180713|20280713|75000000|0|XXXX|0|3
01105931|418A0075|144|ENNY YULIATIN,AMD KEB|KMGRA|P|3517164807790002|JOMBANG|19790708|DUSUN BANJARDOWO RT1 RW3, JOMBANG,JOMBANG|40|REAL KMG ENNY YULIATIN 2018|20180713|20300713|180000000|0|XXXX|1|99
04270631|KMGI4002|042|ZAENAL FANANI|KMGRA|L|3506031011760001|KEDIRI|19761110|DSN BUTUH RT/RW 003/001, DS BUTUH KEC KRAS,JAWA TIMUR|40|REAL KMG ZAENAL FANANI|20180713|20330713|230000000|0|XXXX|0|3
02250825|02246904|022|YUDI YUHANA,0|KMGRA|L|3503112302770001|TRENGGALEK|19770223|A YANI GG CEMPAKA 12, RT 007 RW 002,TRENGGALEK|40|REAL KMG YUDI YUHANA|20180713|20250713|75000000|0|XXXX|0|6
02232666|11092909|110|MULIS PURWATI,SPD|KMGRA|P|3503107005690001|TRENGGALEK|19690530|KRAJAN KULON RT 009 RW 004, WIDORO KEC GANDUSARI,TRENGGALEK|40|REAL KMG - MULIS|20180713|20210713|50000000|0|XXXX|1|6
02254239|11092910|110|AGUS PRIYO UTOMO|KMGRA|L|3503043108780002|TRENGGALEK|19780831|BLIMBING RT 014 RW 003, DONGKO TRENGGALEK,TRENGGALEK|40|REAL KMG - AGUS|20180713|20230713|50000000|0|XXXX|1|6
07119042|07123074|071|NURDIN|KMGRA|L|3513090406710002|PROBOLINGGO|19710604|DUSUN KRAJAN RT02 RW01, BATUR GADING,PROBOLINGGO|47|REAL KMG PERANGKAT|20180713|20210713|30000000|0|XXXX|0|6
07131087|07123098|071|YONAS PARIRI|KMGRA|L|3513072902880001|PROBOLINGGO|19880229|DUSUN ANGIN ANGIN BARAT RT01 R, W 01,PROBOLINGGO|47|PRKT RANUGEDANG|20180713|20230713|35000000|0|XXXX|0|6
02249218|02246903|022|LILIK ARTIWIRATNA,SPD|KMGRA|P|3503034611600003|TRENGGALEK|19601106|KRAJAN RT 001 RW 001, PULE,TRENGGALEK|40|REAL KMG LILIK ARTIWIRATNA|20180713|20200713|50000000|0|XXXX|1|6
01353431|01341260|013|ABU HASAN|KMGRA|L|3513132003630001|PROBOLINGGO|19630320|DUSUN KRAJAN RT005 RW001, ALASSUMUR LOR BESUK,PROBOLINGGO|47|REALS KMG PAN|20180713|20230713|25000000|0|XXXX|0|8
60005240|60015428|060|AGUS KRISNANTO|KMGRA|L|3507092508800002|MALANG|19800825|JL AHMAD YANI TUREN RT5 RW3, KEL TUREN KEC TUREN,KAB MALANG|40|REAL AGUS KRISNANTO P2%AGRASDA|20180713|20330713|214000000|0|XXXX|1|99
02219991|02246905|022|JUMIATUN|KMGRA|P|3503116503660002|TRENGGALEK|19660325|DARANG RT 06 RW 02, TAMANAN TRENGGALEK,TRENGGALEK|40|REAL KMG JUMIATUN|20180713|20250713|82000000|0|XXXX|1|99
02252572|02246906|022|MUSILAH,SPD|KMGRA|P|3503115606650002|TRENGGALEK|19650616|KH AGUS SALIM NO 41, RT 12 RW 04 SUMBERGEDONG,TRENGGALEK|40|REAL KMG MUSILAH|20180713|20210713|60000000|0|XXXX|0|6
02267733|02246907|022|IMAM SOPINGI|KMGRA|L|3503131007810004|TRENGGALEK|19810710|BARUKLINTING RT 005 RW 002, BARUHARJO KEC DURENAN,TRENGGALEK|40|REAL KMG IMAM SOPINGI|20180713|20230713|52000000|0|XXXX|1|6
01263784|162593DD|161|MARDIYANTO|KMGRA|L|3513230102810001|PROBOLINGGO|19810201|DSN POHGOSONG RT 11 RW 04, DSN POHGOSONG RT 11 RW 04,PROBOLINGGO|47|REAL KMG PERANGKAT MARDIYANTO|20180713|20220713|30000000|0|XXXX|1|6
08905734|89MG1211|089|NANANG DWI PURWANTO|KMGRA|L|3504051508790002|TULUNGAGUNG|19790815|DSN SANAN 001/001, KAUMAN,TULUNGAGUNG|41|REAL 89MG1211|20180713|20250713|150000000|0|XXXX|1|3
01511888|PP000240|015|MAKHRUS ANSORI|KMGPA|L|3504030106640002|TA|19640601|JL.KH.R.ABD.FATAH IV/8, MANGUNSARI KD.WARU T.AGUNG,TA|45|KMG TOP UP PRA PENS|20180713|20330713|182000000|0|XXXX|1|3
01532040|1MG26703|015|EKO SACSONO|KMGRA|L|3504011301820001|TULUNGAGUNG|19820113|DSN.SEKARSARI 01/02, TUNGGULSARI,TULUNGAGUNG|40|KMG TOP UP|20180713|20330713|94000000|0|XXXX|1|3
01546894|CK001104|129|NIKMATUL KOTIMAH,SS|KMGRA|P|3504184312770003|TULUNGAGUNG|19771203|DSN DUREN RT 003 RW 001, DS SUKOANYAR KEC PAKEL,TULUNGAGUNG|40|CK001104|20180713|20280713|120000000|0|XXXX|1|3
04015379|0406828M|040|SUTIKNO,DRS|KMGPA|L|3573051908580001|PROBOLINGGO|19580810|JL.MERTOJOYO BARAT NO.36, RT,01 RW,02,MALANG|40|REAL KMG SUTIKNO|20180713|20280713|217000000|0|XXXX|1|6
01220896|01229932|012|ABDUL HALIK|KMGRA|L|3574052405700001|PROBOLINGGO|19700524|JL SUNAN AMPEL, RT 01 RW 08 JREBENG LOR,PROBOLINGGO|40|REAL KMG 2018|20180713|20260713|133000000|0|XXXX|1|6
11270037|KMGI4003|042|YANDI SILVI NOVITA SARI|KMGPK|P|3506174205950004|KEDIRI|19950502|JL PUNCAK JAYA I LK I, ,KEDIRI|35|REAL KMG YANDI SILVI N|20180713|20210713|20000000|0|XXXX|0|6
01263912|162594DD|161|MARSOTO|KMGRA|L|3513010308730003|PROBOLINGGO|19730803|JETAK RT 06 RW 02, JETAK RT 06 RW 02,PROBOLINGGO|47|REAL KMG PERANGKAT MARSOTO|20180713|20230713|35000000|0|XXXX|1|6
01263913|162595DD|161|NGANTORO|KMGRA|L|3513010702720002|PROBOLINGGO|19720207|DSN KRAJAN RT 02 RW 01, DSN KRAJAN RT 02 RW 01,PROBOLINGGO|47|REAL KMG PERANGKAT NGANTORO|20180713|20230713|35000000|0|XXXX|1|6
00342298|PN165033|165|SITI NURKAYATI|KMGRA|P|3505104406570001|BLITAR|19570604|DSN SEMANDING RT003 RW009, BANGGLE KANIGORO,BLITAR|45|REAL KMG SITI N/33/SARLINA|20180713|20300713|221000000|0|XXXX|1|4
47117199|04068150|004|RIAMI|KMGRA|P|3507216904700001|MALANG|19700429|GEDANGAN RT016 RW003, GONDOWANGI WAGIR,KAB MALANG|40|PAN|20180713|20260713|183000000|0|XXXX|1|8
40402907|04068151|004|EVA LEONA AGUSTIN|KMGRA|P|3573035108770004|MALANG|19770811|JL D LIMBOTO TIMUR DALAM V A5, E27 RT3 RW14 SAWOJAJAR,MALANG|40|PAN|20180713|20260713|100000000|0|XXXX|1|8
01445861|14MG8925|014|EDI PRAWATA|KMGRA|L|40904100702803|BLITAR|19650829|DSN SLOROK RT03 RW02, GARUM,BLITAR|40|014/260/KMG/VII/2018 SARLINA|20180713|20210713|50000000|0|XXXX|0|4
14215159|14MG8926|014|UMI DEWI NURYANI|KMGRA|P|3505105007760001|BLITAR|19760710|JL SURYAT RT001 RW005, GEDOG KEC SANANWETAN,BLITAR|40|014/261/KMG/VII/2018 SARLINA|20180713|20250713|80000000|0|XXXX|0|4
47185335|05906793|059|SUTARJO|KMGRA|L|3573012012630002|MALANG|19631220|JL CILIWUNG I NO 6 Y, RT011 RW007,MALANG|40|REAL KMG SUTARJO|20180713|20210713|53500000|0|XXXX|0|8
01330981|01341303|013|ZAIFUL HASAN|KMGRA|L|3513120407710002|PROBOLINGGO|19710704|JL SAMUDRA INTAN RT01 RW01, PONDOK KELOR PAITON,PROBOLINGGO|40|REALS KMG PAN|20180713|20240713|159000000|0|XXXX|1|8
14283565|MG811510|081|NURIT YUNIARTI|KMGRA|P|350503 640671 0003|KEDIRI|19710624|DS. PAKISREJO RT.04 RW.01, KEC. SRENGAT,BLITAR|40|REAL KMG NURIT YUNIARTI SAR 49|20180713|20280713|169000000|0|XXXX|0|4
14286306|MG811511|081|USNATU AWALIN|KMGRA|P|350503 470672 0001|TULUNGAGUNG|19720607|DS. WONOREJO RT.01 RW.04, KEC. SRENGAT,BLITAR|40|REAL KMG USNATU AWALIN SAR 50|20180713|20210713|80000000|0|XXXX|0|4
01254223|01229933|012|ABU AMIN|KMGRA|L|3574031704690002|PROBOLINGGO|19660407|JL IKAN LUMBA LUMBA NO 59 B, RT 6 RW 2 MAYANGAN,PROBOLINGGO|40|REAL KMG 2018|20180713|20230713|50000000|0|XXXX|1|6
04260128|PRAP0813|135|SUMIYATUN|KMGPA|P|3506176108630002|KEDIRI|19630821|JL NUSA INDAH 94 RT12 RW03, DS TULUNGREJO PARE KEDIRI,KEDIRI|40|REAL KMG 13072018|20180713|20330713|150000000|0|XXXX|1|3
04613675|00160MTG|046|RETNO ENDAH YANUARTI|KMGRA|P|3505154301770001|BLITAR|19770103|TEGALREJO RT 02 RW 01, KEC GANDUSARI,BLITAR|40|REAL KMG RETNO ENDAH Y/SAR|20180713|20300713|150000000|0|XXXX|0|4
04616933|00161MTG|046|MARIA ULFAH|KMGRA|P|3505226406820001|BLITAR|19820624|DSN PLOSO RT03 RW03, SELOPURO,BLITAR|40|REAL KMG MARIA ULFAH/SAR|20180713|20330713|196000000|0|XXXX|1|4
14271617|00162PRP|046|JAROT HENDRO MARTONI|KMGPA|L|3505191003600002|TULUNGAGUNG|19600310|DSN SEMBUNG RT001 RW006, PAGERGUNUNG KESAMBEN,BLITAR|40|REAL KMG JAROT HENDRO M/SAR|20180713|20330713|199000000|0|XXXX|1|4
04611366|00163PRP|046|SITI ASIYAH|KMGPA|P|40906124300241|BLITAR|19620608|DSN BENDOSEWU RT 02 RW 01, BENDOSEWU TALUN,BLITAR|40|REAL KMG ASIYAH/SAR|20180713|20330713|199000000|0|XXXX|1|4
02215420|02246908|022|SUMIATI|KMGRA|P|3503127004690004|TRENGGALEK|19690430|GEMBLEB RT 026 RW 009, GEMBLEB POGALAN,TRENGGALEK|40|REAL KMG SUMIATI|20180713|20260713|188000000|0|XXXX|1|6
04705897|47MG4268|047|ISTICHOROH|KMGPA|P|3504105006550001|TULUNGAGUNG|19550610|DESA BENDILJATIKULON RT.3 RW.1, KEC.SUMBERGEMPOL,T.AGUNG|45|KMGP|20180713|20210713|50000000|0|XXXX|1|3
04705233|47MG4269|047|SITI ZUHRIYAH|KMGRA|P|3504034504790001|TULUNGAGUNG|19790405|DESA BANJAREJO RT.02.RW.03, KEC.REJOTANGAN,TULUNGAGUNG|40|KMG|20180713|20200713|25000000|0|XXXX|1|3
02245671|02246909|022|EFTI RATNA ELVIRGONITA|KMGRA|P|3503114705770001|TRENGGALEK|19770507|PERUM TAMAN AGUNG PERMAI C 14, RT 014 RW 003 TAMANAN,TRENGGALEK|40|REAL KMG EFTI RATNA ELVIRGONIT|20180713|20330713|184000000|0|XXXX|1|6
24349253|118A0309|011|ERMINATI PANCANINGRUM|KMGPK|P|3517110505890004|MADIUN|19720916|JL WISNU WARDANA NO 22, RT002 RW001 KALIWUNGU JOMBANG,JOMBANG|35|REAL KMG ERMINANTI P|20180713|20260713|225000000|0|XXXX|1|8
01142514|118A0310|011|WIWIN ROHMATUL UMMAH,AMD BID|KMGRA|P|3517094510790006|LAMONGAN|19791005|JL SULAWWESI 15 RT 23 RW 2, JOMBANG,JOMBANG|40|REAL KMG WIWIN ROHMATUL U|20180713|20280713|120000000|0|XXXX|1|2
08904453|89MG1212|089|MOCHAMAD TOYIB|KMGRA|L|3504061705810002|TULUNGAGUNG|19810517|DSN KRAJAN 002/001, PAGERWOJO,TULUNGAGUNG|41|REAL 89MG1212|20180713|20280713|110000000|0|XXXX|1|3
24308130|318A0070|143|SRIANI|KMGPK|P|3517155203840003|JOMBANG|19840312|DSN MAMBANG RT 010 RW 002, ,JOMBANG|35|REAL KMG143|20180713|20210713|30000000|0|XXXX|0|6
24306196|318A0071|143|YULIANAH|KMGPK|P|3517136707810001|JOMBANG|19810727|DUSUN DUNGMANGU RT 03 RW 10, KEDUNGLOSARI TEMBELANG,JOMBANG|35|REAL KMG143|20180713|20220713|40000000|0|XXXX|0|6
24306113|318A0072|143|SUSANTI|KMGPK|P|3517165106900001|JOMBANG|19900611|DUSUN LEDOK RT 03 RW 04, GENENGANJASEM KABUH,JOMBANG|35|REAL KMG143|20180713|20220713|40000000|0|XXXX|0|6
24307376|318A0073|143|KUSNUL ABIDIN|KMGPK|L|3517202908720001|JOMBANG|19720829|DSN BALONGGEMEK RT01 RW001, BALONGGEMEK MEGALUH,JOMBANG|35|REAL KMG143|20180713|20220713|50000000|0|XXXX|1|6
04764364|04068152|004|DIMAS EKO ISNAINI|KMGRA|L|3573030511890006|MALANG|19891105|JL KI AGENG GRIBIG RT2RW1, MADYOPURO KEDUNGKANDANG,MALANG|40|PAN|20180713|20230713|70000000|0|XXXX|0|8
