01357780|01341098|013|SUHARTONO|KMGRA|L|3513130604640001|PROBOLINGGO|19640406|KRAJAN RT2RW2 KLAMPOKAN, BESUK,PROBOLINGGO|47|REAL KMG ASKRINDO|20180703|20230703|25000000|10000|XXXX|0|6
01357782|01341100|013|ASAD BUDIANTO|KMGRA|L|351313207870003|PROBOLINGGO|19870712|LENTANG RT1 RW4 KLAMPOKAN, BESUK,PROBOLINGGO|47|REAL KMG ASKRINDO|20180703|20230703|25000000|10000|XXXX|0|6
01391509|01341102|013|SAMAD HENDRIYANTO|KMGRA|L|750315270988|PROBOLINGGO|19750306|KLAMPOKAN RT01 RW04, BESUK,PROBOLINGGO|47|REAL KMG ASKRINDO|20180703|20230703|25000000|10000|XXXX|0|6
01357786|01341106|013|DONY SANDY|KMGRA|L|3513133012820006|PROBOLINGGO|19821230|DUSUN LENTANG RT1RW4, KLAMPOKAN BESUK,PROBOLINGGO|47|REAL KMG ASKRINDO|20180703|20200703|26000000|10000|XXXX|0|6
01527598|PP000236|015|WAHYUDIONO|KMGPA|L|1203022712590001|TULUNGAGUNG|19591227|DSN CONTONG RT.03 RW.02, BANDUNG, BANDUNG,TULUNGAGUNG|45|KMG TOP PRA PENSIUN|20180703|20280703|184000000|10000|XXXX|1|2
01357784|01341099|013|BENY IRAWAN|KMGRA|L|3513130612880002|PROBOLINGGO|19881206|KRAJAN RT2RW2 KLAMPOKAN, BESUK,PROBOLINGGO|47|REALS KMG ASKDO|20180703|20230703|25000000|10000|XXXX|0|6
01357781|01341101|013|NAWAWI|KMGRA|L|3513131708690002|PROBOLINGGO|19690817|DUSUN LENTANG RT1 RW4, KLAMPOKAN BESUK,PROBOLINGGO|47|REALS KMG ASKDO|20180703|20230703|25000000|10000|XXXX|0|6
01357783|01341107|013|ABDUL HAYYI|KMGRA|L|3513133110840002|PROBOLINGGO|19841031|DUSUN KASOR RT1 RW1, KLAMPOKAN BESUK,PROBOLINGGO|47|REALS KMG ASKDO|20180703|20230703|25000000|10000|XXXX|0|6
00498646|01341156|013|SUTRISNO,SH|KMGPA|L|3513111507580002|PROBOLINGGO|19580715|DUSUN PANDE RT22 RW10, TRIWUNGAN KOTAANYAR,PROBOLINGGO|45|REALS KMG ASKDA|20180703|20330703|200000000|10000|XXXX|1|6
02249969|02246882|022|KADIONO|KMGRA|L|3503051901670001|TRENGGALEK|19670119|GERBO RT 015 RW 006, NGEPEH TUGU,TRENGGALEK|40|REAL KMG KADIONO|20180703|20230703|50000000|10000|XXXX|1|6
05606061|07122961|071|MARZUKI|KMGRA|L|3513202006730002|PROBOLINGGO|19730620|DSN BANDUNGAN RT 09 RW 03, TEGALSONO TEGALSIWALAN,PROBOLINGGO|47|PRKT TEGALSONO|20180703|20230730|35000000|10000|XXXX|1|6
10801503|10800552|108|MARGA SULITA|KMGRA|P|6473046904700002|SIDOARJO|19700429|PERUM KARANGPLOSO VIEW RT03, RW18 NGENEP KARANGPLOSO,KABUPATEN MALANG|40|REAL MARGA|20180703|20200703|30000000|10000|XXXX|0|8
01336044|01341190|013|SUGENG AGUS PURNOMO,SARJANA|KMGRA|L|3574010308690001|MALANG|19690803|PERUM PRASAJA MULYA D9, KEDUPAK PROBOLINGGO,PROBOLINGGO|40|REAL KMG ASPAN|20180703|20270703|150000000|10000|XXXX|0|11
01331797|01341191|013|ABDULLAH|KMGRA|L|3513170108730010|PROBOLINGGO|19730801|DUSUN GUDANG RT07 RW05, SELOGUDIG PAJARAKAN,PROBOLINGGO|40|REALS KMG ASPAN|20180703|20280703|170000000|10000|XXXX|1|11
16200551|TR000863|162|ADE SUGIARTO,SMA|KMGRA|L|3507051005850010|MALANG|19850510|UBALAN RT002 RW016, PAMOTAN DAMPIT,KAB MALANG|40|REAL KMG TR000863|20180703|20270703|210000000|10000|XXXX|1|3
16206143|TR000864|162|JOKO ISNADI,S2|KMGRA|L|3573032706660003|MALANG|19660627|JL KOL SUGIONO III PS /47, RT001 RW004 MERGOSONO KKANDANG,MALANG|40|REAL MIKRO TR000864|20180703|20200703|150000000|10000|XXXX|0|3
47178399|TR000866|162|ADAM BIRIF|KMGRA|L|3507090204590001|MERAUKE|19590402|TANGGUNG RT01 RW03, KEL TANGGUNG KEC TUREN,KABUPATEN MALANG|45|REAL KMG|20180703|20230703|45000000|10000|XXXX|0|3
42619122|TR000867|162|MAHRUPAH TRI SAYEKTI|KMGRA|P|3507055405710001|MALANG|19710514|POJOK RT7 RW01, DAMPIT,KAB MALANG|40|REAL|20180703|20280703|160000000|10000|XXXX|1|3
60004346|60015416|060|SRI PONTJOWATI,SPD|KMGRA|P|3507134207670003|BLITAR|19670702|JL LANGSEP RT 05 RW 01, KEDUNGPEDARINGAN KEPANJEN,KAB MALANG|40|REAL SRI PNTJOWATI P2%AGRAASDA|20180703|20270703|130000000|10000|XXXX|1|3
02252582|02246883|022|MARTATIK|KMGRA|P|3503115103680003|TRENGGALEK|19680311|LINGK CENGKONG RT 013 RW 005, TRENGGALEK,TRENGGALEK|40|REAL KMG MARTATIK|20180703|20230703|67000000|10000|XXXX|1|6
24349014|118A0279|011|YOHAN WINDRAYANTO,SPD|KMGRA|L|830415560018|JOMBANG|19830409|JL SULTAN AGUNG NO 11, GUDO,JOMBANG|40|REAL KMG|20180703|20280703|125000000|10000|XXXX|0|3
01176115|118A0280|011|SITI NURKALIMAH,SE|KMGRA|P|3518197011720002|NGANJUK|19721130|DUSUN NGRINGIN RT002 RW002, JOMBANG,NGANJUK|40|REAL KMG|20180703|20240703|156000000|10000|XXXX|0|3
01315940|01341193|013|ABU BAKAR|KMGPA|L|3513090101610002|PROBOLINGGO|19610101|DUSUN KRAJAN RT 05 RW 02, NOGOSAREN GADING,PROBOLINGGO|45|REAL KMG ASKRIDA|20180703|20280703|75000000|10000|XXXX|1|3
00497449|162516MG|161|CHUSNUL CHOTIMAH|KMGRA|L|3513194104670001|MALANG|19660314|JL GENTENGAN KEDUNGDALEM, DRINGU,PROBOLINGGO|40|REAL KMG CHUSNUL CHOTIMAH|20180703|20250301|90000000|10000|XXXX|0|6
01211547|01229924|012|AGUS RIANTO|KMGRA|L|3574012308780003|KENDAL|19780823|JL HIMALAYA D 1, RT 2 RW 4 TRIWUNG LOR,PROBOLINGGO|40|REAL KMG 2018|20180703|20200703|87000000|10000|XXXX|1|3
00361829|060P0204|060|M MADAN,SP|KMGPA|L|3507132603610001|BANGKALAN|19610326|CEPOKO RT18 RW2 NO334, KEPANJEN,KAB MALANG|40|REAL MADAN P2% AGRA ASKRIDA|20180703|20250703|58000000|10000|XXXX|1|3
60001212|60015410|060|NUR CHAMIDAH|KMGRA|L|3507196007790001|MALANG|19790720|SUTAJAYAN, RT RW 1 2 PAKISAJI,MALANG|40|REAL NUR CHAMIDAH P2% AGRAASDA|20180703|20260703|150000000|10000|XXXX|1|3
04503689|218W0040|045|SUCIPTO|KMGPA|L|3517071704600001|JOMBANG|19600417|JAPANAN RT 06 RW 02, JAPANAN MOJOWARNO,JOMBANG|40|REAL PRAPEN|20180703|20240703|130000000|10000|XXXX|1|3
06161345|KMGP0811|135|ISWINARTI,SPD|KMGRA|P|3506184811730003|KEDIRI|19731108|DSN.KWAGEAN RT018 RW006, DS.KRENCENG KEC.KEPUNG,KEDIRI|40|REAL KMG 03072018|20180703|20230703|100000000|10000|XXXX|0|6
07119066|07123003|071|RUDI HARTONO|KMGRA|L|3513092504830003|PROBOLINGGO|19830425|DUSUN PRASI SELATAN RT17 RW07, PRASI GADING,PROBOLINGGO|47|REAL KMG PERANGKAT|20180703|20230703|35000000|10000|XXXX|0|6
01343690|07123004|071|SUJAI KHATIB|KMGRA|L|3513091011660001|PROBOLINGGO|19661110|DSN BERCAK RT07 RW03, PRASI GADING,PROBOLINGGO|47|REAL KMG PERANGKAT|20180703|20230703|35000000|10000|XXXX|0|6
07161063|07123005|071|AHMADI|KMGRA|L|3513090102820009|PROBOLINGGO|19820201|DUSUN DARIS RT03 RW01, ,PROBOLINGGO|47|REAL KMG PERANGKAT|20180703|20230703|35000000|10000|XXXX|0|6
07119128|07123008|071|HAFIT EFENDI|KMGRA|L|3513091007840003|PROBOLINGGO|19840710|DUSUN KRAJAN RT11 RW05, ,PROBOLINGGO|47|REAL KMG PERANGKAT|20180703|20230703|35000000|10000|XXXX|0|6
01338064|07123012|071|FADLI|KMGRA|L|3513091606650001|SITUBONDO|19650616|DUSUN KRAJAN RT11 RW05, PRASI GADING,PROBOLINGGO|47|REAL KMG PERANGKAT|20180703|20230703|35000000|10000|XXXX|0|6
07119552|07123016|071|MOH ROSYID RAHMAT|KMGRA|L|3513091202700003|PROBOLINGGO|19700212|DUSUN KRAJAN RT14 RW06, ,PROBOLINGGO|47|REAL KMG PERANGKAT|20180703|20230703|35000000|10000|XXXX|0|6
01264069|162507DD|161|SUYONO|KMGRA|L|3513240505780003|PROBOLINGGO|19780505|DSN KRAJAN RT 10 RW 03, DSN KRAJAN RT 10 RW 03,PROBOLINGGO|47|REALS ADD|20180703|20230703|35000000|10000|XXXX|1|6
01263903|162508DD|161|BUNARTO|KMGRA|L|3513240503620002|PROBOLINGGO|19620305|DSN KUBURAN RT 05 RW 02, DSN KUBURAN RT 05 RW 02,PROBOLINGGO|47|REALS ADD|20180703|20210703|25000000|10000|XXXX|1|6
01264067|162509DD|161|BUDI SANTOSO|KMGRA|L|3513242406860002|PROBOLINGGO|19860624|DSN KRAJAN RT 08 RW 03, DSN KRAJAN RT 08 RW 03,PROBOLINGGO|47|REALS ADD|20180703|20230703|35000000|10000|XXXX|1|6
01264072|162510DD|161|ENTO P SANTO|KMGRA|L|3513242010600002|PROBOLINGGO|19601020|DSN KRAJAN RT 08 RW 03, BOTO LUMBANG,PROBOLINGGO|47|REALS ADD|20180703|20200703|15000000|10000|XXXX|1|6
01264060|162511DD|161|MITO|KMGRA|L|3513240107600264|PROBOLINGGO|19600701|DSN KAYU JARAN RT 01 RW 01, DSN KAYU JARAN RT 01 RW 01,PROBOLINGGO|47|REALS ADD|20180703|20200703|15000000|10000|XXXX|1|6
01264059|162512DD|161|TROYALI|KMGRA|L|3513240807630001|PROBOLINGGO|19630708|DSN KRAJAN RT 07 RW 03, ,PROBOLINGGO|47|REALS ADD|20180703|20230703|35000000|10000|XXXX|1|6
01264071|162514DD|161|NITO|KMGRA|L|3513240405670002|PROBOLINGGO|19670504|DSN LOROKAN RT 13 RW 04, DSN LOROKAN RT 13 RW 04,PROBOLINGGO|47|REALS ADD|20180703|20230703|35000000|10000|XXXX|1|6
01264068|162515DD|161|SODIK|KMGRA|L|3513241602780001|PROBOLINGGO|19780216|DSN SEKAR PUTIH RT 14 RW 05, DSN SEKAR PUTIH RT 14 RW 05,PROBOLINGGO|47|REALS ADD|20180703|20230703|35000000|10000|XXXX|1|6
40400417|04068089|004|SUWARNO|KMGRA|L|3573012504500001|BANYUWANGI|19500425|JL.WIROTO VII, RT 007 RW 007,MALANG|45|PAN|20180703|20210703|28500000|10000|XXXX|1|8
04276681|KMGI3989|042|ZAINAL MUSTAQIM|KMGRA|L|3506112501830001|KEDIRI|19830125|DSN BRINGIN 003001 WONOASRI, PAGU,KEDIRI|40|REAL KMG ZAINAL MUSTAQIM|20180703|20330703|145000000|10000|XXXX|0|3
01144736|318A0066|143|MUSLIMIN|KMGRA|L|35171101109570001|JOMBANG|19570911|MOJOKAMBANG RT 01 RW 06, JOMBANG,JOMBANG|45|REAL KMG 143|20180703|20200703|30000000|10000|XXXX|1|3
02217011|16600431|166|SUDARMI,S.PD|KMGRA|P|3503034404640006|TRENGGALEK|19640404|SIDEM RT 064 RW 018, JOMBOK PULE,TRENGGALEK|40|REAL KMG SUDARMI|20180703|20220703|130000000|10000|XXXX|1|6
47160188|60015411|060|DWI HARTINI,DRA|KMGRA|P|3507336911650001|MALANG|19651129|JL DIPONEGORO RT01 RW01, SUWARU PAGELARAN,KABUPATEN MALANG|40|REAL DWI HARTINI P2% AGRAASDA|20180703|20220703|50000000|10000|XXXX|1|3
01234767|01229925|012|ABDUL RAKHMAN|KMGRA|L|3513211007740001|PROBOLINGGO|19740710|DSN TALANG RT 9 RW 3, DS JANGUR SUMBERASIH,PROBOLINGGO|40|REAL KMG 2018|20180703|20320703|191000000|10000|XXXX|0|3
07119090|07123006|071|IRAWANTO|KMGRA|L|3513091509650002|PROBOLINGGO|19650915|DUSUN KRAJAN RT10 RW05, PRASI GADING,PROBOLINGGO|47|REAL KMG PERANGKAT|20180703|20230703|35000000|10000|XXXX|0|6
07119200|07123007|071|ABD MUNIR|KMGRA|L|3513091406790002|PROBOLINGGO|19790614|DUSUN DARIS RT02 RW01, ,PROBOLINGGO|47|REAL KMG PERANGKAT|20180703|20230703|35000000|10000|XXXX|0|6
07131075|07123010|071|ABD BASITH|KMGRA|L|3513091512800004|PROBOLINGGO|19801215|DUSUN DARIS RT02 RW01, ,PROBOLINGGO|47|REAL KMG PERANGKAT|20180703|20230703|35000000|10000|XXXX|0|6
07119120|07123011|071|MUHAMMAD RIZALDI|KMGRA|L|3513091510970003|PROBOLINGGO|19971015|DUSUN BERCAK RT06 RW03, ,PROBOLINGGO|47|REAL KMG PERANGKAT|20180703|20230703|35000000|10000|XXXX|0|6
07119203|07123015|071|ABDUL LATIF|KMGRA|L|3513090709830003|PROBOLINGGO|19830907|DUSUN PRASI SELATAN RT19 RW08, ,PROBOLINGGO|47|REAL KMG PERANGKAT|20180703|20230703|35000000|10000|XXXX|0|6
02253920|11092906|110|SUKARTILAH|KMGRA|P|3503015208660003|TRENGGALEK|19660812|KARANG RT 022 RW 007, WONOCOYO PANGGUL,TRENGGALEK|40|REAL KMG - SUKARTILAH|20180703|20230703|70000000|10000|XXXX|0|6
01264070|162517DD|161|ABDULLAH|KMGRA|L|351324261168000|PROBOLINGGO|19681126|DSN KABURAN RT 04 RW 03, DSN KABURAN RT 04 RW 03,PROBOLINGGO|47|REAL KMG PERANGKAT ABDULLAH|20180703|20230703|35000000|10000|XXXX|0|6
14170984|14MG8899|014|FRIDA NURCAHYAWATI|KMGRA|P|3572016110820001|BLITAR|19821021|JL SRIGADING GG V NO 06, RT02 RW13 KEPANJENKIDUL,BLITAR|40|014/235/KMG/VII/2018 PAN PASF|20180703|20300703|130000000|10000|XXXX|1|8
14065680|14MG8901|014|PRADIANNA|KMGRA|P|3572014409630001|BLITAR|19630904|JL SUMANTRI BROJONEGORO NO 67, SENTUL KEPANJENKIDUL,BLITAR|40|014/236/KMG/VII/2018 PAN PASF|20180703|20230703|60000000|10000|XXXX|1|8
14297548|14MG8902|014|RUSI ARIDHO|KMGRA|L|3505172611780001|BLITAR|19781126|DUSUN MANUKAN RT 01 RW 02, POJOK GARUM,BLITAR|40|014/238/KMG/VII/2018 PAN PASF|20180703|20260703|138000000|10000|XXXX|1|8
00339489|14PNS962|014|PURWANTO|KMGPA|L|3505071404650001|BLITAR|19650414|DSN BANYUURIP RT 03 RW 03, SUMBERINGIN KEC SANANKULON,BLITAR|45|014/023/PP/VII/2018 PAN PASF|20180703|20330703|129000000|10000|XXXX|1|8
01502619|1MG26686|015|NURALI|KMGRA|L|3504021412590003|TULUNGAGUNG|19591214|DSN GEDANGSEWU UTARA 04/01, GEDANGSEWU BOYOLANGU,TULUNGAGUNG|45|REAL KMG|20180703|20210703|30000000|10000|XXXX|1|2
01558506|1MG26687|015|MUSTIKANING RAHAYU|KMGRA|P|3504026404700003|TULUNAGGUNG|19700424|JL KI MANGUN SARKORO RT.002/RW, 002 BOYOLANGU TULUNGAGUNG,TULUNGAGUNG|40|REAL KMG|20180703|20270703|140000000|10000|XXXX|1|2
40401390|PR000349|004|ESTU WINARTI|KMGPA|P|3573026004650002|MALANG|19650420|JL BS RIADI V NO 12, RT 2 RW 4,MALANG|40|PAN|20180703|20330703|144500000|10000|XXXX|1|8
14199877|14MG8898|014|ICHWAN SURYANTO|KMGRA|L|3505100106780001|3505100106780001|19780601|DSN TLOGO II RT03 RW03, TLOGO,BLITAR|40|014/234/KMG/VII/2018 PAN PAS|20180703|20250703|85000000|10000|XXXX|1|8
14279729|14MG8900|014|ABUSANI|KMGRA|L|3505070402810004|SUMENEP|19810204|DSN BENDOSARI RT03 RW01, BENDOSARI SANANKULON,BLITAR|40|014/237/KMG/VII/2018 PAN PAS|20180703|20220703|90000000|10000|XXXX|1|8
07119503|07122997|071|HASAN|KMGRA|L|3513090412860002|PROBOLINGGO|19861204|DUSUN KRAJAN II RT04 RW02, ,PROBOLINGGO|47|REAL KMG PERANGKAT|20180703|20230703|35000000|10000|XXXX|0|6
04600350|MP165049|165|REGREAT SUASMIATI|KMGPA|P|3505145912620002|BLITAR|19621219|LINGK SUMBERJO RT 02 RW 03, TALUN,BLITAR|40|REAL KMG REGREAT/49/PANPAS|20180703|20280703|163000000|10000|XXXX|1|8
14285363|189PP071|189|DJUWARIYAH|KMGPA|P|3505124709590001|BLITAR|19590907|LK KEMBANGARUM RT 03 RW 03, KEMBANGARUM SUTOJAYAN,BLITAR|40|11/MG-PP/VII/18/DJUWARIYAH/PAN|20180703|20230703|80000000|10000|XXXX|0|8
01548674|1MG26688|015|WIJI WAHONO|KMGRA|L|3504021210730001|TULUNGAGUNG|19731012|DSN MARON 01/02, BOYOLANGU,TULUNGAGUNG|40|KMG NEW|20180703|20220703|50000000|10000|XXXX|0|2
01106648|118A0281|011|DIMAS KUSSRAMADHANI|KMGRA|P|3517095807800002|PANGKALPINANG|19800718|SAMBONGDUKUH RT 04 RW 07, JOMBANG,JOMBANG|40|REAL KMG|20180703|20330703|269000000|10000|XXXX|0|3
01152479|118A0282|011|YENNI DWI SUPRAPTININGSIH,SPT|KMGRA|P|3517026404820002|JOMBANG|19820424|JLN PAWIYATAN DSN BUMIARJO, JOMBANG,JOMBANG|40|REAL KMG|20180703|20280703|125000000|10000|XXXX|0|3
47083600|04068091|004|ANIS SUCIATI|KMGRA|P|3507226211660001|MALANG|19661122|SENGKALING INDAH I KAV 28 NO54, RT001 RW008 MULYOAGUNG,KAB MALANG|40|SARLINA|20180703|20260703|150000000|10000|XXXX|1|4
46027999|04068092|004|NURUL KHOIRIYAH|KMGRA|P|3514115312780001|PASURUAN|19781213|DSN KEDUNGREJO RT01 RW03, KARANGJATI PANDAAN,PASURUAN|40|ASKRIDA|20180703|20210703|50000000|10000|XXXX|0|3
01211253|21918037|190|IMAM SUGIYANTO,DRS|KMGRA|L|3574011111590002|SUMENEP|19591111|JL ARGOPURO XII BLOK KAV BARU, 12 RT4 RW5,PROBOLINGGO|45|REAL KMG IMAM SUGIYANTO|20180703|20330703|55000000|10000|XXXX|1|6
24342743|118A0283|011|SYARIFATUL MAF ULAH|KMGRA|P|3517174707860001|JOMBANG|19860707|DUSUN RANDUWATANG KIDUL, RT 03 RW 01 RANDUWATANG KUDU,JOMBANG|40|REAL KMG|20180703|20210703|25000000|10000|XXXX|0|3
05607183|01341111|013|EDY SUHARTO|KMGRA|L|3513150208710001|PROBOLINGGO|19710802|DSN OPO OPO LOR RT003 RW004, DSN OPO OPO LOR RT003 RW004,PROBOLINGGO|47|REAL KMG ASKRINDO|20180703|20230703|39000000|10000|XXXX|1|6
05607179|01341112|013|A SHALEHUDDIN|KMGRA|L|3513152503690002|PROBOLINGGO|19690325|DSN KRAJAN RT 06 RW 01, OPO OPO  KREJENGAN,PROBOLINGGO|47|REAL KMG ASKRINDO|20180703|20230703|39000000|10000|XXXX|1|6
05606240|01341118|013|MAHPUDZ ALI|KMGRA|L|3513150706790001|PROBOLINGGO|19790607|DSN DARUNGAN RT02 RW03, OPO OPO KREJENGAN,PROBOLINGGO|40|REAL KMG ASKRIDA|20180703|20230703|39000000|10000|XXXX|1|6
05607190|01341126|013|AHMAD TAUFIQ|KMGRA|L|3513150108840005|PROBOLINGGO|19840801|DUSUN SUMBERAN RT01 RW03, OPO OPO KREJENGAN,PROBOLINGGO|47|REAL KMG ASKRINDO|20180703|20230703|39000000|10000|XXXX|1|6
05612576|01341117|013|SITI UMAIYAH|KMGRA|P|3513155107780003|PROBOLINGGO|19780711|DSN KRAJAN RT05 RW01, OPO OPO KREJENGAN,KAB PROBOLINGGO|47|REAL KMG ASKRINDO|20180703|20230703|39000000|10000|XXXX|0|6
05607181|01341110|013|MUZAMMIL|KMGRA|L|3513150403660002|PROBOLINGGO|19650304|DSN SB BANGER RT 01 RW 02, OPO OPO,PROBOLINGGO|47|REAL KMG ASKRINDO|20180703|20230703|39000000|10000|XXXX|1|6
05607191|01341115|013|MARDIONO LESEM BUDI|KMGRA|L|3513152208840002|PROBOLINGGO|19840822|DSN KRAJAN RT004 RW001, DSN KRAJAN RT004 RW001,PROBOLINGGO|47|REAL KMG ASKRINDO|20180703|20230703|39000000|10000|XXXX|1|6
05607186|01341123|013|SUPYAN|KMGRA|L|3513152203710005|PROBOLINGGO|19710322|DSN SUMBERAN RT001 RW003, DSN SUMBERAN RT001 RW003,PROBOLINGGO|47|REAL KMG ASKRINDO|20180703|20230703|39000000|10000|XXXX|1|6
05612610|01341127|013|UMMI SUROIYAH|KMGRA|P|3513156802820001|PROBOLINGGO|19820228|DSN S BANGER RT002 RW002, OPO OPO KREJENGAN,KAB PROBOLINGGO|47|REAL KMG ASKRINDO|20180703|20230703|39000000|10000|XXXX|0|6
01262744|01341057|013|KHALID ABID|KMGRA|L|3513112111710002|PROBOLINGGO|19711121|DUSUN KRAJAN RT 12 RW 4, TALKANDANG KOTAANYAR,PROBOLINGGO|47|REALS KMG KRIDO|20180703|20230703|39000000|10000|XXXX|1|6
01262745|01341058|013|AMIR MAHMUD|KMGRA|L|3513112802720002|PROBOLINGGO|19720228|DUSUN KANAL RT 10 RW 3, TALKANDANG KOTAANYAR,PROBOLINGGO|47|REALS KMG KRIDO|20180703|20230703|30000000|10000|XXXX|1|6
01355406|01341109|013|ZAENAL ARIFIN|KMGRA|L|3513151204820003|PROBOLINGGO|19820805|ALAS LUMBUNG RT05 RW04, OPO OPO KREJENGAN,PROBOLINGGO|47|REALS KMG KRIDO|20180703|20230703|39000000|10000|XXXX|0|6
01355407|01341113|013|AGUS SYAIKHU|KMGRA|L|3513150707810001|PROBOLINGGO|19810707|DUSUN SUMBER BANGER RT03 RW02, OPO OPO KREJENGAN,PROBOLINGGO|47|REALS KMG KRIDO|20180703|20230703|39000000|10000|XXXX|0|6
01355404|01341116|013|JUMHAN|KMGRA|L|3513151806840002|PROBOLINGGO|19840618|DSN SB BANGER RT02 RW02, OPO OPO KREJENGAN,PROBOLINGGO|47|REALS KMG KRIDO|20180703|20230703|39000000|10000|XXXX|0|6
05606242|01341121|013|TAMARI|KMGRA|L|3513150505650005|PROBOLINGGO|19650505|DSN DARUNGAN RT03 RW03, OPO OPO KREJENGAN,PROBOLINGGO|47|REALS KMG KRIDO|20180703|20230703|39000000|10000|XXXX|1|6
05607184|01341125|013|BUHRI|KMGRA|L|3513150206720002|PROBOLINGGO|19720802|DSN OPO OPO LOR RT004 RW004, DSN OPO OPO LOR RT004 RW004,PROBOLINGGO|47|REALS KMG KRIDO|20180703|20230703|39000000|10000|XXXX|1|6
05606241|01341128|013|RUDI HARIYANTO|KMGRA|L|3513152012930002|PROBOLINGGO|19931220|DSN OPO OPO LOR RT05 RW04, OPO OPO KREJENGAN,PROBOLINGGO|47|REALS KMG KRIDO|20180703|20230703|39000000|10000|XXXX|1|6
01355239|01341129|013|BUKHARI,SSOS|KMGRA|L|3513152011800001|PROBOLINGGO|19801120|DUSUN GUNUNG WARUNG RT02 RW05, OPO OPO KREJENGAN,PROBOLINGGO|47|REALS KMG KRIDO|20180703|20230703|39000000|10000|XXXX|0|6
