Kode| 
02 DATA GAGAL 17000954|Nomor Pinjaman Sudah Ada
02 DATA GAGAL 17000955|Nomor Pinjaman Sudah Ada
02 DATA GAGAL 17000956|Nomor Pinjaman Sudah Ada
02 DATA GAGAL 20M04484|Umur Tidak Sesuai
02 DATA GAGAL MGO13645|Nomor Pinjaman Sudah Ada
02 DATA GAGAL MGO13646|Nomor Pinjaman Sudah Ada