00420651|218A0146|045|NASRONI|KMGRA|L|3517050612640001|BOJONEGORO|19641206|DSN NOTOREJO RT1 RW5, JOMBANG,JOMBANG|40|REAL KMG|20180719|20220719|100000000|0|XXXX|1|11
01511670|1MG26714|015|SUPATMI,DRA|KMGRA|P|3504095105630001|TULUNGAGUNG|19630511|DSN BENDO  RT.1 RW.2, BENDO GONDANG,TULUNGAGUNG|40|REAL KMG|20180719|20210719|102000000|0|XXXX|1|2
01263860|162618DD|161|PANDIT|KMGRA|L|3513232907730002|PROBOLINGGO|19730729|DSN MRICO RT 15 RW 03, DSN MRICO RT 15 RW 03,PROBOLINGGO|47|REAL KMG PERANGKAT PANDIT|20180719|20230719|35000000|0|XXXX|1|8
05605974|07123144|071|IMAM S|KMGRA|L|3513201203730004|PROBOLINGGO|19730312|DSN PLERENAN RT014 RW007, BULUJARAN KIDUL TEGALSIWALAN,PROBOLINGGO|47|REAL KMG PERANGKAT|20180719|20230719|35000000|0|XXXX|1|8
14142617|14MG8934|014|MOCH CHOIRUDIN|KMGRA|L|3572010603650004|KEDIRI|19650306|JL PINUS CEMARA GG I TIMUR, KEPANJENKIDUL,BLITAR|40|081/9/PK-KMG/II/2018 ASKRINDO|20180719|20230213|133514595|0|XXXX|1|99
14202223|14MG8935|014|SUPARYONO|KMGRA|L|3572030605720002|SUMENEP|19720506|PERUM GKR BLOK A 12, RT04 RW16,BLITAR|40|014/269/KMG/VII/2018 ASKRINDO|20180719|20240719|80000000|0|XXXX|1|99
07132005|01341229|013|KUSYANTO|KMGRA|L|3513130107730220|PROBOLINGGO|19730701|KRAJAN 2 RT6 RW2 BESUK KIDUL, BESUK,PROBOLINGGO|47|REAL KMG PANPA|20180719|20230719|25000000|0|XXXX|0|8
02216920|02246917|022|YATENO|KMGRA|L|3503111204660005|TRENGGALEK|19660412|HAYAM WURUK RT 20 RW 07, NGANTRU,TRENGGALEK|40|REAL KMG YATENO|20180719|20230719|100000000|0|XXXX|1|6
04016488|0406834M|040|AGUS BHASKARA,IR|KMGRA|L|3573052308700001|PAMEKASAN|19700823|PERUM DE GREEN PAVILION B-10, JL AKORDION RT02 RW10,MALANG|40|REAL KMG AN.AGUS BHASKARA|20180719|20220719|20000000|0|XXXX|0|3
01549226|1MG26715|015|SUMINO|KMGRA|L|3503062512640001|SURABAYA|19641225|DSN GLONGAHLOR 08/02, SUMBERINGIN KARANGAN,TRENGGALEK|41|REAL KMG|20180719|20230719|52000000|0|XXXX|1|2
01533378|1MG26716|015|CUCUK ISDIANTO|KMGRA|P|3504021605710003|TULUNGAGUNG|19710516|JL. KIMANGUN SARKORO II/17, RT 6/1 BOYOLANGU,TULUNGAGUNG|40|REAL KMG|20180719|20290419|165000000|0|XXXX|1|2
05606531|162623DD|161|BUDIN|KMGRA|L|3513030201730002|PROBOLINGGO|19730102|DSN KALIGUNDE RT15 RW04, MENYONO KURIPAN,PROBOLINGGO|47|REAL KMG PERANGKAT BUDIN|20180719|20230719|35000000|0|XXXX|1|8
05606528|162624DD|161|EMO|KMGRA|L|3513030903770001|PROBOLINGGO|19770309|DSN KRAJAN RT02 RW01, MENYONO KURIPAN,PROBOLINGGO|47|REAL KMG PERANGKAT EMO|20180719|20230719|25000000|0|XXXX|1|8
05606526|162625DD|161|AMAT|KMGRA|L|3513032106750001|PROBOLINGGO|19750621|DSN KRASAK RT06 RW02, MENYONO KURIPAN,PROBOLINGGO|47|REAL KMG PERANGKAT AMAT|20180719|20230719|35000000|0|XXXX|1|8
01205023|162626MG|161|KHUBUL KHOIRI,SAG|KMGPA|L|3513230512590001|PROBOLINGGO|19591205|JL PERNING 438 RT 5 RW 2, DSN JALIT DS TONGAS WETAN,PROBOLINGGO|40|REAL PRAPEN KHUBUL KHOIRI|20180719|20230701|90000000|0|XXXX|1|8
01263897|162619DD|161|SRI SUMILOWATI|KMGRA|P|3513244108670001|PROBOLINGGO|19670801|DSN KRAJAN RT 11 RW 03, DSN KRAJAN RT 11 RW 03,PROBOLINGGO|47|REAL KMG PERANGKAT SRI SUMILOW|20180719|20230719|35000000|0|XXXX|1|8
01263896|162620DD|161|SUSWANTI|KMGRA|P|3513246812700001|PROBOLINGGO|19701228|DSN TENGGIR RT 14 RW 04, DSN TENGGIR RT 14 RW 04,PROBOLINGGO|47|REAL KMG SUSWANTI|20180719|20230719|35000000|0|XXXX|1|8
01263895|162621DD|161|ARSU|KMGRA|L|3513241706790001|PROBOLINGGO|19790617|DSN WATURITI RT 22 RW 06, DSN WATURITI RT 22 RW 06,PROBOLINGGO|47|REAL KMG PERANGKAT ARSU|20180719|20230719|35000000|0|XXXX|1|8
01264012|162622DD|161|MUHAMAD YUSUF|KMGRA|L|3513240808810003|PROBOLINGGO|19810808|DSN KRAJAN RT 01 RW 01, DSN KRAJAN RT 01 RW 01,PROBOLINGGO|47|REAL KMG PERANGKAT MUH YUSUF|20180719|20230719|35000000|0|XXXX|0|8
47486777|04068162|004|ERLIN MAISAR,MRS|KMGRA|P|3573035305670004|MALANG|19670513|JL MAYJEND SUNGKONO VIII/IB, ,MALANG|40|ASKRIDA|20180719|20250419|114000000|0|XXXX|1|6
00352447|04068163|004|YUNIAR KUSMARINI,MSI|KMGRA|P|3573025306570001|MALANG|19570613|JL KALIMANTAN 72 RT009 RW002, KASIN KLOJEN,MALANG|40|ASKRINDO|20180719|20320519|182000000|0|XXXX|1|6
91132004|60015435|060|IPUNG DYAH KURNIASASI|KMGRA|P|3507015112770002|MALANG|19771211|KALIPAKEM RT 009 RW 003, ,KAB MALANG|40|REAL IPUNG DYAH KURNIASASI|20180719|20330719|200000000|0|XXXX|1|8
01262696|07123145|071|SAMSUL ARIFIN|KMGRA|L|3513080109770001|PROBOLINGGO|19770901|DUSUN CURAH KRAJAN RT 1 RW 1, DUSUN CURAH KRAJAN RT 1 RW 1,PROBOLINGGO|47|REAL KMG PERANGKAT|20180719|20230719|35000000|0|XXXX|1|8
01262702|07123146|071|AHMAD|KMGRA|L|3513080107860664|PROBOLINGGO|19860701|DUSUN JOMBO RT 13 RW 5 BETEK, DUSUN JOMBO RT 13 RW 5 BETEK,PROBOLINGGO|47|REAL KMG PERANGKAT|20180719|20230719|35000000|0|XXXX|1|8
01262698|07123148|071|SHOLEHUDDIN|KMGRA|L|3513081412860003|PROBOLINGGO|19861214|DUSUN DUNGBANGU RT 9 RW 7, BETEK KRUCIL,PROBOLINGGO|47|REAL KMG PERANGKAT|20180719|20230719|35000000|0|XXXX|1|8
01262699|07123150|071|HASAN|KMGRA|L|3513080107880485|PROBOLINGGO|19880701|DUSUN CURAH KRAJAN, RT 1 RW 1 BETEK KRUCIL,PROBOLINGGO|47|REAL KMG PERANGKAT|20180719|20230719|35000000|0|XXXX|1|8
01262704|07123151|071|ZAINAL ABIDIN|KMGRA|L|3513080802700003|PROBOLINGGO|19700208|DUSUN NAGKAAN RT 4 RW 3, BETEK KRUCIL,PROBOLINGGO|47|REAL KMG PERANGKAT|20180719|20230719|35000000|0|XXXX|1|8
01262700|07123152|071|RIANTO|KMGRA|L|3513081512830002|PROBOLINGGO|19831215|DUSUN SUMBER JAMBE RT 12 RW 9, DUSUN SUMBER JAMBE RT 12 RW 9,PROBOLINGGO|47|REAL KMG PERANGKAT|20180719|20230719|35000000|0|XXXX|1|8
07119564|07123153|071|SUGIK|KMGRA|L|3513080610760001|PROBOLINGGO|19761006|DUSUN CURAH KRAJAN RT01 RW01, ,PROBOLINGGO|47|REAL KMG PERANGKAT|20180719|20230719|35000000|0|XXXX|0|8
07105507|07123154|071|ADY PURNOMO|KMGRA|L|3513081709820001|PROBOLINGGO|19820917|DUSUN SUMBER JAMBE RT12 RW05, BETEK KRUCIL,PROBOLINGGO|47|REAL KMG PERANGKAT|20180719|20230719|35000000|0|XXXX|0|8
01262697|07123155|071|PUSRI ASMO|KMGRA|L|3513082009660002|PROBOLINGGO|19660920|DUSUN SUMBER JAMBE RT 12 RW 9, DUSUN SUMBER JAMBE RT 12 RW 9,PROBOLINGGO|47|REAL KMG PERANGKAT|20180719|20230719|35000000|0|XXXX|1|8
07119763|07123156|071|SAWAR|KMGRA|L|351380403780002|PROBOLINGGO|19771012|DUSUN MELO'AN RT 02 RW 01, BETEK KRUCIL,PROBOLINGGO|47|REAL KMG PERANGKAT|20180719|20230719|35000000|0|XXXX|0|8
09414096|09400795|094|BINA NURPITA RAHAYU|KMGRA|P|3503124502830001|TRENGGALEK|19830205|KETOK RT 008 RW 005, MARGOMULYO WATULIMO,TRENGGALEK|40|REAL KMG BINA NURPITA RAHAYU|20180719|20250719|127000000|0|XXXX|1|6
04270665|KMGI4009|042|KHOMARIYAH,DRA|KMGRA|P|3518066107670001|NGANJUK|19670721|DS TANJUNGTANI RT/RW 018/006, KEC PRAMBON,KEDIRI|40|REAL KMG KHOMARIYAH|20180719|20210719|40000000|0|XXXX|0|3
02244696|16600433|166|NURUL HARINI|KMGRA|P|3503114111730002|BANGIL|19731101|PROF DR HAMKA 13A RT 10 RW 03, NGANTRU TRENGGALEK,TRENGGALEK|40|REAL KMG NURUL HARINI|20180719|20330719|186000000|0|XXXX|1|6
00340270|MG811512|081|SITI NURHIDAYATI|KMGRA|P|3505064303680005|BLITAR|19680303|DSN POJOK RT01 RW02 DS POJOK, PONGGOK,BLITAR|40|REAL KMG SITI N/ASO/51|20180719|20240719|180000000|0|XXXX|0|6
04617666|00171MTG|046|ENDANG SOFWATI|KMGRA|P|3505155903670001|MAGETAN|19670319|DSN KOTES 02/01, GANDUSARI,BLITAR|40|REAL KMG ENDANG SOFWATI/ASI|20180719|20230719|100000000|0|XXXX|1|6
01105786|118A0321|011|SADRAK|KMGRA|L|3517092303660003|JOMBANG|19660323|SAMBONGDUKUH RT006 RW007, JOMBANG,JOMBANG|40|REAL KMG SADRAK|20180719|20230719|100000000|0|XXXX|0|11
04529931|118A0322|011|SLAMET KARYONO|KMGRA|L|3517072009640003|JOMBANG|19640920|JL SUMBERBOTO RT01 RW01, JAPANAN MOJOWARNO,JOMBANG|40|REAL KMG SLAMET KARYONO|20180719|20220719|50000000|0|XXXX|0|11
01147359|118A0323|011|ANTOK WIDIANTO|KMGRA|L|3517013108730001|JOMBANG|19730831|DESA PLOSOGENUK RT03 RW03, JOMBANG,JOMBANG|40|REAL KMG ANTOK WIDIANTO|20180719|20310719|165000000|0|XXXX|1|11
24335358|118A0324|011|DEWI ADILAH BADRIANAH|KMGRA|P|3517196904720002|JOMBANG|19720429|DSN GERIH RT03 RW06, JANTI JOGOROTO,JOMBANG|40|REAL KMG DEWI ADILAH B|20180719|20230719|50000000|0|XXXX|0|11
01120012|118A0325|011|SOEGENG HARIJANTO,SE|KMGRA|L|3517151604700001|NGANJUK|19700416|MOJOGULUNG RT001 RW003, KARANGMOJO PLANDAAN,JOMBANG|40|REAL KMG SOEGENG HARIJANTO|20180719|20270719|140000000|0|XXXX|1|11
47246709|04068164|004|SUPRIYADI|KMGRA|L|3573050508670004|MALANG|19670805|JL JOYO PRANOTO NO 597 RT2 RW5, MERJOSARI LOWOKWARU,MALANG|40|SARLINA|20180719|20210719|60000000|0|XXXX|1|4
47291511|04068165|004|CAHYA ULYA FITRIYAH|KMGRA|P|3573035106830004|LAMONGAN|19830611|JL D SENTANI TENGAH I H2 A28, RT002 RW013 MADYOPURO,MALANG|40|ASKRINDO|20180719|20300719|170000000|0|XXXX|1|6
