07132068|01341259|013|SLAMET|KMGRA|L|3513131912670001|PROBOLINGGO|19670910|DUSUN TERONG RT8 RW2, ALAS SUMUR LOR BESUK,PROBOLINGGO|47|REAL KMG PANPA|20180720|20230720|25000000|0|XXXX|0|8
01328241|01341297|013|HANTOYO|KMGRA|L|3513101708630003|PROBOLINGGO|19630817|DUSUN DARPO RT03 RW03, SUMBERKEMBAR,PROBOLINGGO|47|REAL KMG PANPA|20180720|20230720|39000000|0|XXXX|0|8
01357655|01341310|013|DIRIMIN|KMGRA|L|3513100104640004|PROBOLINGGO|19640401|KARANG DUWEK RT2 RW3 GONDOSULI, PAKUNIRAN,PROBOLINGGO|47|REAL KMG PANPA|20180720|20230720|39000000|0|XXXX|0|8
01357654|01341311|013|SURAJI|KMGRA|P|3513100107630084|PROBOLINGGO|19630701|KARANG DUWEK RT1 RW3SULI, GONDOSULI PAKUNIRAN,PROBOLINGGO|47|REAL KMG PANPA|20180720|20230720|39000000|0|XXXX|0|8
01353819|01341312|013|SYAMSURI|KMGRA|L|3513101603840005|PROBOLINGGO|19840316|DUSUN KRAJAN RT002 RW001, GONDOSULI PAKUNIRAN,PROBOLINGGO|47|REAL KMG PANPA|20180720|20230720|39000000|0|XXXX|0|8
01357656|01341314|013|SANO|KMGRA|L|3513103012720001|PROBOLINGGO|19721230|DUSUN DURIN RT1 RW6 GONDOSULI, PAKUNIRAN,PROBOLINGGO|47|REAL KMG PANPA|20180720|20230720|39000000|0|XXXX|0|8
01357652|01341315|013|YUSMIATI|KMGRA|P|3513104809750001|PROBOLINGGO|19750908|DUSUN KRAJAN RT1 RW1GONDOSULI, PAKUNIRAN,PROBOLINGGO|47|REAL KMG PANPA|20180720|20230720|39000000|0|XXXX|0|8
01357653|01341316|013|NOR HIDAYAT|KMGRA|L|3513102002820002|PROBOLINGGO|19820220|KRAJAN RT1 RW1 GONDOSULI, PAKUNIRAN,PROBOLINGGO|47|REAL KMG PANPA|20180720|20230720|39000000|0|XXXX|0|8
01357762|01341322|013|AGUS SUDJAERI WIDJAYA|KMGRA|L|3513101308680001|PROBOLINGGO|19680813|KRAJAN RT7 RW2, BUCOR KULON PAKUNIRAN,PROBOLINGGO|47|REAM KMG PANPA|20180720|20230720|39000000|0|XXXX|0|8
01357763|01341325|013|MIMIN ANDRIANTO|KMGRA|L|3513101008920003|PROBOLINGGO|19920810|DUSUN KOLOR RT1 RW1, BUCOR KULON PAKUNIRAN,PROBOLINGGO|47|REAL KMG PANPA|20180720|20230720|20000000|0|XXXX|0|8
16191543|01341327|013|SYAMSUL HUDA|KMGRA|L|3513100511830002|PROBOLINGGO|19831105|DUSUN ACEM 25/5, ,PROBOLINGGO|47|REAL KMG PANPA|20180720|20230720|20000000|0|XXXX|0|8
01357765|01341328|013|SHALEHUDDIN|KMGRA|L|3513100107700127|PROBOLINGGO|19700701|DUSUN KOLOR RT4 RW2, BUCOR KULON PAKUNIRAN,PROBOLINGGO|47|REAL KMG PANPA|20180720|20230720|39000000|0|XXXX|0|8
01357766|01341332|013|NANANG SUPRIADI|KMGRA|L|3513101206680002|PROBOLINGGO|19680612|DUSUN ACEM RT24 RW5, BUCOR KULON PAKUNIRAN,PROBOLINGGO|47|REAL KMG PANPA|20180720|20230720|39000000|0|XXXX|0|8
02262027|02246918|022|SUMILAH|KMGRA|P|3503124509650001|TRENGGALEK|19650905|WONOCOYO RT 05 RW 03, WONOCOYO POGALAN,TRENGGALEK|40|REAL KMG SUMILAH|20180720|20200720|35000000|0|XXXX|1|6
01323940|01341358|013|KUSNAWIYAH,SPD|KMGRA|P|3513185009660002|PROBOLINGGO|19660910|DUSUN 3 PASAR 2 RT12 RW06, KLASEMAN GENDING,PROBOLINGGO|40|REAL KMG SARLINA|20180720|20230720|50000000|0|XXXX|1|4
47688283|10800556|108|APDANI|KMGRA|L|3524222104840003|LAMONGAN|19840421|PONDOK BESTARI INDAH BLOK E4, NO 155 LANDUNGSARI DAU,KABUPATEN MALANG|44|REAL APDANI|20180720|20230720|75000000|0|XXXX|0|8
07119764|07123147|071|SONI|KMGRA|L|3513080104890003|PROBOLINGGO|19890401|DUSUN PERENGAN RT 07 RW 03, BETEK KRUCIL,PROBOLINGGO|47|REAL KMG PERANGKAT|20180720|20230720|35000000|0|XXXX|0|8
01262703|07123157|071|KUS ALI|KMGRA|L|3513081507680001|PROBOLINGGO|19680715|SUMBER JAMBE RT 12 RW 8 BETEK, SUMBER JAMBE RT 12 RW 8 BETEK,PROBOLINGGO|47|REAL KMG PERANGKAT|20180720|20230720|35000000|0|XXXX|1|8
04764373|04068166|004|SUKIM PRAYITNO|KMGRA|L|3573032602680001|SIDOARJO|19680226|PERUM CITRA PESONA BURING RAYA, B2 12A RT5RW4 WONOKOYO KDKNDNG,MALANG|40|REAL KMG PAN|20180720|20220720|70000000|0|XXXX|0|8
07106345|07123120|071|HERI SUPRAPTO|KMGRA|L|3513171710640001|PROBOLINGGO|19641017|BLOK GINDUL RT 003 RW 001, GANTING KULON MARON,PROBOLINGGO|47|REAL KMG PERANGKAT|20180720|20230720|35000000|0|XXXX|0|8
07119056|07123149|071|SAMAT|KMGRA|L|3513081805730002|PROBOLINGGO|19730518|DUSUN DUNBANGU RT09 RW07, ,PROBOLINGGO|47|REAL KMG PERANGKAT|20180720|20230720|35000000|0|XXXX|0|8
07131142|07123160|071|HALIK ANDRIADI|KMGRA|L|3513090201760004|PROBOLINGGO|19760102|JL SUTARJO RT16 RW04, CONDONG GADING,PROBOLINGGO|47|REAL KMG PERANGKAT|20180720|20230720|35000000|0|XXXX|0|8
01519607|CK001105|129|DWI HARI SUSIANTI|KMGRA|P|3504014907620001|TULUNGAGUNG|19620709|PERUM KUTOANYAR PERMAI, KUTOANYAR RT 004/005,TULUNGAGUNG|40|CK001105|20180720|20220720|160000000|0|XXXX|1|8
47718449|10800557|108|FITRIA|KMGRA|P|3573054107840005|MALANG|19840701|JL PERTAMANAN, RT 015 RW 005,KAB MALANG|44|REAL FITRIA|20180720|20210720|70000000|0|XXXX|0|8
47639318|10800558|108|TITIK AGUSTIYANINGSIH|KMGRA|P|3573035808760002|MALANG|19760818|JL LAKS MARTADINATA IIA NO 1, KOTALAMA KEDUNGKANDANG,MALANG|44|REAL TITIK|20180720|20230720|50000000|0|XXXX|1|8
24411558|418A0078|144|SAMSIAH|KMGRA|P|3517166106830003|TRENGGALEK|19830621|DUSUN GENENGAN RT 001 RW 002, GENENGANJASEM KABUH,JOMBANG|40|REAL KMG SAMSIAH 2018|20180720|20300720|150000000|0|XXXX|1|11
01357651|01341313|013|MUHAMMAD|KMGRA|L|35131015047400002|PROBOLINGGO|19741215|DUSUN KARANG DUWEK RT2 RW3, GONDOSULI PAKUNIRAN,PROBOLINGGO|47|REAL KMG PANPA|20180720|20210720|35000000|0|XXXX|0|8
01357764|01341317|013|HORIYAH NINGTIAS|KMGRA|P|3513106507690001|PROBOLINGGO|19690725|KRAJAN RT7 RW2 BUCOR KULON, PAKUNIRAN,PROBOLINGGO|47|REAL KMG PANPA|20180720|20230720|10000000|0|XXXX|0|8
01331791|01341360|013|ZAINUL ARIFIN|KMGRA|L|3513041212730001|PROBOLINGGO|19731212|GANG KAUMAN RT04 RW01, BANTARAN,PROBOLINGGO|40|REALS KMG PANPA|20180720|20320720|210000000|0|XXXX|1|8
04012701|0406835M|040|NINIK YULIATI,AMAPD|KMGRA|P|3579024604840003|MALANG|19840406|DSN KAPRU RT.5 RW.3 GUNUNGSARI, RT01 RW02,BATU|40|REAL KMG AN.NINIK YULIATI|20180720|20260720|150000000|0|XXXX|1|6
04007619|0406836M|040|SUSIANTO|KMGRA|L|3579021707840001|MALANG|19840717|JL PUNDEN RT17 RW05, GUNUNGSARI TAJINAN,KAB MALANG|40|REAL KMG AN.SUSIANTO|20180720|20220720|30000000|0|XXXX|1|3
01444270|M1650481|165|FAISAL ANSHORI|KMGRA|L|3505141606740003|BANDUNG|19740616|JL SINGOLODRO RT04 RW10, GEDOG SANANWETAN,BLITAR|40|REAL KMG FAISAL A/469/ASO|20180720|20280720|226000000|0|XXXX|1|6
47384435|04068167|004|HERI LUKITO|KMGRA|L|3508072008840005|LUMAJANG|19840820|DSN KRAJAN RT017 RW005, YOSOWILANGUN LOR,LUMAJANG|40|REAL KMG PAN|20180720|20220720|80000000|0|XXXX|0|8
00356366|04068168|004|DWI SULISTYOWATI|KMGRA|P|3573026205670002|MALANG|19670522|PERUM PONDOK CEMPAKA INDAH, C II/4 RT 07 RW 02,MALANG|40|REAL KMG PAN|20180720|20250420|180000000|0|XXXX|1|8
05607160|07123158|071|NISA INDRAWATI|KMGRA|P|3513205207770002|PROBOLINGGO|19770712|DSN TUNGGULASI RT002 RW001, MALASAN WETAN TEGALSIWALAN,PROBOLINGGO|47|REAL KMG PERANGKAT|20180720|20230720|35000000|0|XXXX|1|8
05607103|07123159|071|MARSUB|KMGRA|L|3513200604640002|PROBOLINGGO|19640406|DSN KRAJAN RT006 RW002, MALASAN WETAN TEGALSIWALAN,PROBOLINGGO|47|REAL KMG PERANGKAT|20180720|20230720|35000000|0|XXXX|1|8
05607164|07123165|071|MOCH SARIF|KMGRA|L|3513201502790001|PROBOLINGGO|19790215|DSN KRAJAN RT007 RW002, MALASAN WETAN TEGALSIWALAN,PROBOLINGGO|47|REAL KMG PERANGKAT|20180720|20230720|35000000|0|XXXX|1|8
01547810|CD000501|156|SUSWANTI|KMGRA|P|3504185204770002|TULUNGAGUNG|19770412|DSN MULYO 02/01, SAMBITAN PAKEL,TULUNGAGUNG|40|CD000501|20180720|20220720|45000000|0|XXXX|1|8
01554804|1MG26717|015|SETIYARTO|KMGPK|L|5171012205720006|WONOGIRI|19720522|DSN BENDOAGUNG 015/04, BENDOAGUNG KAMPAK,TRENGGALEK|35|KMG TOP UP MOU|20180720|20240720|140000000|0|XXXX|1|8
01337549|07123161|071|MASHURI|KMGRA|L|3513170706690001|PROBOLINGGO|19690607|DUSUN KRAJAN RT03 RW01, SUMBERPOH MARON,PROBOLINGGO|47|REAL KMG PERANGKAT|20180720|20230720|35000000|0|XXXX|0|8
07104687|07123162|071|ABD ROHIM|KMGRA|L|3513170506770001|PROBOLINGGO|19770605|DUSUN KRAJAN II RT08 RW02, SUMBERPOH MARON,PROBOLINGGO|47|REAL KMG PERANGKAT|20180720|20230720|35000000|0|XXXX|0|8
07131152|07123163|071|AHMAD SULTONI ILYAS|KMGRA|L|3513171603920001|PROBOLINGGO|19920316|DUSUN ARAH RT10 RW03, SUMBERPOH MARON,PROBOLINGGO|47|REAL KMG PERANGKAT|20180720|20230720|35000000|0|XXXX|0|8
07119484|07123166|071|MARZUKI|KMGRA|L|3513200607840002|PROBOLINGGO|19840706|DUSUN PLERENAN LOR RT08 RW02, ,PROBOLINGGO|47|REAL KMG PERANGKAT|20180720|20230720|35000000|0|XXXX|0|8
01389308|01341361|013|M SOHIBUL HUDA|KMGRA|L|3513122104680001|PROBOLINGGO|19681231|KRAJAN RT6 RW3 BINOR, PAITON,PROBOLINGGO|44|REAL KMG ASKRINDO|20180720|20230720|35000000|0|XXXX|0|6
01147106|118A0326|011|LILIS SETYOWATI|KMGRA|P|3517025409750004|JOMBANG|19750914|DSN BALONGGADING RT2 RW1, JOMBANG,JOMBANG|40|REAL KMG LILIS SETYOWATI|20180720|20320720|170000000|0|XXXX|1|3
47174322|60015436|060|JUNI FAJAR WATRI|KMGRA|P|3507216906780003|PONOROGO|19780629|DSN LEMAH DHUWUR RT001 RW001, WAGIR,KAB MALANG|40|REAL JUNI FAJAR P2% AGR ASKDA|20180720|20230720|88000000|0|XXXX|1|8
23288270|01229941|012|UJANG TOPIK HIDAYAT,SH|MKONF|L|3574042908780001|PROBOLINGGO|19780829|KH HASAN GG PENDEKAR NO 70, RT4 RW4 SUKOHARJO KANIGARAN,PROBOLINGGO|40|REAL KMG 2018|20180720|20220805|50531250|0|XXXX|1|99
01303497|162629MG|161|SUPENO,SPD|KMGRA|L|3513131005640001|PROBOLINGGO|19640510|DSN KEBONAN KALISALAM, RT03 RW02 DRINGU,PROBOLINGGO|40|REAL KMG SUPENO|20180720|20240501|185000000|0|XXXX|1|8
04701055|47MG4272|047|HENY DWIASTUTI, S.PD|KMGRA|P|1203087105700001|TULUNGAGUNG|19700531|DSN.TUGU RT04 RW 02, TUGU REJOTANGAN,REJOTANGAN|40|KMG|20180720|20210720|75000000|0|XXXX|1|8
14284171|14MG8936|014|ASYIK FAUZI|KMGRA|L|3505143110780002|BLITAR|19781031|DSN PUNDENSARI RT04 RW02, JEBLOG TALUN,BLITAR|40|014/270/KMG/VII/2018 ASKRINDO|20180720|20210720|70000000|0|XXXX|1|6
00328353|14MG8937|014|RARA SRI SUTARMINI|KMGRA|P|3572037108640001|SINGKAWANG|19640831|JL SURYAT NO 31 RT 03 RW 06, GEDOG SANANWETAN,BLITAR|40|014/271/KMG/VII/2018 ASKRINDO|20180720|20220720|110000000|0|XXXX|1|6
14202029|MGP81096|081|SRI UTAMI|KMGPA|P|3505034905610001|BLITAR|19610509|DUSUN SELOKAJANG RT 05 RW 03, DESA SELOKAJANG SRENGAT,BLITAR|40|REAL KMG PP SRI UTAMI/ASO/15|20180720|20330720|200000000|0|XXXX|1|6
47171433|10800559|108|TRI TUNGGAL,SH|KMGRA|L|3507272202640001|MALANG|19640222|DSN LAJU RT 17 RW 03 BANJAREJO, NGANTANG,KABUPATEN MALANG|40|REAL TRI|20180720|20210720|73300000|0|XXXX|0|8
02207777|02246919|022|SRI WINARTI|KMGRA|P|3503064607670002|TRENGGALEK|19670706|NGLONGAH LOR RT 07 RW 02, SUMBERINGIN KARANGAN,TRENGGALEK|40|REAL KMG SRI WINARTI|20180720|20240720|120000000|0|XXXX|1|6
42946753|04068169|004|RENDRA FIRMANSYAH|KMGRA|L|3573041606800008|MALANG|19800616|PERUM BANDULAN BARU KAV 70, BANDULAN SUKUN,MALANG|40|REAL KMG PAN|20180720|20200720|17500000|0|XXXX|1|8
04617150|00172MTG|046|YULIANA|KMGRA|P|3505225211710003|BLITAR|19711112|DS MANDESAN RT04 RW01 SELOPURO, MANDESAN,BLITAR|40|REAL KMG YULIANA/ASI|20180720|20210720|60000000|0|XXXX|1|6
14213900|00173MTG|046|SULIYANI|KMGRA|P|3505206303830002|BLITAR|19830323|DSN TULUNGREJO RT003 RW002, TULUNGREJO WATES,BLITAR|40|REAL KMG SULIYANI/ASI|20180720|20220720|70000000|0|XXXX|0|6
01504979|1MG26718|015|SULAMI|KMGRA|P|3504084110660003|TULUNGAGUNG|19661001|DSN MOJOGITIK 01/02, ,TULUNGAGUNG|41|REAL KMG|20180720|20220720|30000000|0|XXXX|1|8
01544234|1MG26719|015|PANJI PUTRANTO|KMGRA|L|3504031706810002|TULUNGAGUNG|19810617|DSN REJOAGUNG 07/01, REJOAGUNG KEDUNGWARU,TULUNGAGUNG|40|REAL KMG|20180720|20210720|75000000|0|XXXX|0|8
42785833|TRPR0871|162|PRIYOADI SPD,SPD|KMGPA|L|3507101107610002|MALANG|19610711|JL SUROPATI 40 RT07 RW04, DS GONDANGLEGI WETAN,MALANG|40|REAL|20180720|20250720|165000000|0|XXXX|1|3
24337070|118A0327|011|NAILUL MASRUROH|KMGRA|P|3517034807830006|JOMBANG|19830708|DUSUN BUGASUR RT01 RW02, BUGASURKEDALEMAN GUDO,JOMBANG|40|REAL KMG NAILUL M|20180720|20210720|20000000|0|XXXX|0|11
04270671|KMGI4010|042|MUJIATININGSIH|KMGRA|P|35061452026900001|KEDIRI|19690212|TANON UTARA RT/RW 002/001, KEC PAPAR,KEDIRI|40|REAL KMG MUJIATININGSIH|20180720|20280720|155000000|0|XXXX|0|3
