02 DATA GAGAL CB01325|Nomor Pinjaman Sudah Ada
02 DATA GAGAL CB01326|Nomor Pinjaman Sudah Ada
02 DATA GAGAL CB01327|Nomor Pinjaman Sudah Ada
02 DATA GAGAL CB01328|Nomor Pinjaman Sudah Ada
02 DATA GAGAL CB01329|Nomor Pinjaman Sudah Ada
02 DATA GAGAL CB01330|Umur Tidak Sesuai
02 DATA GAGAL CB01331|Umur Tidak Sesuai