24321655|418A0079|144|MOCH ALI SODIKIN|KMGRA|L|3517142909790001|SURABAYA|19790929|DUSUN LENGKONG RT004 RW003, JATIGEDONG PLOSO,JOMBANG|40|RAEL KMG M ALI SODIKIN|20180730|20220730|1080000000|0|XXXX|0|8
01112844|418A0080|144|ELLI WAHYUNI|KMGRA|P|3515167101790002|SURABAYA|19790131|SUMBERTEGUH RT 001 RW 001, SUMBERTEGUH KUDU,JOMBANG|40|REAL KMG ELLI WAHYUNI 2018|20180730|20220730|80000000|0|XXXX|0|8
05606627|162651DD|161|HARI PRIYATMOKO|KMGRA|L|3513022105740002|PROBOLINGGO|19740521|DSN KRAJAN RT01 RW01, GEMITO SUMBER,PROBOLINGGO|47|REAL KMG PRGKT HARI PRIYATMOKO|20180730|20220730|30000000|0|XXXX|1|8
24320858|118A0338|011|BETI ISWARI|KMGRA|P|3517095602710002|SURABAYA|19710216|PERUM PLANDI PERMAI I NO 4, RT26 RW06 PLANDI,JOMBANG|40|REAL KMG BETI ISWARI|20180730|20300730|1028000000|0|XXXX|0|8
04616471|00178MTG|046|TRI WAHYUNING R DR|KMGRA|P|3505144607770003|BLITAR|19770706|DSN KEMBANG ARUM RT 02 RW 03, TALUN,BLITAR|40|REAL MTG TRI WAHYUNING R/ ASI|20180730|20280730|210000000|0|XXXX|0|8
14271082|00179MTG|046|IMAM SYAFI'I|KMGRA|L|3505190305710001|BLITAR|19710503|DSN SEMBUNG RT/RW 002/004, DESA PAGERGUNUNG,BLITAR|40|REAL MTG IMAM SYAFI'I / ASI|20180730|20210730|50000000|0|XXXX|0|8
04504346|218A0152|045|PURWANTI,SPD|KMGRA|P|3516124106800006|JOMBANG|19800601|DUSUN TROWULAN RT 001 RW 001, DS TROWULAN KECAMATAN TROWULAN,MOJOKERTO|40|REAL KMG|20180730|20230730|30000000|0|XXXX|1|8
