01397247|01341395|013|ABDUL HALIM|KMGRA|L|3513100202910002|PROBOLINGGO|19910202|DUSUN KARANGANOM RT11 RW06, KARANGANYAR PAITON,PROBOLINGGO|44|REAL KMG ASKRINDO|20180726|20230726|1040000000|0|XXXX|0|6
01397249|01341396|013|ABDUL HAMID|KMGRA|L|3574031703860001|PROBOLINGGO|19860317|JL SUNAN AMPEL RT03 RW07, JREBENG LOR KEDOPOK,PROBOLINGGO|44|REAL KMG ASKRINDO|20180726|20230726|16000000|0|XXXX|0|6
01357886|01341186|013|ERIK RIDWANTO|KMGRA|L|3513160508940002|PROBOLINGGO|19940805|DUSUN NOKO TLOGO RT16 RW06, KARANGGEGER PAJARAKAN,PROBOLINGGO|47|REAL KMG PERANGKAT PANPA|20180726|20220726|1165000000|0|XXXX|0|8
01138003|318A0076|013|ENDANG DWI LESTARI,SPD|KMGRA|P|3517026308770002|JOMBANG|19770823|MEJOYOLOSARI RT002 RW003, MEJOYOLOSARI GUDO JOMBANG,JOMBANG|40|REAL KMGH143|20180726|20230726|80000000|0|XXXX|1|8
00331901|14MG8952|014|RESTU PALUPI|KMGRA|P|3572037108660003|BLITAR|19660831|JL DR SUTOMO NO 26 RT01 RW07, SANANWETAN,BLITAR|40|014/286/KMG/VII/2018 PAN PAS|20180726|20240726|221000000|0|XXXX|1|8
14279553|14MG8953|014|HETI CANDRA SUSANTI|KMGRA|P|3572036704770005|BLITAR|19770427|JL GILI SILAT NO 30 RT03 RW05, KARANGTENGAH KEC SANANWETAN,BLITAR|40|014/287/KMG/VII/2018 PAN PAS|20180726|20230726|1150000000|0|XXXX|0|8
00338139|14MG8954|014|ARWIS|KMGRA|L|3572031809730002|PALOPO|19730918|JL WR SUPRATMAN GG V NO 11, RT03 RW06 BENDOGERIT,BLITAR|40|014/289/KMG/VII/2018 PAN PAS|20180726|20280726|180000000|0|XXXX|0|8
14314964|14MG8955|014|AMBAR NORMASARI|KMGRA|P|3505095308850001|BLITAR|19850813|JL IR SOEKARNO NO21 RT01 RW09, SENTUL KEPANJENKIDUL,BLITAR|40|014/290/KMG/VII/2018 PAN PAS|20180726|20230726|100000000|0|XXXX|1|8
14084986|14MG8956|014|SUKATMI|KMGRA|P|3572036703620001|BLITAR|19620327|JL PEMUDA SUMPONO RT 1 RW 3, GEDOG SANANWETAN,BLITAR|40|014/288/KMG/VII/2018 PAN PAS|20180726|20210726|22000000|0|XXXX|1|8
00344827|14PNS977|014|AHMAT SANTOSA|KMGPA|L|3572022205620001|BLITAR|19620522|JLN WIDURI RT 01 RW 03, TLUMPU SUKOREJO,BLITAR|45|014/027/PP/VII/2018 PAN PAS|20180726|20260726|100000000|0|XXXX|1|8
