012555|CB01444|006|UMU MAISAROH|KMGPK|P|3524226611790000|LAMONGAN|19791126|DESA TANJUNG RT 001 RW 001, KECAMATAN LAMONGAN,LAMONGAN|35|KMG BARU/ PAN PACIFIC|20180507|20210507|30000000|0|XXXX|0|8
012556|CB01445|006|SUNARTO|NKPGA|L|3518063112590070|JOMBANG|19641231|COMBRE RT 001 RW 005, DESA GONMDANGLEGI KEC PRAMBON,NGANJUK|BJ|21288/SUNARTO/MEGA.INS|20180507|20220507|58000000|0|XXXX|1|2
012557|CB01446|006|PIPIT WINARSIH,SE,SE|NKPGA|P|3571015411780000|NGANJUK|19781114|JL KH HASYIM ASHARI NO 70 A, RT03RW06 BANJARMLATI-MOJOROTO,KEDIRI|BJ|21290/PIPIT WINARSIH|20180507|20330507|169000000|0|XXXX|1|2
012558|CB01447|006|MISTAM|NKPGA|L|3501063007650000|PACITAN|19650730|DSN PULE RT 004 RW 002, DS ARJOSARI KEC ARJOSARI,PACITAN|BJ|REAL MULTI MISTAM|20180507|20210507|28000000|0|XXXX|1|6
012559|CB01448|006|ANDRIYANI EKOWATI,-|KMGPA|P|3509166911630000|JEMBER|19631129|DUSUN WETAN GUNUNG RT 06 RW 02, WONOJATI JENGGAWAH,JEMBER|40|REAL PRAPEN+ ANDRIYANI EKOWATI|20180507|20330501|260000000|0|XXXX|1|99
012560|CB01449|006|AGUS YUDIARTO|KMGRA|L|3509200307590000|JEMBER|19590703|DSN TEGAL BANTENG RT.4 RW.4, KESILIR WULUHAN JEMBER,JEMBER|40|REALISASI KMG-AGUS YUDIARTO|20180507|20250501|110000000|0|XXXX|1|99
012561|CB01450|006|SUDARMAJI|KMGRA|L|3578190403750000|LAMONGAN|19750304|SEMEMI JAYA 10/97-A, RT 09 RW 01,SURABAYA|40|REAL KMG 6742|20180507|20200507|35000000|0|XXXX|1|4
012562|CB01451|077|MINAH KUSTIANI,DRA|NKPGA|P|3502164702660000|PONOROGO|19660207|PERUM KERTOSARI INDAH H 9, RT 4 RW 2 KERTOSARI BABADAN,PONOROGO|BJ|REALS MULTIGUNA|20180507|20250507|150000000|0|XXXX|1|6
012563|CB01452|077|ENI WIJARWATI,SPD|NKPGA|P|3518085107660000|SURABAYA|19660711|JLN RONGGO WARSITO 12 RT01, RW12 DS BANARAN KEC KERTOSONO,NGANJUK|BJ|REAL MULTIGUNA|20180507|20260507|215000000|0|XXXX|1|99
012564|CB01453|077|IMAM SUDJONO|KMGRA|L|3574040806570000|MALANG|19570608|JL CITARUM NO A 16, RT 1 RW 4 CURAHGRINTING,PROBOLINGGO|45|REAL KMG IMAM SUDJONO|20180507|20230507|96000000|0|XXXX|1|6
012565|CB01454|077|SITI MUHTAROMIN|NKPGA|P|3504096706720000|TULUNGAGUNG|19720627|DSN KRAJAN 02/01, SIDEM GONDANG,TULUNGAGUNG|BJ|REAL KMG|20180507|20260507|79000000|0|XXXX|1|8
012566|CB01455|077|SUGENG RIANTO|KMGRA|L|3518091511690000|NGANJUK|19691115|DUSUN SUGIHWARAS RT024 RW006, DS BABADAN KEC PATIANROWO,NGANJUK|40|REAL KMG SUGENG RIANTO|20180507|20270507|155000000|0|XXXX|1|6
012567|CB01456|077|AMKHAK SOLIKHIN|KMGRA|L|3508101603810000|LUMAJANG|19810316|JL CITANDUI 162 RT 002/RW 007, JOGOYUDAN,LUMAJANG|40|SARLINA/198103162008011005/F2|20180507|20330507|232000000|0|XXXX|1|4
012568|CB01457|077|TYTA SULISTYANA,S.SOS|KMGRA|P|3508084512690000|LUMAJANG|19691205|PONDOK REJO RT 010 RW 004, KEDUNGREJO ROWOKANGKUNG,LUMAJANG|47|SARLINA/PPDI/F2|20180507|20210507|26000000|0|XXXX|0|4
012569|CB01458|111|MARSUDI|NKPGA|L|3521110308690000|NGAWI|19690803|DSN NGADILUWIH RT 03 RW 05, DS GEMARANG KEC KEDUNGGALAR,NGAWI|BJ|11818032/AKO/A030/PNS/B|20180507|20260507|50000000|0|XXXX|0|6
012570|CB01459|111|ARIYANTO,SARJANA|NKPGA|L|3521151706650000|NGAWI|19650617|DS LEGOWETAN RT 02 RW 02, KEC BRINGIN,NGAWI|BJ|ASK/96180041/UPT BRINGIN|20180507|20230507|100000000|0|XXXX|1|3
012571|CB01460|111|SURTINI,AMA|NKPGA|P|3514234608610000|BLITAR|19610806|GAPUK KAWISREJO, RT001 RW002,PASURUAN|BJ|REAL KMG SURTINI|20180507|20210507|123000000|0|XXXX|1|2
012572|CB01461|111|SUMARDI|KMGRA|L|3578140607640000|BANYUWANGI|19640706|KUTISARI INDAH SELATAN 6/2, RT1 RW5 KUTISARI TENG MEJOYO,SURABAYA|40|KMGR7384/SUMARDI/SMPN 49|20180507|20220507|60000000|0|XXXX|1|6
012573|CB01462|111|NUR ROHMAN|KMGRA|L|3505032606770000|BLITAR|19770626|DSN KARANGGAYAM RT 02 RW 07, KARANGGAYAM SRENGAT,BLITAR|40|REAL KMG NUR ROHMAN/PAN/32|20180507|20260507|185000000|0|XXXX|1|8
012574|CB01463|111|HANAMO|KMGRA|L|3511060510680000|BONDOWOSO|19681005|DESA SUMBER PANDAN RT15 RW06, KECAMATAN GRUJUGAN,BONDOWOSO|47|REAL KMG HANAMO|20180507|20210507|30000000|0|XXXX|1|6
012575|CB01464|111|IRWAN SETIAWAN|KMGRA|L|3511061310840000|BONDOWOSO|19841013|DESA SUMBER PANDAN RT10 RW04, KECAMATAN GRUJUGAN,BONDOWOSO|47|REAL KMG IRWAN SETIAWAN|20180507|20210507|30000000|0|XXXX|1|6
